﻿SIRET CIBELE;Code acteur dépôt;Mouvement;Type de transfert;Sens;Année de récolte;Date de récolte;Date;N° Bon;Code adhérent;Code produit;Poids Net
39198157800035;2229;transfert;Apport agriculteur;e;2019;12/07/2019;12/07/2019;222900262-C17;219029999;803;18480
39198157800035;2229;transfert;Apport agriculteur;e;2019;12/07/2019;12/07/2019;222900463-C17;219029999;803;10980
39198157800035;2229;transfert;Apport agriculteur;e;2019;12/07/2019;12/07/2019;222900461-C17;219029999;803;14740
39198157800035;2229;transfert;Apport agriculteur;e;2019;13/07/2019;13/07/2019;222900264-C17;219029999;803;8340
39198157800035;2229;transfert;Transfert entre silo;e;2019;;22/07/2019;222102740-C17;2221;803;29200
39198157800035;2229;transfert;Apport agriculteur;e;2019;13/07/2019;13/07/2019;222900272-C2;219029999;803;3320
39198157800035;2229;transfert;Apport agriculteur;e;2019;18/07/2019;18/07/2019;222900283-C2;219029951;803;16580
39198157800035;2229;transfert;Apport agriculteur;e;2019;17/07/2019;17/07/2019;222900278-C16;219029988;803;12340
39198157800035;2229;transfert;Apport agriculteur;e;2019;17/07/2019;17/07/2019;222900279-C16;219030008;803;14820
39198157800035;2229;transfert;Apport agriculteur;e;2019;17/07/2019;17/07/2019;222900276-C16;219027182;803;4420
39198157800035;2229;transfert;Apport agriculteur;e;2019;18/07/2019;18/07/2019;222900302-C16;219027144;803;19860
39198157800035;2229;transfert;Apport agriculteur;e;2019;18/07/2019;18/07/2019;222900301-C16;219027144;803;6520
39198157800035;2229;transfert;Apport agriculteur;e;2019;18/07/2019;18/07/2019;222900291-C10;219029992;803;20820
39198157800035;2229;transfert;Apport agriculteur;e;2019;18/07/2019;19/07/2019;222900290-C10;219030008;803;12460
39198157800035;2229;transfert;Apport agriculteur;e;2019;19/07/2019;19/07/2019;222900306-C10;219030002;803;15780
39198157800035;2229;transfert;Apport agriculteur;e;2019;19/07/2019;19/07/2019;222900303-C10;219029715;803;6440
39198157800035;2229;transfert;Transfert entre silo;e;2019;;20/07/2019;222102711-C10;2221;803;28980
39198157800035;2229;transfert;Apport agriculteur;e;2019;20/07/2019;20/07/2019;222900314-C10;219029997;803;1620
39198157800035;2229;transfert;Apport agriculteur;e;2019;15/07/2019;15/07/2019;222900296-C9;219030003;803;16700
39198157800035;2229;transfert;Apport agriculteur;e;2019;16/07/2019;16/07/2019;222900298-C9;219030003;803;8520
39198157800035;2229;transfert;Apport agriculteur;e;2019;16/07/2019;16/07/2019;222900308-C9;219029948;803;11620
39198157800035;2229;transfert;Apport agriculteur;e;2019;16/07/2019;16/07/2019;222900269-C9;219029985;803;21340
39198157800035;2229;transfert;Apport agriculteur;e;2019;15/07/2019;15/07/2019;222900296-C11;219030003;803;14680
39198157800035;2229;transfert;Apport agriculteur;e;2019;15/07/2019;15/07/2019;222900268-C11;219029985;803;24000
39198157800035;2229;transfert;Apport agriculteur;e;2019;19/07/2019;19/07/2019;222900293-C11;219029715;803;8920
39198157800035;2229;transfert;Apport agriculteur;e;2019;19/07/2019;19/07/2019;222900309-C11;219029946;803;13560
39198157800035;2229;transfert;Apport agriculteur;e;2019;20/07/2019;20/07/2019;222900311-C11;219029946;803;13260
39198157800035;2229;transfert;Apport agriculteur;e;2019;16/07/2019;16/07/2019;222900307-C7;219029948;803;13200
39198157800035;2229;transfert;Apport agriculteur;e;2019;17/07/2019;17/07/2019;222900273-C7;219029949;803;10880
39198157800035;2229;transfert;Apport agriculteur;e;2019;17/07/2019;17/07/2019;222900317-C5;219027156;803;10780
39198157800035;2229;transfert;Apport agriculteur;e;2019;17/07/2019;17/07/2019;222900316-C5;219027156;803;6160
39198157800035;2229;transfert;Apport agriculteur;e;2019;17/07/2019;17/07/2019;222900315-C5;219029949;803;7040
39198157800035;2229;transfert;Apport agriculteur;e;2019;18/07/2019;18/07/2019;222900286-C12;219029992;803;13500
39198157800035;2229;transfert;Apport agriculteur;e;2019;18/07/2019;18/07/2019;222900282-C12;219030008;803;14100
39198157800035;2229;transfert;Apport agriculteur;e;2019;18/07/2019;18/07/2019;222900285-C12;219029715;803;10580
39198157800035;2229;transfert;Apport agriculteur;e;2019;19/07/2019;19/07/2019;222900287-C12;219027140;803;26780
39198157800035;2229;transfert;Apport agriculteur;e;2019;22/07/2019;22/07/2019;222900318-C12;219029986;803;16900
39198157800035;2229;transfert;Transfert entre silo;e;2019;;20/07/2019;222102714-C12;2221;803;29500
39198157800035;2229;transfert;Apport agriculteur;e;2019;18/07/2019;18/07/2019;222900281-C14;219030008;803;14300
39198157800035;2229;transfert;Apport agriculteur;e;2019;18/07/2019;18/07/2019;222900284-C14;219029988;803;11580
39198157800035;2229;transfert;Apport agriculteur;e;2019;18/07/2019;18/07/2019;222900280-C14;219030008;803;14540
39198157800035;2229;transfert;Transfert entre silo;e;2019;;22/07/2019;222102741-C14;2221;803;28300
39198157800035;2229;transfert;Apport agriculteur;e;2019;22/07/2019;22/07/2019;222900313-C14;219029997;803;14500
39198157800035;2229;transfert;Apport agriculteur;e;2019;15/07/2019;15/07/2019;222900266-C13;219029944;803;15640
39198157800035;2229;transfert;Apport agriculteur;e;2019;15/07/2019;15/07/2019;222900320-C13;219029892;803;3380
39198157800035;2229;transfert;Apport agriculteur;e;2019;15/07/2019;15/07/2019;222900267-C13;219029944;803;8240
39198157800035;2229;transfert;Apport agriculteur;e;2019;15/07/2019;15/07/2019;222900300-C13;219029985;803;24500
39198157800035;2229;transfert;Apport agriculteur;e;2019;19/07/2019;19/07/2019;222900292-C13;219029951;803;12880
39198157800035;2229;transfert;Apport agriculteur;e;2019;19/07/2019;19/07/2019;222900310-C13;219030002;803;15320
39198157800035;2229;transfert;Apport agriculteur;e;2019;19/07/2019;19/07/2019;222900295-C13;219030008;803;10000
39198157800035;2229;transfert;Apport agriculteur;e;2019;19/07/2019;19/07/2019;222900288-C13;219027140;803;9260
39198157800035;2229;transfert;Apport agriculteur;e;2019;14/07/2019;14/07/2019;222900265-C15;219029985;803;24600
39198157800035;2229;transfert;Apport agriculteur;e;2019;14/07/2019;14/07/2019;222900299-C15;219029985;803;24100
39198157800035;2229;transfert;Apport agriculteur;e;2019;14/07/2019;14/07/2019;222900319-C15;219029892;803;17080
39198157800035;2229;transfert;Apport agriculteur;e;2019;20/07/2019;20/07/2019;222900312-C15;219030002;803;4040
39198157800035;2229;transfert;Apport agriculteur;e;2019;24/07/2019;24/07/2019;2229000321-C13;219029986;803;16260
39198157800035;2061;transfert;Apport agriculteur;e;2019;15/07/2019;15/07/2019;206110558;219029950;803;12580
39198157800035;2061;transfert;Apport agriculteur;e;2019;15/07/2019;15/07/2019;206110559;219029950;803;12140
39198157800035;2061;transfert;Apport agriculteur;e;2019;15/07/2019;15/07/2019;206110560;219029950;803;1280
39198157800035;2061;transfert;Apport agriculteur;e;2019;15/07/2019;15/07/2019;206110561;219027142;803;15640
39198157800035;2061;transfert;Apport agriculteur;e;2019;15/07/2019;15/07/2019;206110562;219027183;803;8280
39198157800035;2061;transfert;Apport agriculteur;e;2019;15/07/2019;15/07/2019;206110563;219027183;803;2280
39198157800035;2061;transfert;Apport agriculteur;e;2019;15/07/2019;15/07/2019;206110564;219027181;803;11120
39198157800035;2061;transfert;Apport agriculteur;e;2019;15/07/2019;15/07/2019;206110566;219027181;803;12960
39198157800035;2061;transfert;Apport agriculteur;e;2019;15/07/2019;15/07/2019;206110567;219027181;803;14940
39198157800035;2061;transfert;Apport agriculteur;e;2019;15/07/2019;15/07/2019;206110568;219027181;803;6040
39198157800035;2061;transfert;Apport agriculteur;e;2019;15/07/2019;15/07/2019;206110570;219029977;803;10480
39198157800035;2061;transfert;Apport agriculteur;e;2019;15/07/2019;15/07/2019;206110571;219029977;803;10500
39198157800035;2061;transfert;Apport agriculteur;e;2019;15/07/2019;15/07/2019;206110578;219029977;803;2700
39198157800035;2061;transfert;Apport agriculteur;e;2019;16/07/2019;16/07/2019;206110579;219029977;803;5020
39198157800035;2061;transfert;Apport agriculteur;e;2019;17/07/2019;17/07/2019;206110630;219030005;803;8200
39198157800035;2061;transfert;Apport agriculteur;e;2019;17/07/2019;17/07/2019;206110631;219027172;803;5540
39198157800035;2061;transfert;Apport agriculteur;e;2019;17/07/2019;17/07/2019;206110632;219030005;803;8540
39198157800035;2061;transfert;Apport agriculteur;e;2019;17/07/2019;17/07/2019;206110633;219030005;803;8660
39198157800035;2061;transfert;Apport agriculteur;e;2019;18/07/2019;18/07/2019;206110649;219029696;803;4900
39198157800035;2061;transfert;Apport agriculteur;e;2019;18/07/2019;18/07/2019;206110650;219029696;803;6120
39198157800035;2061;transfert;Apport agriculteur;e;2019;18/07/2019;18/07/2019;206110651;219029696;803;3300
39198157800035;2061;transfert;Apport agriculteur;e;2019;19/07/2019;19/07/2019;206110671;219029981;803;8220
39198157800035;2061;transfert;Apport agriculteur;e;2019;19/07/2019;19/07/2019;206110672;219029696;803;4780
39198157800035;2061;transfert;Apport agriculteur;e;2019;19/07/2019;19/07/2019;206110673;219027181;803;12720
39198157800035;2061;transfert;Apport agriculteur;e;2019;19/07/2019;19/07/2019;206110674;219027181;803;8400
39198157800035;2061;transfert;Apport agriculteur;e;2019;22/07/2019;22/07/2019;206110683;219029981;803;8680
39198157800035;2061;transfert;Apport agriculteur;e;2019;22/07/2019;22/07/2019;206110684;219029981;803;5700
39198157800035;2061;transfert;Apport agriculteur;e;2019;22/07/2019;22/07/2019;206110685;219027144;803;9660
39198157800035;2061;transfert;Apport agriculteur;e;2019;22/07/2019;22/07/2019;206110686;219027144;803;11980
39198157800035;2061;transfert;Apport agriculteur;e;2019;22/07/2019;22/07/2019;206110687;219027144;803;2720
39198157800035;2061;transfert;Apport agriculteur;e;2019;22/07/2019;22/07/2019;206110688;219027144;803;10780
39198157800035;2221;transfert;Apport agriculteur;e;2019;13/07/2019;13/07/2019;222105694;219029901;803;10680
39198157800035;2221;transfert;Apport agriculteur;e;2019;14/07/2019;14/07/2019;222105693;219029901;803;8040
39198157800035;2221;transfert;Apport agriculteur;e;2019;15/07/2019;15/07/2019;2222105696;219029998;803;19200
39198157800035;2221;transfert;Apport agriculteur;e;2019;15/07/2019;15/07/2019;2222105695;219029998;803;6660
39198157800035;2221;transfert;Apport agriculteur;e;2019;15/07/2019;15/07/2019;2222105701;219029996;803;19100
39198157800035;2221;transfert;Apport agriculteur;e;2019;15/07/2019;15/07/2019;2222105702;219029984;803;3820
39198157800035;2221;transfert;Apport agriculteur;e;2019;15/07/2019;15/07/2019;2222105703;219029984;803;12780
39198157800035;2221;transfert;Apport agriculteur;e;2019;15/07/2019;15/07/2019;2222105704;219029984;803;15020
39198157800035;2221;transfert;Apport agriculteur;e;2019;15/07/2019;15/07/2019;2222105699;219030006;803;7920
39198157800035;2221;transfert;Apport agriculteur;e;2019;16/07/2019;16/07/2019;2222105700;219029996;803;6760
39198157800035;2221;transfert;Apport agriculteur;e;2019;16/07/2019;16/07/2019;2222105697;219029983;803;15620
39198157800035;2221;transfert;Apport agriculteur;e;2019;16/07/2019;16/07/2019;2222105705;219029983;803;9280
39198157800035;2221;transfert;Apport agriculteur;e;2019;16/07/2019;16/07/2019;2222105706;219029983;803;18220
39198157800035;2221;transfert;Apport agriculteur;e;2019;16/07/2019;16/07/2019;2222105698;219029983;803;19000
39198157800035;2221;transfert;Apport agriculteur;e;2019;17/07/2019;17/07/2019;2222105764;219027311;803;8520
39198157800035;2221;transfert;Apport agriculteur;e;2019;17/07/2019;17/07/2019;2222105763;219027311;803;13680
39198157800035;2221;transfert;Apport agriculteur;e;2019;17/07/2019;17/07/2019;2222105758;219030000;803;14680
39198157800035;2221;transfert;Apport agriculteur;e;2019;17/07/2019;17/07/2019;2222105761;219027169;803;9980
39198157800035;2221;transfert;Apport agriculteur;e;2019;17/07/2019;17/07/2019;2222105762;219027169;803;14400
39198157800035;2221;transfert;Apport agriculteur;e;2019;17/07/2019;17/07/2019;2222105759;219030000;803;18560
39198157800035;2221;transfert;Apport agriculteur;e;2019;17/07/2019;17/07/2019;2222105765;219030007;803;11580
39198157800035;2221;transfert;Apport agriculteur;e;2019;18/07/2019;18/07/2019;2222105766;219030007;803;11420
39198157800035;2221;transfert;Apport agriculteur;e;2019;18/07/2019;18/07/2019;2222105767;219030007;803;2900
39198157800035;2221;transfert;Apport agriculteur;e;2019;18/07/2019;18/07/2019;2222105751;219029942;803;24300
39198157800035;2221;transfert;Apport agriculteur;e;2019;18/07/2019;18/07/2019;2222105760;219027169;803;14560
39198157800035;2221;transfert;Apport agriculteur;e;2019;19/07/2019;19/07/2019;2222105770;219029675;803;13660
39198157800035;2221;transfert;Apport agriculteur;e;2019;19/07/2019;19/07/2019;2222105769;219029675;803;4620
39198157800035;2221;transfert;Apport agriculteur;e;2019;19/07/2019;19/07/2019;2222105768;219029675;803;21760
39198157800035;2221;transfert;Apport agriculteur;e;2019;19/07/2019;19/07/2019;2222105756;219027585;803;20200
39198157800035;2221;transfert;Apport agriculteur;e;2019;19/07/2019;19/07/2019;2222105754;219029942;803;22960
39198157800035;2221;transfert;Apport agriculteur;e;2019;19/07/2019;19/07/2019;2222105753;219029942;803;25140
39198157800035;2221;transfert;Apport agriculteur;e;2019;19/07/2019;19/07/2019;2222105752;219029942;803;4940
39198157800035;2221;transfert;Apport agriculteur;e;2019;20/07/2019;20/07/2019;2222105755;219029942;803;17600
39198157800035;2221;transfert;Apport agriculteur;e;2019;20/07/2019;20/07/2019;2222105757;219027585;803;3440
39198157800035;2221;transfert;Transfert entre silo;s;2019;;20/07/2019;222102713;2229;803;29500
39198157800035;2221;transfert;Transfert entre silo;s;2019;;20/07/2019;222102711;2229;803;28980
39198157800035;2221;transfert;Apport agriculteur;e;2019;22/07/2019;22/07/2019;2222105772;219029673;803;23280
39198157800035;2221;transfert;Apport agriculteur;e;2019;22/07/2019;22/07/2019;2222105773;219029979;803;9000
39198157800035;2221;transfert;Apport agriculteur;e;2019;22/07/2019;22/07/2019;2222105774;219029979;803;13480
39198157800035;2221;transfert;Transfert entre silo;s;2019;;22/07/2019;222102740;2229;803;29200
39198157800035;2221;transfert;Apport agriculteur;e;2019;23/07/2019;23/07/2019;2222105771;219030006;803;4320
39198157800035;2221;transfert;Transfert entre silo;s;2019;;02/08/2019;222102746;2229;803;28700
39198157800035;2221;transfert;Transfert entre silo;s;2019;;02/08/2019;222102745;2229;803;27200
39198157800035;2221;transfert;Transfert entre silo;s;2019;;02/08/2019;222102747;2229;803;27580
39198157800035;2221;transfert;Transfert entre silo;s;2019;;02/08/2019;222102748;2229;803;26700
39198157800035;2221;transfert;Transfert entre silo;s;2019;;02/08/2019;222102749;2229;803;28820
39198157800035;2221;transfert;Transfert entre silo;s;2019;;22/07/2019;222102741;2229;803;28300
39198157800035;2221;transfert;Transfert entre silo;s;2019;;02/08/2019;222102750;2229;803;27720
39198157800035;2221;transfert;Transfert entre silo;s;2019;;02/08/2019;222102751;2229;803;28240
39198157800035;2221;transfert;Transfert entre silo;s;2019;;02/08/2019;222102752;2229;803;28520
39198157800035;2229;transfert;Transfert entre silo;e;2019;;02/08/2019;222102746/222102745/222102747/222102748/222102749/222102750/222102751/222102752;2221;803;223480
39198157800035;2221;transfert;Transfert entre silo;s;2019;;08/08/2019;L1/L2;2930;803;59952
39198157800035;2930;transfert;Transfert entre silo;e;2019;;08/08/2019;L1/L2;2221;803;59952
39198157800035;2221;transfert;Transfert entre silo;s;2019;;09/08/2019;L3/L4/L5/L6;2930;803;94576
39198157800035;2930;transfert;Transfert entre silo;e;2019;;09/08/2019;L3/L4/L5/L6;2221;803;94576
39198157800035;2221;transfert;Transfert entre silo;s;2019;;04/09/2019;222102761;2229;803;780
39198157800035;2221;transfert;Transfert entre silo;s;2019;;09/08/2019;FREINTE;2221;803;6312
39198157800035;2229;transfert;Transfert entre silo;s;2019;;30/09/2019;L7;2930;803;26554
39198157800035;2930;transfert;Transfert entre silo;e;2019;;30/09/2019;L7;2229;803;26554
39198157800035;2229;transfert;Transfert entre silo;s;2019;;17/10/2019;L8;2930;803;29138
39198157800035;2930;transfert;Transfert entre silo;e;2019;;17/10/2019;L8;2229;803;29138
39198157800035;2229;transfert;Transfert entre silo;s;2019;;17/10/2019;L9;2930;803;28965
39198157800035;2930;transfert;Transfert entre silo;e;2019;;17/10/2019;L9;2229;803;28965
39198157800035;2229;transfert;Transfert entre silo;s;2019;;17/10/2019;L10;2930;803;29661
39198157800035;2930;transfert;Transfert entre silo;e;2019;;17/10/2019;L10;2229;803;29661
39198157800035;2229;transfert;Transfert entre silo;s;2019;;18/10/2019;L11;2930;803;29351
39198157800035;2930;transfert;Transfert entre silo;e;2019;;18/10/2019;L11;2229;803;29351
39198157800035;2229;transfert;Transfert entre silo;s;2019;;08/11/2019;L12;2930;803;29008
39198157800035;2930;transfert;Transfert entre silo;e;2019;;08/11/2019;L12;2229;803;29008
39198157800035;2229;transfert;Transfert entre silo;s;2019;;08/11/2019;L13;2930;803;29039
39198157800035;2930;transfert;Transfert entre silo;e;2019;;08/11/2019;L13;2229;803;29039
39198157800035;2229;transfert;Transfert entre silo;s;2019;;08/11/2019;L14;2930;803;28349
39198157800035;2930;transfert;Transfert entre silo;e;2019;;08/11/2019;L14;2229;803;28349
39198157800035;2229;transfert;Transfert entre silo;s;2019;;08/11/2019;L15;2930;803;28673
39198157800035;2930;transfert;Transfert entre silo;e;2019;;08/11/2019;L15;2229;803;28673
39198157800035;2229;transfert;Transfert entre silo;s;2019;;15/11/2019;L17;2930;803;29580
39198157800035;2930;transfert;Transfert entre silo;e;2019;;15/11/2019;L17;2229;803;29580
39198157800035;2229;transfert;Transfert entre silo;s;2019;;15/11/2019;L18;2930;803;30374
39198157800035;2930;transfert;Transfert entre silo;e;2019;;15/11/2019;L18;2229;803;30374
39198157800035;2229;transfert;Transfert entre silo;s;2019;;21/11/2019;L19;2930;803;28580
39198157800035;2930;transfert;Transfert entre silo;e;2019;;21/11/2019;L19;2229;803;28580
39198157800035;2229;transfert;Transfert entre silo;s;2019;;21/11/2019;L20;2930;803;27364
39198157800035;2930;transfert;Transfert entre silo;e;2019;;21/11/2019;L20;2229;803;27364
39198157800035;2229;transfert;Transfert entre silo;s;2019;;03/12/2019;L21;2930;803;28503
39198157800035;2930;transfert;Transfert entre silo;e;2019;;03/12/2019;L21;2229;803;28503
39198157800035;2229;transfert;Transfert entre silo;s;2019;;03/12/2019;L22;2930;803;28220
39198157800035;2930;transfert;Transfert entre silo;e;2019;;03/12/2019;L22;2229;803;28220
39198157800035;2229;transfert;Transfert entre silo;s;2019;;03/12/2019;L23;2930;803;28619
39198157800035;2930;transfert;Transfert entre silo;e;2019;;03/12/2019;L23;2229;803;28619
39198157800035;2229;transfert;Transfert entre silo;s;2019;;14/01/2020;L24;2930;803;29602
39198157800035;2930;transfert;Transfert entre silo;e;2019;;14/01/2020;L24;2229;803;29602
39198157800035;2229;transfert;Transfert entre silo;s;2019;;14/01/2020;L25;2930;803;30386
39198157800035;2930;transfert;Transfert entre silo;e;2019;;14/01/2020;L25;2229;803;30386
39198157800035;2229;transfert;Transfert entre silo;s;2019;;23/01/2020;L26;2930;803;28861
39198157800035;2930;transfert;Transfert entre silo;e;2019;;23/01/2020;L26;2229;803;28861
39198157800035;2229;transfert;Transfert entre silo;s;2019;;30/01/2020;L27;2930;803;26576
39198157800035;2930;transfert;Transfert entre silo;e;2019;;30/01/2020;L27;2229;803;26576
39198157800035;2229;transfert;Transfert entre silo;s;2019;;30/01/2020;L28;2930;803;27974
39198157800035;2930;transfert;Transfert entre silo;e;2019;;30/01/2020;L28;2229;803;27974
39198157800035;2229;transfert;Transfert entre silo;s;2019;;30/01/2020;L29;2930;803;28230
39198157800035;2930;transfert;Transfert entre silo;e;2019;;30/01/2020;L29;2229;803;28230
39198157800035;2229;transfert;Transfert entre silo;s;2019;;20/02/2020;L30;2930;803;28509
39198157800035;2930;transfert;Transfert entre silo;e;2019;;20/02/2020;L30;2229;803;28509
39198157800035;2229;transfert;Transfert entre silo;s;2019;;20/02/2020;L31;2930;803;29401
39198157800035;2930;transfert;Transfert entre silo;e;2019;;20/02/2020;L31;2229;803;29401
39198157800035;2229;transfert;Transfert entre silo;s;2019;;04/03/2020;L32;2930;803;29698
39198157800035;2930;transfert;Transfert entre silo;e;2019;;04/03/2020;L32;2229;803;29698
39198157800035;2229;transfert;Transfert entre silo;s;2019;;04/03/2020;L33;2930;803;28825
39198157800035;2930;transfert;Transfert entre silo;e;2019;;04/03/2020;L33;2229;803;28825
39198157800035;2229;transfert;Transfert entre silo;s;2019;;18/03/2020;L34;2930;803;29629
39198157800035;2930;transfert;Transfert entre silo;e;2019;;18/03/2020;L34;2229;803;29629
39198157800035;2229;transfert;Transfert entre silo;s;2019;;23/03/2020;L35;2930;803;28901
39198157800035;2930;transfert;Transfert entre silo;e;2019;;23/03/2020;L35;2229;803;28901
39198157800035;2229;transfert;Transfert entre silo;s;2019;;26/03/2020;L36;2930;803;30362
39198157800035;2930;transfert;Transfert entre silo;e;2019;;26/03/2020;L36;2229;803;30362
39198157800035;2229;transfert;Transfert entre silo;s;2019;;30/03/2020;L37;2930;803;30573
39198157800035;2930;transfert;Transfert entre silo;e;2019;;30/03/2020;L37;2229;803;30573
39198157800035;2229;transfert;Transfert entre silo;s;2019;;02/04/2020;L38;2930;803;30528
39198157800035;2930;transfert;Transfert entre silo;e;2019;;02/04/2020;L38;2229;803;30528
39198157800035;2229;transfert;Transfert entre silo;s;2019;;03/04/2020;L39;2930;803;28606
39198157800035;2930;transfert;Transfert entre silo;e;2019;;03/04/2020;L39;2229;803;28606
39198157800035;2229;transfert;Transfert entre silo;s;2019;;07/04/2020;L40;2930;803;29661
39198157800035;2930;transfert;Transfert entre silo;e;2019;;07/04/2020;L40;2229;803;29661
39198157800035;2229;transfert;Transfert entre silo;s;2019;;10/04/2020;L41;2930;803;30229
39198157800035;2930;transfert;Transfert entre silo;e;2019;;10/04/2020;L41;2229;803;30229
39198157800035;2229;transfert;Transfert entre silo;s;2019;;24/04/2020;L42;2930;803;26805
39198157800035;2930;transfert;Transfert entre silo;e;2019;;24/04/2020;L42;2229;803;26805
39198157800035;2229;freinte;Transfert entre silo;s;2019;;24/04/2020;L42;2229;803;16386
39198157800035;2961;transfert;Transfert entre silo;s;2019;;29/04/2020;L43;2930;803;29522
39198157800035;2930;transfert;Transfert entre silo;e;2019;;29/04/2020;L43;2061;803;29522
39198157800035;2061;transfert;Transfert entre silo;s;2019;;29/04/2020;L44;2930;803;30335
39198157800035;2930;transfert;Transfert entre silo;e;2019;;29/04/2020;L44;2061;803;30335
39198157800035;2061;transfert;Transfert entre silo;s;2019;;05/05/2020;L45;2930;803;29712
39198157800035;2930;transfert;Transfert entre silo;e;2019;;05/05/2020;L45;2061;803;29712
39198157800035;2061;transfert;Transfert entre silo;s;2019;;14/05/2020;L46;2930;803;29292
39198157800035;2930;transfert;Transfert entre silo;e;2019;;14/05/2020;L46;2061;803;29292
39198157800035;2061;transfert;Transfert entre silo;s;2019;;26/05/2020;L47;2930;803;29735
39198157800035;2930;transfert;Transfert entre silo;e;2019;;26/05/2020;L47;2061;803;29735