Nom de l'acteur,ID acteur,Cahier des charges : rôles,AmbassadeurTousTous,Code Interne REL,Acteur
-1018565807,44867070300017-1018565807,Maïs Géant Vert: Agriculteur,Oui,-1018565807,-1018565807
-1036567928,44867070300017-1036567928,Maïs Géant Vert: Agriculteur,Oui,-1036567928,-1036567928
-1045142524,44867070300017-1045142524,Maïs Géant Vert: Agriculteur,Oui,-1045142524,-1045142524
-1051785484,44867070300017-1051785484,Maïs Géant Vert: Agriculteur,Oui,-1051785484,-1051785484
-107869169,44867070300017-107869169,Maïs Géant Vert: Agriculteur,Oui,-107869169,-107869169
-1092249811,44867070300017-1092249811,Maïs Géant Vert: Agriculteur,Oui,-1092249811,-1092249811
-1123356559,44867070300017-1123356559,Maïs Géant Vert: Agriculteur,Oui,-1123356559,-1123356559
-1164150043,44867070300017-1164150043,Maïs Géant Vert: Agriculteur,Oui,-1164150043,-1164150043
-1201375056,44867070300017-1201375056,Maïs Géant Vert: Agriculteur,Oui,-1201375056,-1201375056
-1208506251,44867070300017-1208506251,Maïs Géant Vert: Agriculteur,Oui,-1208506251,-1208506251
-1235526896,44867070300017-1235526896,Maïs Géant Vert: Agriculteur,Oui,-1235526896,-1235526896
-1249102376,44867070300017-1249102376,Maïs Géant Vert: Agriculteur,Oui,-1249102376,-1249102376
-1265728314,44867070300017-1265728314,Maïs Géant Vert: Agriculteur,Oui,-1265728314,-1265728314
-1266842046,44867070300017-1266842046,Maïs Géant Vert: Agriculteur,Oui,-1266842046,-1266842046
-1280186137,44867070300017-1280186137,Maïs Géant Vert: Agriculteur,Oui,-1280186137,-1280186137
-1285937921,44867070300017-1285937921,Maïs Géant Vert: Agriculteur,Oui,-1285937921,-1285937921
-1307472261,44867070300017-1307472261,Maïs Géant Vert: Agriculteur,Oui,-1307472261,-1307472261
-1372201959,44867070300017-1372201959,Maïs Géant Vert: Agriculteur,Oui,-1372201959,-1372201959
-1373407412,44867070300017-1373407412,Maïs Géant Vert: Agriculteur,Oui,-1373407412,-1373407412
-1379506223,tmp_-1379506223_GENERAL MILLS_10846,,Non,,-1379506223
-1412398834,44867070300017-1412398834,Maïs Géant Vert: Agriculteur,Oui,-1412398834,-1412398834
-1438513358,44867070300017-1438513358,Maïs Géant Vert: Agriculteur,Oui,-1438513358,-1438513358
-1455913674,tmp_-1455913674_GENERAL MILLS_10846,,Non,,-1455913674
-1459751663,44867070300017-1459751663,Maïs Géant Vert: Agriculteur,Oui,-1459751663,-1459751663
-1463527169,44867070300017-1463527169,Maïs Géant Vert: Agriculteur,Oui,-1463527169,-1463527169
-147208796,44867070300017-147208796,Maïs Géant Vert: Agriculteur,Oui,-147208796,-147208796
-1539314354,44867070300017-1539314354,Maïs Géant Vert: Agriculteur,Oui,-1539314354,-1539314354
-1559607076,44867070300017-1559607076,Maïs Géant Vert: Agriculteur,Oui,-1559607076,-1559607076
-1566198166,44867070300017-1566198166,Maïs Géant Vert: Agriculteur,Oui,-1566198166,-1566198166
-1638232216,44867070300017-1638232216,Maïs Géant Vert: Agriculteur,Oui,-1638232216,-1638232216
-1686943192,44867070300017-1686943192,Maïs Géant Vert: Agriculteur,Oui,-1686943192,-1686943192
-1725994887,44867070300017-1725994887,Maïs Géant Vert: Agriculteur,Oui,-1725994887,-1725994887
-172990285,44867070300017-172990285,Maïs Géant Vert: Agriculteur,Oui,-172990285,-172990285
-1744722477,44867070300017-1744722477,Maïs Géant Vert: Agriculteur,Oui,-1744722477,-1744722477
-1746150956,44867070300017-1746150956,Maïs Géant Vert: Agriculteur,Oui,-1746150956,-1746150956
-1746476584,44867070300017-1746476584,Maïs Géant Vert: Agriculteur,Oui,-1746476584,-1746476584
-1747042499,44867070300017-1747042499,Maïs Géant Vert: Agriculteur,Oui,-1747042499,-1747042499
-1801560817,44867070300017-1801560817,Maïs Géant Vert: Agriculteur,Oui,-1801560817,-1801560817
-1817957020,44867070300017-1817957020,Maïs Géant Vert: Agriculteur,Oui,-1817957020,-1817957020
-1819531530,44867070300017-1819531530,Maïs Géant Vert: Agriculteur,Oui,-1819531530,-1819531530
-1819875516,44867070300017-1819875516,Maïs Géant Vert: Agriculteur,Oui,-1819875516,-1819875516
-1884596054,44867070300017-1884596054,Maïs Géant Vert: Agriculteur,Oui,-1884596054,-1884596054
-1892182967,44867070300017-1892182967,Maïs Géant Vert: Agriculteur,Oui,-1892182967,-1892182967
-1926497248,44867070300017-1926497248,Maïs Géant Vert: Agriculteur,Oui,-1926497248,-1926497248
-1936498732,44867070300017-1936498732,Maïs Géant Vert: Agriculteur,Oui,-1936498732,-1936498732
-1948635134,44867070300017-1948635134,Maïs Géant Vert: Agriculteur,Oui,-1948635134,-1948635134
-1976030800,tmp_-1976030800_GENERAL MILLS_10846,,Non,,-1976030800
-1977547343,44867070300017-1977547343,Maïs Géant Vert: Agriculteur,Oui,-1977547343,-1977547343
-2060200249,44867070300017-2060200249,Maïs Géant Vert: Agriculteur,Oui,-2060200249,-2060200249
-2110360413,44867070300017-2110360413,Maïs Géant Vert: Agriculteur,Oui,-2110360413,-2110360413
-2114392102,44867070300017-2114392102,Maïs Géant Vert: Agriculteur,Oui,-2114392102,-2114392102
-213365007,44867070300017-213365007,Maïs Géant Vert: Agriculteur,Oui,-213365007,-213365007
-239971771,44867070300017-239971771,Maïs Géant Vert: Agriculteur,Oui,-239971771,-239971771
-257182722,44867070300017-257182722,Maïs Géant Vert: Agriculteur,Oui,-257182722,-257182722
-260487066,44867070300017-260487066,Maïs Géant Vert: Agriculteur,Oui,-260487066,-260487066
-272042699,44867070300017-272042699,Maïs Géant Vert: Agriculteur,Oui,-272042699,-272042699
-285472006,44867070300017-285472006,Maïs Géant Vert: Agriculteur,Oui,-285472006,-285472006
-321449295,44867070300017-321449295,Maïs Géant Vert: Agriculteur,Oui,-321449295,-321449295
-33196908,44867070300017-33196908,Maïs Géant Vert: Agriculteur,Oui,-33196908,-33196908
-334629127,44867070300017-334629127,Maïs Géant Vert: Agriculteur,Oui,-334629127,-334629127
-360856307,tmp_-360856307_GENERAL MILLS_10846,,Non,,-360856307
-447084642,44867070300017-447084642,Maïs Géant Vert: Agriculteur,Oui,-447084642,-447084642
-538277545,44867070300017-538277545,Maïs Géant Vert: Agriculteur,Oui,-538277545,-538277545
-548272008,44867070300017-548272008,Maïs Géant Vert: Agriculteur,Oui,-548272008,-548272008
-627831154,44867070300017-627831154,Maïs Géant Vert: Agriculteur,Oui,-627831154,-627831154
-638098086,44867070300017-638098086,Maïs Géant Vert: Agriculteur,Oui,-638098086,-638098086
-669664697,44867070300017-669664697,Maïs Géant Vert: Agriculteur,Oui,-669664697,-669664697
-714261868,44867070300017-714261868,Maïs Géant Vert: Agriculteur,Oui,-714261868,-714261868
-745764184,44867070300017-745764184,Maïs Géant Vert: Agriculteur,Oui,-745764184,-745764184
-750670235,44867070300017-750670235,Maïs Géant Vert: Agriculteur,Oui,-750670235,-750670235
-812551803,44867070300017-812551803,Maïs Géant Vert: Agriculteur,Oui,-812551803,-812551803
-823876041,44867070300017-823876041,Maïs Géant Vert: Agriculteur,Oui,-823876041,-823876041
-838627798,44867070300017-838627798,Maïs Géant Vert: Agriculteur,Oui,-838627798,-838627798
-846906249,44867070300017-846906249,Maïs Géant Vert: Agriculteur,Oui,-846906249,-846906249
-893264960,44867070300017-893264960,Maïs Géant Vert: Agriculteur,Oui,-893264960,-893264960
-916477206,44867070300017-916477206,Maïs Géant Vert: Agriculteur,Oui,-916477206,-916477206
-925488251,44867070300017-925488251,Maïs Géant Vert: Agriculteur,Oui,-925488251,-925488251
-932868121,44867070300017-932868121,Maïs Géant Vert: Agriculteur,Oui,-932868121,-932868121
100,"4,48670703000171E+016",Maïs Géant Vert: Agriculteur,Oui,100,100
1006,"4,48670703000171E+017",Maïs Géant Vert: Agriculteur,Oui,1006,1006
1032,"4,48670703000171E+017",Maïs Géant Vert: Agriculteur,Oui,1032,1032
1068,"4,48670703000171E+017",Maïs Géant Vert: Agriculteur,Oui,1068,1068
1070,"4,48670703000171E+017",Maïs Géant Vert: Agriculteur,Oui,1070,1070
1072,"4,48670703000171E+017",Maïs Géant Vert: Agriculteur,Oui,1072,1072
1081331993,"4,48670703000171E+023",Maïs Géant Vert: Agriculteur,Oui,1081331993,1081331993
108631457,"4,48670703000171E+022",Maïs Géant Vert: Agriculteur,Oui,108631457,108631457
1094,"4,48670703000171E+017",Maïs Géant Vert: Agriculteur,Oui,1094,1094
110,"4,48670703000171E+016",Maïs Géant Vert: Agriculteur,Oui,110,110
1105,"4,48670703000171E+017",Maïs Géant Vert: Agriculteur,Oui,1105,1105
1117,"4,48670703000171E+017",Maïs Géant Vert: Agriculteur,Oui,1117,1117
1139576068,"4,48670703000171E+023",Maïs Géant Vert: Agriculteur,Oui,1139576068,1139576068
1157684293,"4,48670703000171E+023",Maïs Géant Vert: Agriculteur,Oui,1157684293,1157684293
1160609581,"4,48670703000171E+023",Maïs Géant Vert: Agriculteur,Oui,1160609581,1160609581
1171839521,"4,48670703000171E+023",Maïs Géant Vert: Agriculteur,Oui,1171839521,1171839521
1173110593,"4,48670703000171E+023",Maïs Géant Vert: Agriculteur,Oui,1173110593,1173110593
1182774760,"4,48670703000171E+023",Maïs Géant Vert: Agriculteur,Oui,1182774760,1182774760
1193,"4,48670703000171E+017",Maïs Géant Vert: Agriculteur,Oui,1193,1193
1193135122,"4,48670703000171E+023",Maïs Géant Vert: Agriculteur,Oui,1193135122,1193135122
1195921295,"4,48670703000171E+023",Maïs Géant Vert: Agriculteur,Oui,1195921295,1195921295
1205853644,tmp_1205853644_GENERAL MILLS_10846,,Non,,1205853644
1206438196,"4,48670703000171E+023",Maïs Géant Vert: Agriculteur,Oui,1206438196,1206438196
1207122921,"4,48670703000171E+023",Maïs Géant Vert: Agriculteur,Oui,1207122921,1207122921
1216717679,"4,48670703000171E+023",Maïs Géant Vert: Agriculteur,Oui,1216717679,1216717679
1220296578,"4,48670703000171E+023",Maïs Géant Vert: Agriculteur,Oui,1220296578,1220296578
1223775966,"4,48670703000171E+023",Maïs Géant Vert: Agriculteur,Oui,1223775966,1223775966
1224023369,"4,48670703000171E+023",Maïs Géant Vert: Agriculteur,Oui,1224023369,1224023369
1249513319,tmp_1249513319_GENERAL MILLS_10846,,Non,,1249513319
1289994434,"4,48670703000171E+023",Maïs Géant Vert: Agriculteur,Oui,1289994434,1289994434
1338838816,"4,48670703000171E+023",Maïs Géant Vert: Agriculteur,Oui,1338838816,1338838816
1339129661,"4,48670703000171E+023",Maïs Géant Vert: Agriculteur,Oui,1339129661,1339129661
1352674698,"4,48670703000171E+023",Maïs Géant Vert: Agriculteur,Oui,1352674698,1352674698
1376201078,tmp_1376201078_GENERAL MILLS_10846,,Non,,1376201078
139,"4,48670703000171E+016",Maïs Géant Vert: Agriculteur,Oui,139,139
145,"4,48670703000171E+016",Maïs Géant Vert: Agriculteur,Oui,145,145
146,"4,48670703000171E+016",Maïs Géant Vert: Agriculteur,Oui,146,146
1467799137,tmp_1467799137_GENERAL MILLS_10846,,Non,,1467799137
150,"4,48670703000172E+016",Maïs Géant Vert: Agriculteur,Oui,150,150
1508080922,"4,48670703000171E+023",Maïs Géant Vert: Agriculteur,Oui,1508080922,1508080922
151,"4,48670703000172E+016",Maïs Géant Vert: Agriculteur,Oui,151,151
154,"4,48670703000172E+016",Maïs Géant Vert: Agriculteur,Oui,154,154
1549481285,"4,48670703000171E+023",Maïs Géant Vert: Agriculteur,Oui,1549481285,1549481285
1551355124,"4,48670703000172E+023",Maïs Géant Vert: Agriculteur,Oui,1551355124,1551355124
1555984454,"4,48670703000172E+023",Maïs Géant Vert: Agriculteur,Oui,1555984454,1555984454
1586524027,"4,48670703000172E+023",Maïs Géant Vert: Agriculteur,Oui,1586524027,1586524027
1613121645,"4,48670703000172E+023",Maïs Géant Vert: Agriculteur,Oui,1613121645,1613121645
162,"4,48670703000172E+016",Maïs Géant Vert: Agriculteur,Oui,162,162
164,"4,48670703000172E+016",Maïs Géant Vert: Agriculteur,Oui,164,164
1659032209,"4,48670703000172E+023",Maïs Géant Vert: Agriculteur,Oui,1659032209,1659032209
166,"4,48670703000172E+016",Maïs Géant Vert: Agriculteur,Oui,166,166
167,"4,48670703000172E+016",Maïs Géant Vert: Agriculteur,Oui,167,167
168,"4,48670703000172E+016",Maïs Géant Vert: Agriculteur,Oui,168,168
169,"4,48670703000172E+016",Maïs Géant Vert: Agriculteur,Oui,169,169
170,"4,48670703000172E+016",Maïs Géant Vert: Agriculteur,Oui,170,170
1709667929,"4,48670703000172E+023",Maïs Géant Vert: Agriculteur,Oui,1709667929,1709667929
171,"4,48670703000172E+016",Maïs Géant Vert: Agriculteur,Oui,171,171
172,"4,48670703000172E+016",Maïs Géant Vert: Agriculteur,Oui,172,172
1725150019,"4,48670703000172E+023",Maïs Géant Vert: Agriculteur,Oui,1725150019,1725150019
1727742764,"4,48670703000172E+023",Maïs Géant Vert: Agriculteur,Oui,1727742764,1727742764
173,"4,48670703000172E+016",Maïs Géant Vert: Agriculteur,Oui,173,173
1737,"4,48670703000172E+017",Maïs Géant Vert: Agriculteur,Oui,1737,1737
1739,"4,48670703000172E+017",Maïs Géant Vert: Agriculteur,Oui,1739,1739
1740,"4,48670703000172E+017",Maïs Géant Vert: Agriculteur,Oui,1740,1740
175,"4,48670703000172E+016",Maïs Géant Vert: Agriculteur,Oui,175,175
1756175453,"4,48670703000172E+023",Maïs Géant Vert: Agriculteur,Oui,1756175453,1756175453
1758,"4,48670703000172E+017",Maïs Géant Vert: Agriculteur,Oui,1758,1758
176833556,"4,48670703000172E+022",Maïs Géant Vert: Agriculteur,Oui,176833556,176833556
177143196,tmp_177143196_GENERAL MILLS_10846,,Non,,177143196
179,"4,48670703000172E+016",Maïs Géant Vert: Agriculteur,Oui,179,179
180,"4,48670703000172E+016",Maïs Géant Vert: Agriculteur,Oui,180,180
1805568814,"4,48670703000172E+023",Maïs Géant Vert: Agriculteur,Oui,1805568814,1805568814
181,"4,48670703000172E+016",Maïs Géant Vert: Agriculteur,Oui,181,181
183,"4,48670703000172E+016",Maïs Géant Vert: Agriculteur,Oui,183,183
1845486439,"4,48670703000172E+023",Maïs Géant Vert: Agriculteur,Oui,1845486439,1845486439
1849168799,"4,48670703000172E+023",Maïs Géant Vert: Agriculteur,Oui,1849168799,1849168799
185678810,"4,48670703000172E+022",Maïs Géant Vert: Agriculteur,Oui,185678810,185678810
1869910136,"4,48670703000172E+023",Maïs Géant Vert: Agriculteur,Oui,1869910136,1869910136
191,"4,48670703000172E+016",Maïs Géant Vert: Agriculteur,Oui,191,191
192,"4,48670703000172E+016",Maïs Géant Vert: Agriculteur,Oui,192,192
1922855419,"4,48670703000172E+023",Maïs Géant Vert: Agriculteur,Oui,1922855419,1922855419
1937718181,"4,48670703000172E+023",Maïs Géant Vert: Agriculteur,Oui,1937718181,1937718181
194,"4,48670703000172E+016",Maïs Géant Vert: Agriculteur,Oui,194,194
1944709012,"4,48670703000172E+023",Maïs Géant Vert: Agriculteur,Oui,1944709012,1944709012
196,"4,48670703000172E+016",Maïs Géant Vert: Agriculteur,Oui,196,196
197,"4,48670703000172E+016",Maïs Géant Vert: Agriculteur,Oui,197,197
1995317459,"4,48670703000172E+023",Maïs Géant Vert: Agriculteur,Oui,1995317459,1995317459
2000885860,"4,48670703000172E+023",Maïs Géant Vert: Agriculteur,Oui,2000885860,2000885860
2009225516,"4,48670703000172E+023",Maïs Géant Vert: Agriculteur,Oui,2009225516,2009225516
2013861958,"4,48670703000172E+023",Maïs Géant Vert: Agriculteur,Oui,2013861958,2013861958
2053414299,"4,48670703000172E+023",Maïs Géant Vert: Agriculteur,Oui,2053414299,2053414299
206052480,"4,48670703000172E+022",Maïs Géant Vert: Agriculteur,Oui,206052480,206052480
2062000775,"4,48670703000172E+023",Maïs Géant Vert: Agriculteur,Oui,2062000775,2062000775
207991815,"4,48670703000172E+022",Maïs Géant Vert: Agriculteur,Oui,207991815,207991815
208,"4,48670703000172E+016",Maïs Géant Vert: Agriculteur,Oui,208,208
2082829106,"4,48670703000172E+023",Maïs Géant Vert: Agriculteur,Oui,2082829106,2082829106
209,"4,48670703000172E+016",Maïs Géant Vert: Agriculteur,Oui,209,209
210,"4,48670703000172E+016",Maïs Géant Vert: Agriculteur,Oui,210,210
211,"4,48670703000172E+016",Maïs Géant Vert: Agriculteur,Oui,211,211
2119139879,"4,48670703000172E+023",Maïs Géant Vert: Agriculteur,Oui,2119139879,2119139879
212,"4,48670703000172E+016",Maïs Géant Vert: Agriculteur,Oui,212,212
212157358,"4,48670703000172E+022",Maïs Géant Vert: Agriculteur,Oui,212157358,212157358
214000124,"4,48670703000172E+022",Maïs Géant Vert: Agriculteur,Oui,214000124,214000124
215,"4,48670703000172E+016",Maïs Géant Vert: Agriculteur,Oui,215,215
217,"4,48670703000172E+016",Maïs Géant Vert: Agriculteur,Oui,217,217
220,"4,48670703000172E+016",Maïs Géant Vert: Agriculteur,Oui,220,220
223,"4,48670703000172E+016",Maïs Géant Vert: Agriculteur,Oui,223,223
228,"4,48670703000172E+016",Maïs Géant Vert: Agriculteur,Oui,228,228
232,"4,48670703000172E+016",Maïs Géant Vert: Agriculteur,Oui,232,232
234,"4,48670703000172E+016",Maïs Géant Vert: Agriculteur,Oui,234,234
241,"4,48670703000172E+016",Maïs Géant Vert: Agriculteur,Oui,241,241
245,"4,48670703000172E+016",Maïs Géant Vert: Agriculteur,Oui,245,245
253,"4,48670703000172E+016",Maïs Géant Vert: Agriculteur,Oui,253,253
255,"4,48670703000173E+016",Maïs Géant Vert: Agriculteur,Oui,255,255
26,4486707030001726,Maïs Géant Vert: Agriculteur,Oui,26,26
261,"4,48670703000173E+016",Maïs Géant Vert: Agriculteur,Oui,261,261
263,"4,48670703000173E+016",Maïs Géant Vert: Agriculteur,Oui,263,263
272,"4,48670703000173E+016",Maïs Géant Vert: Agriculteur,Oui,272,272
273,"4,48670703000173E+016",Maïs Géant Vert: Agriculteur,Oui,273,273
291,"4,48670703000173E+016",Maïs Géant Vert: Agriculteur,Oui,291,291
292,"4,48670703000173E+016",Maïs Géant Vert: Agriculteur,Oui,292,292
295,"4,48670703000173E+016",Maïs Géant Vert: Agriculteur,Oui,295,295
295976905,"4,48670703000173E+022",Maïs Géant Vert: Agriculteur,Oui,295976905,295976905
297,"4,48670703000173E+016",Maïs Géant Vert: Agriculteur,Oui,297,297
299,"4,48670703000173E+016",Maïs Géant Vert: Agriculteur,Oui,299,299
304,"4,48670703000173E+016",Maïs Géant Vert: Agriculteur,Oui,304,304
305780571,"4,48670703000173E+022",Maïs Géant Vert: Agriculteur,Oui,305780571,305780571
308,"4,48670703000173E+016",Maïs Géant Vert: Agriculteur,Oui,308,308
308833142,"4,48670703000173E+022",Maïs Géant Vert: Agriculteur,Oui,308833142,308833142
312,"4,48670703000173E+016",Maïs Géant Vert: Agriculteur,Oui,312,312
314,"4,48670703000173E+016",Maïs Géant Vert: Agriculteur,Oui,314,314
315,"4,48670703000173E+016",Maïs Géant Vert: Agriculteur,Oui,315,315
319,"4,48670703000173E+016",Maïs Géant Vert: Agriculteur,Oui,319,319
321019294,"4,48670703000173E+022",Maïs Géant Vert: Agriculteur,Oui,321019294,321019294
323,"4,48670703000173E+016",Maïs Géant Vert: Agriculteur,Oui,323,323
325,"4,48670703000173E+016",Maïs Géant Vert: Agriculteur,Oui,325,325
326,"4,48670703000173E+016",Maïs Géant Vert: Agriculteur,Oui,326,326
329,"4,48670703000173E+016",Maïs Géant Vert: Agriculteur,Oui,329,329
332,"4,48670703000173E+016",Maïs Géant Vert: Agriculteur,Oui,332,332
333,"4,48670703000173E+016",Maïs Géant Vert: Agriculteur,Oui,333,333
333302495,"4,48670703000173E+022",Maïs Géant Vert: Agriculteur,Oui,333302495,333302495
334,"4,48670703000173E+016",Maïs Géant Vert: Agriculteur,Oui,334,334
338,"4,48670703000173E+016",Maïs Géant Vert: Agriculteur,Oui,338,338
339,"4,48670703000173E+016",Maïs Géant Vert: Agriculteur,Oui,339,339
341,"4,48670703000173E+016",Maïs Géant Vert: Agriculteur,Oui,341,341
345,"4,48670703000174E+016",Maïs Géant Vert: Agriculteur,Oui,345,345
346969133,tmp_346969133_GENERAL MILLS_10846,,Non,,346969133
347,"4,48670703000174E+016",Maïs Géant Vert: Agriculteur,Oui,347,347
348,"4,48670703000174E+016",Maïs Géant Vert: Agriculteur,Oui,348,348
350,"4,48670703000174E+016",Maïs Géant Vert: Agriculteur,Oui,350,350
351,"4,48670703000174E+016",Maïs Géant Vert: Agriculteur,Oui,351,351
353,"4,48670703000174E+016",Maïs Géant Vert: Agriculteur,Oui,353,353
355,"4,48670703000174E+016",Maïs Géant Vert: Agriculteur,Oui,355,355
362,"4,48670703000174E+016",Maïs Géant Vert: Agriculteur,Oui,362,362
366,"4,48670703000174E+016",Maïs Géant Vert: Agriculteur,Oui,366,366
368,"4,48670703000174E+016",Maïs Géant Vert: Agriculteur,Oui,368,368
372,"4,48670703000174E+016",Maïs Géant Vert: Agriculteur,Oui,372,372
373,"4,48670703000174E+016",Maïs Géant Vert: Agriculteur,Oui,373,373
378,"4,48670703000174E+016",Maïs Géant Vert: Agriculteur,Oui,378,378
387,"4,48670703000174E+016",Maïs Géant Vert: Agriculteur,Oui,387,387
389,"4,48670703000174E+016",Maïs Géant Vert: Agriculteur,Oui,389,389
389966298,"4,48670703000174E+022",Maïs Géant Vert: Agriculteur,Oui,389966298,389966298
39,4486707030001739,Maïs Géant Vert: Agriculteur,Oui,39,39
398,"4,48670703000174E+016",Maïs Géant Vert: Agriculteur,Oui,398,398
404,"4,48670703000174E+016",Maïs Géant Vert: Agriculteur,Oui,404,404
407,"4,48670703000174E+016",Maïs Géant Vert: Agriculteur,Oui,407,407
408,"4,48670703000174E+016",Maïs Géant Vert: Agriculteur,Oui,408,408
411,"4,48670703000174E+016",Maïs Géant Vert: Agriculteur,Oui,411,411
412,"4,48670703000174E+016",Maïs Géant Vert: Agriculteur,Oui,412,412
416,"4,48670703000174E+016",Maïs Géant Vert: Agriculteur,Oui,416,416
417,"4,48670703000174E+016",Maïs Géant Vert: Agriculteur,Oui,417,417
418,"4,48670703000174E+016",Maïs Géant Vert: Agriculteur,Oui,418,418
420,"4,48670703000174E+016",Maïs Géant Vert: Agriculteur,Oui,420,420
421,"4,48670703000174E+016",Maïs Géant Vert: Agriculteur,Oui,421,421
424,"4,48670703000174E+016",Maïs Géant Vert: Agriculteur,Oui,424,424
438,"4,48670703000174E+016",Maïs Géant Vert: Agriculteur,Oui,438,438
440,"4,48670703000174E+016",Maïs Géant Vert: Agriculteur,Oui,440,440
441,"4,48670703000174E+016",Maïs Géant Vert: Agriculteur,Oui,441,441
442,"4,48670703000174E+016",Maïs Géant Vert: Agriculteur,Oui,442,442
443,"4,48670703000174E+016",Maïs Géant Vert: Agriculteur,Oui,443,443
450,"4,48670703000175E+016",Maïs Géant Vert: Agriculteur,Oui,450,450
452,"4,48670703000175E+016",Maïs Géant Vert: Agriculteur,Oui,452,452
460,"4,48670703000175E+016",Maïs Géant Vert: Agriculteur,Oui,460,460
461,"4,48670703000175E+016",Maïs Géant Vert: Agriculteur,Oui,461,461
464132189,"4,48670703000175E+022",Maïs Géant Vert: Agriculteur,Oui,464132189,464132189
471,"4,48670703000175E+016",Maïs Géant Vert: Agriculteur,Oui,471,471
475,"4,48670703000175E+016",Maïs Géant Vert: Agriculteur,Oui,475,475
479,"4,48670703000175E+016",Maïs Géant Vert: Agriculteur,Oui,479,479
479148846,"4,48670703000175E+022",Maïs Géant Vert: Agriculteur,Oui,479148846,479148846
483,"4,48670703000175E+016",Maïs Géant Vert: Agriculteur,Oui,483,483
486471631,"4,48670703000175E+022",Maïs Géant Vert: Agriculteur,Oui,486471631,486471631
488,"4,48670703000175E+016",Maïs Géant Vert: Agriculteur,Oui,488,488
492,"4,48670703000175E+016",Maïs Géant Vert: Agriculteur,Oui,492,492
494,"4,48670703000175E+016",Maïs Géant Vert: Agriculteur,Oui,494,494
495,"4,48670703000175E+016",Maïs Géant Vert: Agriculteur,Oui,495,495
497,"4,48670703000175E+016",Maïs Géant Vert: Agriculteur,Oui,497,497
498,"4,48670703000175E+016",Maïs Géant Vert: Agriculteur,Oui,498,498
498077272,"4,48670703000175E+022",Maïs Géant Vert: Agriculteur,Oui,498077272,498077272
499,"4,48670703000175E+016",Maïs Géant Vert: Agriculteur,Oui,499,499
5,tmp_5_GENERAL MILLS_10846,,Non,,5
50,4486707030001750,Maïs Géant Vert: Agriculteur,Oui,50,50
501,"4,48670703000175E+016",Maïs Géant Vert: Agriculteur,Oui,501,501
504,"4,48670703000175E+016",Maïs Géant Vert: Agriculteur,Oui,504,504
505,"4,48670703000175E+016",Maïs Géant Vert: Agriculteur,Oui,505,505
507,"4,48670703000175E+016",Maïs Géant Vert: Agriculteur,Oui,507,507
509906634,"4,48670703000175E+022",Maïs Géant Vert: Agriculteur,Oui,509906634,509906634
510,"4,48670703000175E+016",Maïs Géant Vert: Agriculteur,Oui,510,510
511,"4,48670703000175E+016",Maïs Géant Vert: Agriculteur,Oui,511,511
512,"4,48670703000175E+016",Maïs Géant Vert: Agriculteur,Oui,512,512
519398927,"4,48670703000175E+022",Maïs Géant Vert: Agriculteur,Oui,519398927,519398927
520,"4,48670703000175E+016",Maïs Géant Vert: Agriculteur,Oui,520,520
521,"4,48670703000175E+016",Maïs Géant Vert: Agriculteur,Oui,521,521
530,"4,48670703000175E+016",Maïs Géant Vert: Agriculteur,Oui,530,530
537,"4,48670703000175E+016",Maïs Géant Vert: Agriculteur,Oui,537,537
537842861,"4,48670703000175E+022",Maïs Géant Vert: Agriculteur,Oui,537842861,537842861
544,"4,48670703000175E+016",Maïs Géant Vert: Agriculteur,Oui,544,544
546,"4,48670703000175E+016",Maïs Géant Vert: Agriculteur,Oui,546,546
548,"4,48670703000175E+016",Maïs Géant Vert: Agriculteur,Oui,548,548
549,"4,48670703000175E+016",Maïs Géant Vert: Agriculteur,Oui,549,549
553,"4,48670703000176E+016",Maïs Géant Vert: Agriculteur,Oui,553,553
554712061,"4,48670703000176E+022",Maïs Géant Vert: Agriculteur,Oui,554712061,554712061
556,"4,48670703000176E+016",Maïs Géant Vert: Agriculteur,Oui,556,556
558,"4,48670703000176E+016",Maïs Géant Vert: Agriculteur,Oui,558,558
562458805,tmp_562458805_GENERAL MILLS_10846,,Non,,562458805
569,"4,48670703000176E+016",Maïs Géant Vert: Agriculteur,Oui,569,569
571,"4,48670703000176E+016",Maïs Géant Vert: Agriculteur,Oui,571,571
573,"4,48670703000176E+016",Maïs Géant Vert: Agriculteur,Oui,573,573
574065520,"4,48670703000176E+022",Maïs Géant Vert: Agriculteur,Oui,574065520,574065520
576,"4,48670703000176E+016",Maïs Géant Vert: Agriculteur,Oui,576,576
584,"4,48670703000176E+016",Maïs Géant Vert: Agriculteur,Oui,584,584
586,"4,48670703000176E+016",Maïs Géant Vert: Agriculteur,Oui,586,586
588184903,"4,48670703000176E+022",Maïs Géant Vert: Agriculteur,Oui,588184903,588184903
593,"4,48670703000176E+016",Maïs Géant Vert: Agriculteur,Oui,593,593
607,"4,48670703000176E+016",Maïs Géant Vert: Agriculteur,Oui,607,607
608,"4,48670703000176E+016",Maïs Géant Vert: Agriculteur,Oui,608,608
609,tmp_609_GENERAL MILLS_10846,,Non,,609
613,"4,48670703000176E+016",Maïs Géant Vert: Agriculteur,Oui,613,613
615,"4,48670703000176E+016",Maïs Géant Vert: Agriculteur,Oui,615,615
617860784,"4,48670703000176E+022",Maïs Géant Vert: Agriculteur,Oui,617860784,617860784
633,"4,48670703000176E+016",Maïs Géant Vert: Agriculteur,Oui,633,633
634,"4,48670703000176E+016",Maïs Géant Vert: Agriculteur,Oui,634,634
64,4486707030001764,Maïs Géant Vert: Agriculteur,Oui,64,64
642,"4,48670703000176E+016",Maïs Géant Vert: Agriculteur,Oui,642,642
644461022,"4,48670703000177E+022",Maïs Géant Vert: Agriculteur,Oui,644461022,644461022
646,"4,48670703000176E+016",Maïs Géant Vert: Agriculteur,Oui,646,646
649,"4,48670703000176E+016",Maïs Géant Vert: Agriculteur,Oui,649,649
65,4486707030001765,Maïs Géant Vert: Agriculteur,Oui,65,65
654000050,tmp_654000050_GENERAL MILLS_10846,,Non,,654000050
656,"4,48670703000177E+016",Maïs Géant Vert: Agriculteur,Oui,656,656
688,"4,48670703000177E+016",Maïs Géant Vert: Agriculteur,Oui,688,688
692809249,"4,48670703000177E+022",Maïs Géant Vert: Agriculteur,Oui,692809249,692809249
700,"4,48670703000177E+016",Maïs Géant Vert: Agriculteur,Oui,700,700
723,"4,48670703000177E+016",Maïs Géant Vert: Agriculteur,Oui,723,723
739215648,"4,48670703000177E+022",Maïs Géant Vert: Agriculteur,Oui,739215648,739215648
757610510,"4,48670703000178E+022",Maïs Géant Vert: Agriculteur,Oui,757610510,757610510
761,"4,48670703000178E+016",Maïs Géant Vert: Agriculteur,Oui,761,761
791,"4,48670703000178E+016",Maïs Géant Vert: Agriculteur,Oui,791,791
8,448670703000178,Maïs Géant Vert: Agriculteur,Oui,8,8
808175454,tmp_808175454_GENERAL MILLS_10846,,Non,,808175454
824,"4,48670703000178E+016",Maïs Géant Vert: Agriculteur,Oui,824,824
83,4486707030001783,Maïs Géant Vert: Agriculteur,Oui,83,83
841921681,"4,48670703000178E+022",Maïs Géant Vert: Agriculteur,Oui,841921681,841921681
848,"4,48670703000179E+016",Maïs Géant Vert: Agriculteur,Oui,848,848
87,4486707030001787,Maïs Géant Vert: Agriculteur,Oui,87,87
887,"4,48670703000179E+016",Maïs Géant Vert: Agriculteur,Oui,887,887
907620938,"4,48670703000179E+022",Maïs Géant Vert: Agriculteur,Oui,907620938,907620938
926768752,"4,48670703000179E+022",Maïs Géant Vert: Agriculteur,Oui,926768752,926768752
972,tmp_972_GENERAL MILLS_10846,,Non,,972
977305502,"4,4867070300018E+022",Maïs Géant Vert: Agriculteur,Oui,977305502,977305502
979320920,"4,4867070300018E+022",Maïs Géant Vert: Agriculteur,Oui,979320920,979320920
997893270,"4,4867070300018E+022",Maïs Géant Vert: Agriculteur,Oui,997893270,997893270
GENERAL MILLS,44867070300017,,Non,44867070300017,44867070300017
