Propriétaire,Nom du produit,Code interne,Unité,Code GS1,Standard GS1 utilisé
GMP - Moulin de Brienne,Blé bio,BI110-250,kg,,
GMP - Moulin de Brienne,Farine bio,BF064_250,kg,,
GMP - Moulin de Reims,Farine bio 1kg,36061-00-30,kg,,
GMP - Moulin de Gennevilliers,Farine bio 500g,01000-00-30,kg,,
GMP - Moulin de Brienne,Farine bio vrac,81030-10-VR,kg,,
