Nom de l'acteur,ID acteur,Cahier des charges : rôles,AmbassadeurTousTous,Code Interne REL,Acteur
Acteur manquant,tmp_Actor_74687,,Non,,
Acteur manquant,tmp_Actor_74688,,Non,,
EARL BAUDOUINAIS,34227744900019,SANS ANTIBIOTIQUE: Eleveur Herta,Non,,
EARL BLOTTIERE,41771834300011,SANS ANTIBIOTIQUE: Eleveur Herta,Non,BLOTTIERE,EARL BLOTTIERE
EARL DE LA BUNELIERE,33976920000017,SANS ANTIBIOTIQUE: Eleveur Herta,Non,BUNELIERPO,EARL DE LA BUNELIERE
EARL DU MALIVEAU,37785028400011,SANS ANTIBIOTIQUE: Eleveur Herta,Oui,372494,EARL DU MALIVEAU
EARL FIZELLERIE,40049195700017,SANS ANTIBIOTIQUE: Eleveur Herta,Non,,
EARL FRANCOIS,39766367500015,SANS ANTIBIOTIQUE: Eleveur Herta,Non,FRANCOIS,EARL FRANCOIS
EARL MOUCHARDIERE,83528199900010,SANS ANTIBIOTIQUE: Eleveur Herta,Non,,
EARL ROUSSEL,40762874200014,SANS ANTIBIOTIQUE: Eleveur Herta,Non,ROUSSEL,EARL ROUSSEL
EARL VAL AU GUE,52853033000018,SANS ANTIBIOTIQUE: Eleveur Herta,Non,4268610,EARL VAL AU GUE
GAEC 33 RUE DU BOCAGE,75021743200012,SANS ANTIBIOTIQUE: Eleveur Herta,Non,TRENTETROI,GAEC 33 RUE DU BOCAGE
GAEC BACONNIERE,49037355200010,SANS ANTIBIOTIQUE: Eleveur Herta,Non,BACONNIEPO,GAEC BACONNIERE
GAEC BB,79885156400012,SANS ANTIBIOTIQUE: Eleveur Herta,Oui,4398800,GAEC BB
GAEC BONVOISIN,83812709000010,SANS ANTIBIOTIQUE: Eleveur Herta,Non,,
GAEC DES GENETIERES,39274590700015,SANS ANTIBIOTIQUE: Eleveur Herta,Oui,390986,GAEC DES GENETIERES
GAEC VANNIER,49141655800014,SANS ANTIBIOTIQUE: Eleveur Herta,Non,,
GAUTIER René-Marc,40115389500016,SANS ANTIBIOTIQUE: Eleveur Herta,Non,GAUTIERMAR,GAUTIER René-Marc
HERTA,31104319400647,,Non,,
HERTA SAS LE MEUX,31104319400563,SANS ANTIBIOTIQUE: Logisticien Herta,Non,0820,HERTA SAS LE MEUX
HERTA SAS LOZANNE,31104319400662,SANS ANTIBIOTIQUE: Logisticien Herta,Non,0835,HERTA SAS LOZANNE
LYCEE AGRICOLE SAINT LO,19500060900048,SANS ANTIBIOTIQUE: Eleveur Herta,Non,LYCEEDETHE,LYCEE AGRICOLE SAINT LO
SARL LA HAIZIERE,75115105100016,SANS ANTIBIOTIQUE: Eleveur Herta,Non,HAIZIEREPO,SARL LA HAIZIERE
SARL LA THIBARDIERE,39911632600014,SANS ANTIBIOTIQUE: Eleveur Herta,Non,THIBARDIER,SARL LA THIBARDIERE
SARL LES DEUX VALLEES,38465895100015,SANS ANTIBIOTIQUE: Eleveur Herta,Non,VALLEESPO,SARL LES DEUX VALLEES
SAS ELEVAGE DE LA PETITE VALLEE,89271860200014,SANS ANTIBIOTIQUE: Eleveur Herta,Non,,
SCEA CHEUX,79234665200011,SANS ANTIBIOTIQUE: Eleveur Herta,Non,,
SCEA D'OUTREMER,41026867600013,SANS ANTIBIOTIQUE: Eleveur Herta,Non,OUTREMER,SCEA D'OUTREMER
SCEA LEGOUPIL,88093185200011,SANS ANTIBIOTIQUE: Eleveur Herta,Non,LEGOUPSCEA,SCEA LEGOUPIL
SCEA VARIN DUBARRY,44037449400019,SANS ANTIBIOTIQUE: Eleveur Herta,Non,VARIN,SCEA VARIN DUBARRY
SOCOPA VIANDES,50851378500107,SANS ANTIBIOTIQUE: Transformateur Herta,Non,,
SOFRAL LE GOUESSANT,49648006200090,SANS ANTIBIOTIQUE: Fournisseur d'aliments Herta,Non,,
SOFRAL LE GOUESSANT MONTAUBAN,49648006200082,SANS ANTIBIOTIQUE: Fournisseur d'aliments Herta,Non,,
SOFRAL LE GOUESSANT SAINT-AARON,49648006200108,SANS ANTIBIOTIQUE: Fournisseur d'aliments Herta,Non,,
TERDICI,35271931400010,SANS ANTIBIOTIQUE: Fournisseur d'aliments Herta,Non,,
TERRENA ALIMENTS,42970729200018_2,SANS ANTIBIOTIQUE: Fournisseur d'aliments Herta,Non,,
TERRENA PORVEO,42970729200018_1,SANS ANTIBIOTIQUE: Coopérative porcine,Non,,
USINE HERTA ILLKIRCH,31104319400621,SANS ANTIBIOTIQUE: Préparateur Herta,Non,0817,USINE HERTA ILLKIRCH
VANNIER Matthieu,88267467400016,SANS ANTIBIOTIQUE: Eleveur Herta,Non,,
