Propriétaire,Nom du site,Code interne,Type du site,Adresse du site,Code postal,Ville,Département,Région,Pays,Code Interne REL
NOVIAL,10,10,,,,,,,,
NOVIAL,12,12,,,,,,,,
NOVIAL,18,18,,,,,,,,
BONILAIT,20211201010000000,20211201010000000,,,,,,,,
BONILAIT,20211201070000000,20211201070000000,,,,,,,,
BONILAIT,20211203000000000,20211203000000000,,,,,,,,
BONILAIT,20211206080000000,20211206080000000,,,,,,,,
BONILAIT,20211207010000000,20211207010000000,,,,,,,,
BONILAIT,20211210000000000,20211210000000000,,,,,,,,
BONILAIT,20211227070000000,20211227070000000,,,,,,,,
BONILAIT,20220124080000000,20220124080000000,,,,,,,,
BONILAIT,20220127080000000,20220127080000000,,,,,,,,
BONILAIT,20220201010000000,20220201010000000,,,,,,,,
BONILAIT,20220202070000000,20220202070000000,,,,,,,,
BONILAIT,20220203070000000,20220203070000000,,,,,,,,
BONILAIT,20220207080000000,20220207080000000,,,,,,,,
BONILAIT,20220209070000000,20220209070000000,,,,,,,,
BONILAIT,20220217000000000,20220217000000000,,,,,,,,
BONILAIT,20220222080000000,20220222080000000,,,,,,,,
BONILAIT,20220228010000000,20220228010000000,,,,,,,,
BONILAIT,20220228141300000,20220228141300000,,,,,,,,
BONILAIT,20220301080000000,20220301080000000,,,,,,,,
BONILAIT,20220302000000000,20220302000000000,,,,,,,,
BONILAIT,20220302080000000,20220302080000000,,,,,,,,
BONILAIT,20220308080000000,20220308080000000,,,,,,,,
BONILAIT,20220311080000000,20220311080000000,,,,,,,,
BONILAIT,20220315080000000,20220315080000000,,,,,,,,
BONILAIT,20220318080000000,20220318080000000,,,,,,,,
BONILAIT,20220322070000000,20220322070000000,,,,,,,,
BONILAIT,20220324080000000,20220324080000000,,,,,,,,
BONILAIT,20220325080000000,20220325080000000,,,,,,,,
BONILAIT,20220330010000000,20220330010000000,,,,,,,,
BONILAIT,20220404070000000,20220404070000000,,,,,,,,
BONILAIT,20220407080000000,20220407080000000,,,,,,,,
BONILAIT,20220408080000000,20220408080000000,,,,,,,,
BONILAIT,20220419010000000,20220419010000000,,,,,,,,
BONILAIT,20220429070000000,20220429070000000,,,,,,,,
BONILAIT,20220502070000000,20220502070000000,,,,,,,,
BONILAIT,20220502080000000,20220502080000000,,,,,,,,
BONILAIT,20220509165954000,20220509165954000,,,,,,,,
BONILAIT,20220517070000000,20220517070000000,,,,,,,,
BONILAIT,20220604000000000,20220604000000000,,,,,,,,
BONILAIT,20220607080000000,20220607080000000,,,,,,,,
BONILAIT,20220608080000000,20220608080000000,,,,,,,,
BONILAIT,20220617080000000,20220617080000000,,,,,,,,
BONILAIT,20220627070000000,20220627070000000,,,,,,,,
BONILAIT,20220627080000000,20220627080000000,,,,,,,,
BONILAIT,20220628000000000,20220628000000000,,,,,,,,
BONILAIT,20220711010000000,20220711010000000,,,,,,,,
BONILAIT,20220712080000000,20220712080000000,,,,,,,,
BONILAIT,20220713010000000,20220713010000000,,,,,,,,
BONILAIT,20220719080000000,20220719080000000,,,,,,,,
BONILAIT,20220723080000000,20220723080000000,,,,,,,,
BONILAIT,20220801070000000,20220801070000000,,,,,,,,
BONILAIT,20220801080000000,20220801080000000,,,,,,,,
BONILAIT,20220802140000000,20220802140000000,,,,,,,,
BONILAIT,20220804070000000,20220804070000000,,,,,,,,
BONILAIT,20220805080000000,20220805080000000,,,,,,,,
BONILAIT,20220810010000000,20220810010000000,,,,,,,,
BONILAIT,20220816010000000,20220816010000000,,,,,,,,
BONILAIT,20220822070000000,20220822070000000,,,,,,,,
BONILAIT,20220824080000000,20220824080000000,,,,,,,,
BONILAIT,20220829010000000,20220829010000000,,,,,,,,
BONILAIT,2TAL,2TAL,,,,,,,,
YSEO SAS,3051 (Campagne les Hesdin),3051 (Campagne les Hesdin),,,,,,,,
ALIANE-SANDERS,ALIANE,&FR59331001,Fabrication d'aliments,41 RUE DE LA PESCHERIE,59550,Landrecies,Nord,Nord Pas de Calais,France,
BECUE PASCAL,BECUE PASCAL,0,Exploitation agricole,47 RUE DU PARC,59190,MORBECQUE,59,,FRANCE,9741
BIOARMOR DEVELOPPEMENT,BIOARMOR DEVELOPPEMENT,1,Usine d'aliments,ZI LA GARE,22940,PLAINTEL,Côtes-d'Armor,Bretagne,France,
BONILAIT,BONILAIT CHASSENEUIL,1CHA,Usine d'aliments,ROUTE DE ST GEORGES,86361,CHASSENEUIL DU POITOU,86,NOUVELLE AQUITAINE,France,
PECTOFEED SAS,Bureaux,F3,Bureaux,2 Cloître St Pierre Empont,45000,Orléans,Loiret,Centre,France,
EI CAROUX PATRICK,CAROUX PATRICK (Lait écrémé),1,Exploitation agricole,524 RUE DES FONTENETTES,62126,PERNES LES BOULOGNE,62,,FRANCE,
CAUWET,CAUWET,0,Exploitation agricole,19 ROUTE NATIONALE - L ARBRET,62086,BAVINCOURT,62,Hauts-de-France,France,
COMPIEGNE PHILIPPE,COMPIEGNE PHILIPPE,0,Exploitation agricole,724 HAMEAU DE TOURLINCTHUN,62896,WIRWIGNES,62,Hauts-de-France,France,14779
COMPIEGNE PHILIPPE,COMPIEGNE PHILIPPE,1,Exploitation agricole,724 HAMEAU DE TOURLINCTHUN,62896,WIRWIGNES,62,Hauts-de-France,France,14779
PROSPERITE FERMIERE,COOP LAITIERE ARTOIS FLANDRE ARRAS,0,Coopérative,51 AVENUE FERNAND LOBBEDEZ,62000,ARRAS,62,Hauts-de-France,France,101527
COOP LAITIERE ARTOIS FLANDRE STPOL,COOP LAITIERE ARTOIS FLANDRE STPOL,0,Coopérative,RTE D OSTREVILLE - ZONE INDUSTRIELLE,62130,SAINT POL SUR TERNOISE,62,Hauts-de-France,France,23697
COOPERATIVE UNEAL,COOPERATIVE UNEAL,ALPHA FR 62014001,Fabrication d'aliments,Place de la gare,62120,Aire sur la Lyse,Pas-de-Calais,Nord Pas de Calais,France,
CUVILLIER,CUVILLIER,0,Exploitation agricole,8 RUE DE L EGLISE - ROLLEZ,62844,VERCHOCQ,62,Hauts-de-France,France,3590
DEBAEKE BVBA,DEBAEKE BVBA,DEBAEKE BVBA,Fabrication d'aliments,Tempelare 1,8647,Lo-Reninge,West-Vlaanderen,Vlaanderen,Belgique,
YSEO SAS,Dépot siège aliments Yséo,3284,,Yseo Siège Aliments - 22 Bd Michel Strogoff,,Boves,Somme,Haut de France,France,
NOVIAL,DP,DP,,,,,,,,
DUMOULIN NV,DUMOULIN NV,Kortrijk,Fabrication d'aliments,Spinnerijstraat 119,8500,Courtrai,,,Belgique,
EARL BONNINGUES BERTRAND,EARL BONNINGUES BERTRAND,0,Exploitation agricole,2400 RUE DE BELLE,62720,WIERRE EFFROY,62,,FRANCE,18026
EARL CAUWET,EARL CAUWET,0,Exploitation agricole,19 ROUTE NATIONALE,62158,BAVINCOURT,62,,FRANCE,18679
EARL CHIVORET,EARL CHIVORET,0,Exploitation agricole,12 GRAND'RUE,62002,ABLAINZEVELLE,62,Hauts-de-France,France,4309
EARL COUVREUR,EARL COUVREUR,0,Exploitation agricole,9 RUE DE LARRE,62380,NIELLES LES BLEQUIN,62,,FRANCE,3294
EARL COUVREUR HERVE,EARL COUVREUR HERVE,0,Exploitation agricole,6 RUE CATHOLIQUE,62134,FIEFS,62,,FRANCE,7972
EARL D HARDENTHUN,EARL D HARDENTHUN FOURDINIER STEPHANE,0,Exploitation agricole,HARDENTHUN,62250,MARQUISE,62,,FRANCE,11060
EARL D HERQUELINGUE,EARL D HERQUELINGUE,0,Exploitation agricole,HAMEAU D HERQUELINGUE,62360,ISQUES,62,,FRANCE,13738
EARL DE CREMINIL,EARL DE CREMINIL,0,Exploitation agricole,145 RUE DE L'EGLISE,62313,ESTREE BLANCHE,62,Hauts-de-France,France,18170
EARL DE HOUPPE VENT,EARL DE HOUPPE VENT,0,Exploitation agricole,33 RUE DE L AERODROME,62164,AMBLETEUSE,62,,FRANCE,18593
EARL DE L EPRIEZ,EARL DE L EPRIEZ,0,Exploitation agricole,186  ROUTE DE DESVRES,62240,WIRWIGNES,62,,FRANCE,18393
EARL DE LA FERME LIBESSART,EARL DE LA FERME LIBESSART CYRILLE,0,Exploitation agricole,1 RUE D AVESNES,62123,MONTENESCOURT,62,,FRANCE,12970
EARL DE LA PETITE PLACE FOURCROY DIDIER,EARL DE LA PETITE PLACE,0,Exploitation agricole,3 RUE DE SEQUIERES,62630,HUBERSENT,62,,FRANCE,
EARL DE LA WATTINE,EARL DE LA WATTINE,0,Exploitation agricole,447 LA WATTINE,62888,WIERRE AU BOIS,62,Hauts-de-France,France,7209
EARL DE MORLINGHEN,EARL DE MORLINGHEN,0,Exploitation agricole,26-30 ROUTE NATIONALE,62360,HESDIN L ABBE,62,,FRANCE,18405
EARL DE ROSNY JACQUES & ELISABETH,EARL DE ROSNY JACQUES & ELISABETH,0,Exploitation agricole,CHEMIN DE BILLEAUVILLE,62126,WIMILLE,62,,FRANCE,14141
EARL DEGRENDELE JM,EARL DEGRENDELE JM,0,Exploitation agricole,177 RUE D EN BAS,62270,MAGNICOURT SUR CANCHE,62,,FRANCE,18893
EARL DELAMBRE DESPREZ,EARL DELAMBRE DESPREZ,0,Exploitation agricole,1 RUE DES ANNELLES,62127,MAGNICOURT EN COMTE,62,,FRANCE,18729
EARL DELAMBRE DESPREZ,EARL DELAMBRE DESPREZ,1,Exploitation agricole,1 RUE DES ANNELLES,62536,MAGNICOURT EN COMTE,62,Hauts-de-France,France,18729
EARL DEROLEZ LAURENT,EARL DEROLEZ LAURENT,0,Exploitation agricole,9 CHEMIN DE LEBIEZ,62310,CREQUY,62,,FRANCE,18534
EARL DES 2 VALLEES HEDIN BENOIT,EARL DES 2 VALLEES HEDIN BENOIT,0,Exploitation agricole,17 RUE DES ECOLES,62170,BREXENT ENOCQ,62,,FRANCE,18543
EARL DHENIN ALAIN,EARL DHENIN ALAIN,0,Exploitation agricole,5 RUE DE LAWE,62127,MAGNICOURT EN COMTE,62,,FRANCE,18643
EARL DU GRAND BOIS,EARL DU GRAND BOIS,0,Exploitation agricole,73 RUE DU CROCQ,62168,BOURTHES,62,Hauts-de-France,France,16044
EARL DU MOULIN DE SENLECQUES,EARL DU MOULIN DE SENLECQUES,0,Exploitation agricole,15 CHAUSSEE BRUNEHAUT,62240,SENLECQUES,62,,FRANCE,
EARL DU PIGEONNIER,EARL DU PIGEONNIER CUVILLIER XAVIER,0,Exploitation agricole,17 GRAND RUE,62690,BETHONSART,62,,FRANCE,18197
EARL FEUTRY FREDDY,EARL FEUTRY FREDDY,0,Exploitation agricole,680 FERME LE CAMP,62142,BELLE ET HOULLEFORT,62,,FRANCE,18792
EARL GARDIN DOMINIQUE & JACQUELINE,EARL GARDIN DOMINIQUE & JACQUELINE,0,Exploitation agricole,65 ROUTE DE SURQUES,62240,BRUNEMBERT,62,,FRANCE,18605
EARL HOCHART,EARL HOCHART,0,Exploitation agricole,4 HAMEAU DE FORESTEL,62560,MERCK ST LIEVIN,62,,FRANCE,
EARL HOCHEDE,EARL HOCHEDE,0,Exploitation agricole,3 RUE DE LA DROITE MONTAGNE,62600,NEDON,62,Hauts-de-France,France,18375
EARL HONORE CARON,EARL HONORE CARON,0,Exploitation agricole,261 RUE D EN HAUT,62460,DIEVAL,62,,FRANCE,18435
EARL LA BOULOY MARTEL FRANCIS,EARL LA BOULOY MARTEL FRANCIS,0,Exploitation agricole,302 RUE SALINE,62240,WIRWIGNES,62,,FRANCE,2272
EARL LEHEUDRE DENIS & NATHALIE,EARL LEHEUDRE DENIS & NATHALIE,0,Exploitation agricole,8 RUE DE LUGY,62310,SENLIS,62,,FRANCE,18130
EARL LELEU JEAN PAUL,EARL LELEU JEAN PAUL,0,Exploitation agricole,8 RUE ROBERT BRANDIN,62550,FLORINGHEM,62,,FRANCE,18482
EARL LIGNIER,EARL LIGNIER,0,Exploitation agricole,27 ROUTE EQUIHEN - ECAULT,62746,ST ETIENNE AU MONT,62,Hauts-de-France,France,18610
EARL LOTTILLIER,EARL LOTTILLIER,0,Exploitation agricole,21 HAMEAU DE HAPPE,62202,CAMPAGNE LES BOULONNAIS,62,Hauts-de-France,France,18450
EARL MARTINAGE,EARL MARTINAGE,0,Exploitation agricole,4 LA PLACE,62134,FIEFS,62,,FRANCE,18295
EARL MERLEN DURIEZ,EARL MERLEN DURIEZ,0,Exploitation agricole,396 RUE DU MAREST,62460,DIEVAL,62,,FRANCE,18434
EARL PREVOST SAMIER BERNARD ET DAVID,EARL PREVOST SAMIER BERNARD ET DAVID,0,Exploitation agricole,30 RUE PRINCIPALE,62130,FRAMECOURT,62,,FRANCE,5221
EARL SEPTIER PHILIPPE PHILIPPE,EARL SEPTIER PHILIPPE PHILIPPE,0,Exploitation agricole,11 RUE MARCEL LEMOINE,62390,BEAUVOIR WAVANS,62,,FRANCE,11683
EARL TEMPEZ TEMPEZ JEREMY,EARL TEMPEZ TEMPEZ JEREMY,0,Exploitation agricole,21 RUE POMMIER,62158,HUMBERCAMPS,62,,FRANCE,10388
EARL WALLE HOLUIGUE,EARL WALLE HOLUIGUE DANIEL EVELYNE & JEREMY,0,Exploitation agricole,1490 LE MOYEN BOIS,62830,SAMER,62,,FRANCE,6092
EI BECUE ODILE,EI BECUE ODILE,0,Exploitation agricole,47 RUE DU PARC,59190,MORBECQUE,59,,FRANCE,9741
EI BOIDIN GUILLAIN,EI BOIDIN GUILLAIN,0,Exploitation agricole,3 RUE BLANCHE,62550,BOURS,62,,FRANCE,11578
EI BOURGOIS JULIEN,EI BOURGOIS JULIEN,0,Exploitation agricole,17 RUE HORDE,62380,NIELLES LES BLEQUIN,62,,FRANCE,18612
EI BOUTILLIER CARON CHRISTIANE,EI BOUTILLIER CARON CHRISTIANE,0,Exploitation agricole,20 RUE DE NEUVILLE,62130,BRIAS,62,,FRANCE,18454
EI BRAURE CHRISTIAN,EI BRAURE CHRISTIAN,0,Exploitation agricole,30 RUE DE VAUDRINGHEM,62380,WISMES,62,,FRANCE,13741
EI CARON CHRISTIAN,EI CARON CHRISTIAN,0,Exploitation agricole,181 RUE DE LA ROCHELLE,59173,BLARINGHEM,59,,FRANCE,18743
EI CAROUX PATRICK,EI CAROUX MARIE GODELEINE,0,Exploitation agricole,524 RUE DES FONTENETTES,62126,PERNES LES BOULOGNE,62,,FRANCE,
EI CAROUX MARIE GODELEINE,EI CAROUX MARIE GODELEINE,0,Exploitation agricole,524 RUE DES FONTENETTES,62126,CONTEVILLE LES BOULOGNE,62,,FRANCE,15498
EI COMPIEGNE THIERRY,EI COMPIEGNE THIERRY,0,Exploitation agricole,LE BELLANOY,62240,WIRWIGNES,62,,FRANCE,14639
EI COQUERELLE JEAN-PATRICK,EI COQUERELLE JEAN-PATRICK,0,Exploitation agricole,101 ROUTE DE BOURSIN,62142,COLEMBERT,62,,FRANCE,10308
EI COUVREUR RICHARD,EI COUVREUR RICHARD,0,Exploitation agricole,11 LA PLACE,62550,AUMERVAL,62,,FRANCE,10238
EI DECROIX JEREMY,EI DECROIX JEREMY,0,Exploitation agricole,33 RUE D AIRE,62134,HEUCHIN,62,,FRANCE,18755
EI DECROIX JOCELYN,EI DECROIX JOCELYN,0,Exploitation agricole,1 RUE DE SAINT-LEGER,62127,AVERDOINGT,62,,FRANCE,18074
EI DESSAINT BERNADETTE,EI DESSAINT BERNADETTE,0,Exploitation agricole,7 RUE DE CAMBRAI,62124,METZ EN COUTURE,62,,FRANCE,12908
EI DOUCHET DIDIER,EI DOUCHET DIDIER,0,Exploitation agricole,62 RUE DE WAILLY,62310,COUPELLE VIEILLE,62,,FRANCE,9155
EI DUCLOY RENOLD,EI DUCLOY RENOLD,0,Exploitation agricole,415 RUE DE LA HOUSSOY,62142,BELLEBRUNE,62,,FRANCE,18823
EI ESTEVE GENEVIEVE,EI ESTEVE GENEVIEVE,0,Exploitation agricole,5 RUE JEAN DE PARIS,80300,MIRAUMONT,80,,FRANCE,15571
EI FARDEL MARTIAL,EI FARDEL MARTIAL,0,Exploitation agricole,2 RUE JEAN DE FREVILLERS,62127,MAGNICOURT EN COMTE,62,,FRANCE,11839
EI FOULON CAMILLE,EI FOULON CAMILLE,0,Exploitation agricole,RUE DU CHOQUEL,62240,ST MARTIN CHOQUEL,62,,FRANCE,9207
EI FOURDINIER JEROME,EI FOURDINIER JEROME,0,Exploitation agricole,25 RUE DE BECOURT,62240,COURSET,62,,FRANCE,18614
EI GUILBERT BRUNO,EI GUILBERT BRUNO,0,Exploitation agricole,330 RUE DE SAINT FOLQUIN,62142,HENNEVEUX,62,,FRANCE,8951
EI LAIGLE PHILIPPE,EI LAIGLE PHILIPPE,0,Exploitation agricole,12 RUE DU BOIS,62127,TINCQUES,62,,FRANCE,14957
EI LANNEZ SEBASTIEN,EI LANNEZ SEBASTIEN,0,Exploitation agricole,1 RUE DES COURTILS,62890,RECQUES SUR HEM,62,,FRANCE,18901
EI NEVEU NICOLAS,EI NEVEU NICOLAS,0,Exploitation agricole,7 RUE DE PERNES,62460,DIEVAL,62,,FRANCE,6126
EI NORMAND FRANCOIS,EI NORMAND FRANCOIS,0,Exploitation agricole,297 RUE DES COUTURES,62850,SURQUES,62,,FRANCE,18038
EI POULAIN JEAN-FRANCOIS,EI POULAIN JEAN-FRANCOIS,0,Exploitation agricole,HAMEAU MARIVAL,62380,WISMES,62,,FRANCE,10254
EI QUETU SERGE,EI QUETU SERGE,0,Exploitation agricole,2 RUE DE LA FONTAINE,62126,PERNES LES BOULOGNE,62,,FRANCE,18715
EI RINGOT JEREMY,EI RINGOT JEREMY,0,Exploitation agricole,15 ROUTE NATIONALE,62560,VERCHOCQ,62,,FRANCE,6312
EI ROUSSEL HERVE,EI ROUSSEL HERVE,0,Exploitation agricole,269 RUE LE TRONQUOY,62650,AIX EN ERGNY,62,,FRANCE,3497
EI SOUDANS FRANCOIS,EI SOUDANS FRANCOIS,0,Exploitation agricole,2 HAMEAU LE PLOUY,62380,WAVRANS SUR L AA,62,,FRANCE,18378
EI TETARD ELIANE,EI TETARD ELIANE,0,Exploitation agricole,HAMEAU BEL AVESNES,62810,LATTRE ST QUENTIN,62,,FRANCE,18774
EI VIGNERON SYLVAIN,EI VIGNERON SYLVAIN,0,Exploitation agricole,FERME DE BERTHELAIRE,62360,BAINCTHUN,62,,FRANCE,9088
NOVIAL,EL,EL,,,,,,,,
PECTOFEED SAS,ESAT Paul-LEBRETON Site Denis Papin,F2,Dépôts,114 avenue Denis Papin,45800,Saint Jean de Braye,Loiret,Centre,France,
ESTEVE AIME,ESTEVE AIME,0,Exploitation agricole,5 RUE JEAN DE PARIS,80300,MIRAUMONT,80,,FRANCE,15571
FOULON DACQUIN PHILIPPE,FOULON DACQUIN PHILIPPE,0,Exploitation agricole,RUE DU CHOQUEL,62240,ST MARTIN CHOQUEL,62,,FRANCE,9207
GAEC BETHENCOURT,GAEC BETHENCOURT,0,Exploitation agricole,12 A RUE DU FAYE,62810,LIGNEREUIL,62,,FRANCE,18348
GAEC CARBONNET DENIS ET MATHIEU,GAEC CARBONNET DENIS ET MATHIEU,0,Exploitation agricole,74 RUE DE GOUY,62270,MAGNICOURT SUR CANCHE,62,,FRANCE,18850
GAEC DE L ANCIEN MOULIN,GAEC DE L ANCIEN MOULIN,0,Exploitation agricole,RUE PRINCIPALE,62760,GRINCOURT LES PAS,62,,FRANCE,3867
GAEC DE L ECURIE,GAEC DE L ECURIE HOCHART REMI FABRICE & FRANCINE,0,Exploitation agricole,21 RUE PRINCIPALE,62380,OUVE WIRQUIN,62,,FRANCE,10625
GAEC DE LA BOUVERDRIE,GAEC DE LA BOUVERDRIE DULOT JEAN MICHEL ET QUENTIN,0,Exploitation agricole,194 RUE DU CROQUET,62126,CONTEVILLE LES BOULOGNE,62,,FRANCE,13735
GAEC DE LA HOUBLONNERIE,GAEC DE LA HOUBLONNERIE,1,Exploitation agricole,31 CHEMIN DE LA HOUBLONNERIE,62255,CREMAREST,62,Hauts-de-France,France,11234
GAEC DE LA HOUBLONNERIE,GAEC DE LA HOUBLONNERIE LACHERE REMY & EMMANUEL,0,Exploitation agricole,31 CHEMIN DE LA HOUBLONNERIE,62240,CREMAREST,62,,FRANCE,11234
GAEC DEROLLEZ CLJB,GAEC DEROLLEZ CLJB,0,Exploitation agricole,20 RUE DE BEAUSSART,62650,RUMILLY,62,,FRANCE,18023
GAEC DES 3 CHENES,GAEC DES 3 CHENES VERLOIN MAXIME & ANTOINE,0,Exploitation agricole,20 RUE PAULHAN,62223,ST LAURENT BLANGY,62,,FRANCE,18801
GAEC DES ROCHES,GAEC DES ROCHES MARTINAGE ERIC & DELPHINE,0,Exploitation agricole,370 RUE DE LA ROCHELLE,62150,LA COMTE,62,,FRANCE,14984
GAEC DES SOURCES old,GAEC DES SOURCES MERLIN XAVIER ET CATHERINE,0,Exploitation agricole,5 ROUTE DE DESVRES,62170,BEUSSENT,62,,FRANCE,221030
GAEC DES SOURCES,GAEC DES SOURCES MERLIN XAVIER ET CATHERINE,0,Exploitation agricole,5 ROUTE DE DESVRES,62170,BEUSSENT,62,,FRANCE,18046
GAEC DESGROUSILLIERS CLAUDE & DORINE,GAEC DESGROUSILLIERS CLAUDE & DORINE,0,Exploitation agricole,4 RUE VERTE,62310,SAINS LES FRESSIN,62,,FRANCE,18550
GAEC DU DRORET,GAEC DU DRORET,0,Exploitation agricole,1187 LE DRORET,62830,QUESTRECQUES,62,,FRANCE,8892
GAEC DU DRORET,GAEC DU DRORET,,Exploitation agricole,1187 LE DRORET,,QUESTRECQUES,62,,FRANCE,8892
GAEC DU HAUT BUISSON,GAEC DU HAUT BUISSON CREPIN FREDERIC ET MATHIEU,0,Exploitation agricole,LE HAUT BUISSON,62250,ST INGLEVERT,62,,FRANCE,18382
GAEC DU MARAIS MRS MARTEL,GAEC DU MARAIS MRS MARTEL,0,Exploitation agricole,1060 RUE PRINCIPALE,62380,LEDINGHEM,62,,FRANCE,7760
GAEC DU VALLOIS MRS MOUTON,GAEC DU VALLOIS MRS MOUTON,0,Exploitation agricole,13 LE VAL,62560,MERCK ST LIEVIN,62,,FRANCE,4350
GAEC HANNEBIQUE,GAEC HANNEBIQUE PIERRE et GUYLAINE,0,Exploitation agricole,364 RUE D HOUDAIN,62150,LA COMTE,62,,FRANCE,14568
GAEC LEJOSNE,GAEC LEJOSNE LEJOSNE JEAN NOEL SEBASTIEN,0,Exploitation agricole,4 RUE DE COURCELLES,62770,BLINGEL,62,,FRANCE,9071
GAEC LES MARJOLAINES,GAEC LES MARJOLAINES ROUGEGREZ ROMAIN MURIEL,0,Exploitation agricole,51 RUE DE L EGLISE,62270,REBREUVE SUR CANCHE,62,,FRANCE,6504
GAEC LESOING,GAEC LESOING,0,Exploitation agricole,32 RUE D ARRAS,62690,HERMAVILLE,62,,FRANCE,6212
GAEC MON PLAISIR,GAEC MON PLAISIR,0,Exploitation agricole,16 RUE DE MAISNIL,62134,TENEUR,62,,FRANCE,18527
GAEC MONSIGNY,GAEC MONSIGNY PASCAL MARIE-CHRISTINE ET GERMAI,0,Exploitation agricole,50 LA CROIX DES LOUPS,62830,VERLINCTHUN,62,,FRANCE,11957
GAEC PREVOST LOCQUET,GAEC PREVOST LOCQUET,0,Exploitation agricole,18 RUE PRINCIPALE,62130,FRAMECOURT,62,,FRANCE,14011
GERVAIS,GERVAIS,0,Exploitation agricole,8 RUE VICTOR HUGO,62007,ACQ,62,Hauts-de-France,France,9706
QUARTES,Hasselt,2 - Quartes Hasselt,Fabrication d'aliments,Kempische Kaai 89,3500,Hasselt,,,Belgique,
HILMOINE FOURCROY,HILMOINE FOURCROY,0,Exploitation agricole,5 RUE DES 2 UPEN - UPEN D'AVAL,62265,DELETTES,62,Hauts-de-France,France,5248
INGREDIA,INGREDIA,0,Usine,51 AVENUE FERNAND LOBBEDEZ,62000,ARRAS,62,Hauts-de-France,France,357115
INGREDIA SAINT POL,INGREDIA SAINT POL,0,Usine,RTE D OSTREVILLE - ZONE INDUSTRIELLE,62130,SAINT POL SUR TERNOISE,62,Hauts-de-France,France,
ALIANE-SANDERS,Landrecies,36,Fabrication d'aliments,41 rue de la pescherie,59550,Landrecies,Nord,Nord Pas de Calais,France,
LEROY,LEROY,0,Exploitation agricole,53 RUE DES SIX RUES,59416,MORBECQUE,59,Hauts-de-France,France,18444
MERCIER DOMINIQUE,MERCIER DOMINIQUE,0,Exploitation agricole,4 RUE DU FOUR,62530,SERVINS,62,,FRANCE,
PECTOFEED SAS,MIAVIT GmbH,A1,Usine d'aliments,Robert-Bosch-Str. 3,D-49632,Essen (Oldb),,,Allemagne,
NOVIAL,Noyelles sur Escaut,2,Fabrication d'aliments,8 route de Cambrai,59159,Noyelles sur Escaut,Nord,Nord Pas de Calais,France,
NUTRILAC,Nutrilac,,Usine d'aliments,rue de la laiterie,62180,Verton,Pas-De-Calais,Haut de France,France,
NOVIAL,P00,P00,,,,,,,,
PETIT CHRISTOPHE,PETIT CHRISTOPHE,0,Exploitation agricole,70 RUE DE NEUFOSSE,62120,AIRE SUR LA LYS,62,,FRANCE,11238
PEUVION,PEUVION,0,Exploitation agricole,RUE DE DESSOUS,62545,MANINGHEM,62,Hauts-de-France,France,7401
NOVIAL,PR,PR,,,,,,,,
QUARTES,Quartes nv,2 - Quartes Deinze,Fabrication d'aliments,Kapellestraat 71,9800,Deinze,,,Belgique,
SABE,SABE,SABE,Fabrication d'aliments,5 RUE DE LORRAINE,62510,ARQUES,Pas-de-Calais,Nord Pas de Calais,France,
SAS DURANEL,SAS DURANEL GAUCHIN LE GAL,62150,Fabrication d'aliments,233 RUE DU MOULIN,62150,Gauchin le gal,Pas-de-Calais,Hauts-de-France,France,
SAS RINGARD AGRI,SAS RINGARD AGRI,LUCHEUX,Usine d'aliments,27 rue Walloon,80600,Lucheux,SOMME,Hauts de France,France,PWIL01
SCEA BILLET FRERES,SCEA BILLET FRERES BILLET JEAN FRANCOIS & BENOIT,0,Exploitation agricole,2 RUE DE LA PLAQUE,62270,LIGNY SUR CANCHE,62,,FRANCE,18639
SCEA DE DRIONVILLE,SCEA DE DRIONVILLE,0,Exploitation agricole,27 RUE DE CALAIS,62837,VAUDRINGHEM,62,Hauts-de-France,France,14552
SCEA DE LA PLACE,SCEA DE LA PLACE MRS GALLET POHIER,0,Exploitation agricole,37 RUE PRINCIPALE,62650,ZOTEUX,62,,FRANCE,570
SCEA DES SAPINS,SCEA DES SAPINS MRS LONGUET PERON MME GAMBART,0,Exploitation agricole,53 BIS ROUTE DE LONGUEVILLE,62240,BRUNEMBERT,62,,FRANCE,18167
SCEA DES VERTES PRAIRIES,SCEA DES VERTES PRAIRIES,0,Exploitation agricole,4 RUE DU FOUR,62530,SERVINS,62,,FRANCE,12809
SCEA DU BIEN CAMP,SCEA DU BIEN CAMP,0,Exploitation agricole,1 ROUTE DE CAMPAGNETTE,62380,WAVRANS SUR L AA,62,,FRANCE,18830
SCEA LIEVIN LECOUSTRE,SCEA LIEVIN LECOUSTRE,0,Exploitation agricole,FERME AU BOIS,62380,BLEQUIN,62,,FRANCE,18623
SCEA SACLEUX,SCEA SACLEUX SACLEUX et WYKA,0,Exploitation agricole,8 RUE DE L ABBAYE,62810,IVERGNY,62,,FRANCE,18698
SCEA SOLEIL,SCEA SOLEIL,0,Exploitation agricole,138 RUE DE LA VALLEE,62170,INXENT,62,,FRANCE,18785
SCEA WALLOIS,SCEA WALLOIS,0,Exploitation agricole,10 RUE DE SAMER,62630,HUBERSENT,62,,FRANCE,18764
SERMIX  ST NOLFF,SERMIX ARGENTAN,74,Usine d'aliments,36 RTE DE TERCEI,61200,ARGENTAN,Orne,Normandie,France,
SERMIX  ST NOLFF,SERMIX STRASBOURG,SERMIX STRASBOURG,Usine d'aliments,107 RUE DU RHIN NAPOLEON,67100,STRASBOURG,Bas-Rhin,GRAND EST,France,
PECTOFEED SAS,Siège juridique,F1,Adresse domiciliée,40 rue St André,72000,LE MANS,Sarthe,Pays-de-Loire,France,
SOCOMASH,SOCOMASH,SOCOMASH,Fabrication d'aliments,3 CHE DEPARTEMENTAL 104,62130,Humieres,Pas-de-Calais,Hauts-de-France,France,
SOUDANS PASCAL,SOUDANS PASCAL,0,Exploitation agricole,2 HAMEAU LE PLOUY,62380,WAVRANS SUR L AA,62,,FRANCE,SCEA SOLEIL (M. SOUDAIN)
NOVIAL,TA,TA,,,,,,,,
TEREOS ATTIN,Tereos Attin,72,Sucrerie,1 route nationale,62170,Attin,Pas-De-Calais,Haut-De-France,France,
TEREOS BOIRY,Tereos Boiry,33,Sucrerie,4 rue de la Sucrerie,62175,Boiry-Sainte-Rictrude,Pas-De-Calais,Haut-De-France,France,
TEREOS LILLERS,Tereos Lillers,67,Sucrerie,100 rue de Verdun,62193,Lillers,Pas-De-Calais,Haut-De-France,France,
VERBRUGGHE SA,Verbrugghe,site 1,Fabrication d'aliments,Kerselaarstraat 1,8691,Leisele,,,Belgique,
QUARTES,Versele-Laga,1 - Quartes Deinze,Fabrication d'aliments,Kapellestraat 70,9800,Deinze,,,Belgique,
K+S (ESCO),Werk Braunschweig-Lüneburg,0013,Fournisseur d'aliments,Bahnhofstrasse 15,38368,GRASLEBEN,,,Allemagne,
VAESKEN SAS,WIERRE EFFROY,81,Fabrication d'aliments,221 RUE DU BEAUCAMP,62720,WIERRE EFFROY,Pas-de-Calais,Hauts-de-France,France,
YSEO SAS,Yseo Airaines,3304 (Airaines),Plateforme de stockage,2 Avenue Jules Levis,80270,Airaines,Somme,Hauts de France,France,
