Nom de l'acteur,ID acteur,Cahier des charges : rôles,AmbassadeurTousTous,Code Interne REL,Acteur
2532,2532,,Non,,
901123,tmp_901123_Isla Délice_78507,,Non,,
AIT MATNE (PRESLE MARKET),AIT MATNE (PRESLE MARKET),,Non,11541,AIT MATNE (PRESLE MARKET)
ANKA SUPERMARCHE,ANKA SUPERMARCHE,,Non,12597,ANKA SUPERMARCHE
ANZIN DISTRIBUTION,ANZIN DISTRIBUTION,,Non,11546,ANZIN DISTRIBUTION
AU PETIT MARCHE,AU PETIT MARCHE,,Non,12749,AU PETIT MARCHE
AUCHAN CARVIN,AUCHAN CARVIN,ISLA DELICE: Distributeur,Non,443,AUCHAN CARVIN
AUCHAN CERGY,AUCHAN CERGY,ISLA DELICE: Distributeur,Non,441,AUCHAN CERGY
AUCHAN PFI CHANCEAUX HYPER,83223540200357,,Non,13597,AUCHAN PFI CHANCEAUX HYPER
AUCHAN PFI CHANCEAUX HYPER,AUCHAN PFI CHANCEAUX HYPER,,Non,13597,AUCHAN PFI CHANCEAUX HYPER
AUCHAN SM MAZARGUES,AUCHAN SM MAZARGUES,,Non,12444,AUCHAN SM MAZARGUES
AUCHAN SM ST LAZARE,AUCHAN SM ST LAZARE,,Non,11442,AUCHAN SM ST LAZARE
Axe froid,45060988800018,ISLA DELICE: Plateforme logistique,Non,800002,Axe froid
AZUR MARKET,AZUR MARKET,,Non,10126,AZUR MARKET
BARAKA MARKET,BARAKA MARKET,ISLA DELICE: Distributeur,Non,11621,BARAKA MARKET
BBM 57,BBM 57,,Non,13213,BBM 57
BM DISTRIBUTION SUPERMARCHE SPAR,BM DISTRIBUTION SUPERMARCHE SPAR,,Non,12685,BM DISTRIBUTION SUPERMARCHE SPAR
BOUCHERIE DE MORONVAL,BOUCHERIE DE MORONVAL,,Non,12978,BOUCHERIE DE MORONVAL
BOUCHERIE LA MARSA NEILA,BOUCHERIE LA MARSA NEILA,ISLA DELICE: Distributeur,Non,2275,BOUCHERIE LA MARSA NEILA
BOUCHERIE MARAVAL,BOUCHERIE MARAVAL,,Non,11774,BOUCHERIE MARAVAL
BOUCHERIE MARHABA,BOUCHERIE MARHABA,,Non,2254,BOUCHERIE MARHABA
BOUCHERIE MAUBEUGEOISE,BOUCHERIE MAUBEUGEOISE,,Non,12069,BOUCHERIE MAUBEUGEOISE
BOUCHERIE ORIENTALE DE SAINT MUS,BOUCHERIE ORIENTALE DE SAINT MUS,,Non,8560,BOUCHERIE ORIENTALE DE SAINT MUS
BOUCHERIE POPULAIRE D'HEROUVILE,BOUCHERIE POPULAIRE D'HEROUVILE,,Non,11618,BOUCHERIE POPULAIRE D'HEROUVILE
BOUCHERIE WALILI,BOUCHERIE WALILI,,Non,10216,BOUCHERIE WALILI
CADF,31782343300022,ISLA DELICE: Abattoir,Non,CADF,CADF
CARREFOUR CONTACT,CARREFOUR CONTACT,ISLA DELICE: Distributeur,Non,13314,CARREFOUR CONTACT
CHEZ DEDE,CHEZ DEDE,,Non,9395,CHEZ DEDE
CIE LES SALINS DU MIDI ET DES SA,41243174400298,ISLA DELICE: Fournisseur,Non,900239,CIE LES SALINS DU MIDI ET DES SA
COCCI MARKET (SASU NBP),COCCI MARKET (SASU NBP),,Non,11299,COCCI MARKET (SASU NBP)
CORA PAVILLON SS BOIS,CORA PAVILLON SS BOIS,,Non,11357,CORA PAVILLON SS BOIS
DAT-SCHAUB FRANCE SAS,41372492300011,ISLA DELICE: Fournisseur,Non,900241,DAT-SCHAUB FRANCE SAS
DISTRI IV,DISTRI IV,,Non,10002,DISTRI IV
Distributeur,(isla) Distributeur,,Non,Distributeur,Distributeur
DORACAN DISTRIBUTION,DORACAN DISTRIBUTION,,Non,9153,DORACAN DISTRIBUTION
DUC,72262116600064,ISLA DELICE: Fournisseur,Non,900439,DUC
ECOPLUS,ECOPLUS,,Non,10961,ECOPLUS
EDEN,EDEN,,Non,10446,EDEN
ELI MARKET (G20),ELI MARKET (G20),,Non,11249,ELI MARKET (G20)
FJN DISTRIBUTION MARCHÉ D'A COTÉ,FJN DISTRIBUTION MARCHÉ D'A COTÉ,,Non,13535,FJN DISTRIBUTION MARCHÉ D'A COTÉ
HAL MARKET NOROIT DISTRIBUTION,HAL MARKET NOROIT DISTRIBUTION,,Non,13327,HAL MARKET NOROIT DISTRIBUTION
HYPER DISCOUNT,HYPER DISCOUNT,,Non,8769,HYPER DISCOUNT
INTERMARCHE PANTIN - MOLIME,INTERMARCHE PANTIN - MOLIME,,Non,9248,INTERMARCHE PANTIN - MOLIME
Isla Délice,53844948900029,ISLA DELICE: transformateur,Non,900594,Isla Délice
JAAD,JAAD,,Non,11356,JAAD
JANA (G20),JANA (G20),,Non,13562,JANA (G20)
JOURDAIN MARKET TOULOUSE,JOURDAIN MARKET TOULOUSE,,Non,12921,JOURDAIN MARKET TOULOUSE
KARADENIZ,KARADENIZ,,Non,8490,KARADENIZ
KL LOGAN (LTMA SUPERMARCHE),KL LOGAN (LTMA SUPERMARCHE),,Non,12403,KL LOGAN (LTMA SUPERMARCHE)
LA HALLE DU NORD,LA HALLE DU NORD,,Non,12825,LA HALLE DU NORD
LA RENAISSANCE(BOUCHERIE NOUARI),LA RENAISSANCE(BOUCHERIE NOUARI),,Non,13483,LA RENAISSANCE(BOUCHERIE NOUARI)
LE C,tmp_LE C_DUC_79374,,Non,,LE C
LEDO MARKET,LEDO MARKET,,Non,10028,LEDO MARKET
LES HALLES DE LA VIANDE,LES HALLES DE LA VIANDE,,Non,11668,LES HALLES DE LA VIANDE
LES HALLES DE VALENCE- TACADA'W,LES HALLES DE VALENCE- TACADA'W,,Non,12994,LES HALLES DE VALENCE- TACADA'W
LPA DISTRIBUTION LEADER PRICE,LPA DISTRIBUTION LEADER PRICE,,Non,10497,LPA DISTRIBUTION LEADER PRICE
M15B MARKA MARKET,M15B MARKA MARKET,ISLA DELICE: Distributeur,Non,13452,M15B MARKA MARKET
MARKA (CARREFOUR EXPRESS),MARKA (CARREFOUR EXPRESS),,Non,13119,MARKA (CARREFOUR EXPRESS)
MIRAMAS,MIRAMAS,,Non,,
NETTO - DAMPIERRUS,NETTO - DAMPIERRUS,,Non,13691,NETTO - DAMPIERRUS
NETTO -SUDOR,NETTO -SUDOR,,Non,13456,NETTO -SUDOR
NETTO COUDOUBLE VALENCE,NETTO COUDOUBLE VALENCE,,Non,11165,NETTO COUDOUBLE VALENCE
NETTO DEROMA,NETTO DEROMA,,Non,13207,NETTO DEROMA
NETTO ISTRES - CHOUPETO,NETTO ISTRES - CHOUPETO,,Non,13067,NETTO ISTRES - CHOUPETO
NETTO MARSEILLE SAS CRITIERO,NETTO MARSEILLE SAS CRITIERO,,Non,12965,NETTO MARSEILLE SAS CRITIERO
NETTO MIRAMAS-EPILOBE,NETTO MIRAMAS-EPILOBE,,Non,13066,NETTO MIRAMAS-EPILOBE
NETTO SAINT PAUL SAPAURO,NETTO SAINT PAUL SAPAURO,,Non,12781,NETTO SAINT PAUL SAPAURO
O'BAS PRIX,O'BAS PRIX,,Non,12874,O'BAS PRIX
O MARKET FRAIS,O MARKET FRAIS,ISLA DELICE: Distributeur,Non,13703,O MARKET FRAIS
PALMIER DISCOUNT L'OASIS,PALMIER DISCOUNT L'OASIS,,Non,11771,PALMIER DISCOUNT L'OASIS
PFC LH NORD PROFOOD CENTER MARKE,PFC LH NORD PROFOOD CENTER MARKE,,Non,12185,PFC LH NORD PROFOOD CENTER MARKE
PRO FOOD CENTER,PRO FOOD CENTER,,Non,10951,PRO FOOD CENTER
PYRENEES MARKET,PYRENEES MARKET,,Non,10861,PYRENEES MARKET
RM FRUITS,RM FRUITS,,Non,2837,RM FRUITS
SA AUCHAN TOUSSIEU,SA AUCHAN TOUSSIEU,ISLA DELICE: Distributeur,Non,444,SA AUCHAN TOUSSIEU
SALAMA LERIF,SALAMA LERIF,,Non,2896,SALAMA LERIF
SANYA MARKET - HALLES FRAIS,SANYA MARKET - HALLES FRAIS,,Non,13492,SANYA MARKET - HALLES FRAIS
SARCELLES VIANDES,SARCELLES VIANDES,,Non,12961,SARCELLES VIANDES
SARL AYAZ MELL SHOP,SARL AYAZ MELL SHOP,,Non,11952,SARL AYAZ MELL SHOP
SARL DISCONTAL CHEZ DILAVERT AZT,SARL DISCONTAL CHEZ DILAVERT AZT,,Non,4640,SARL DISCONTAL CHEZ DILAVERT AZT
SARL IFRIQUIA,SARL IFRIQUIA,ISLA DELICE: Distributeur,Non,5803,SARL IFRIQUIA
SARL SKV LE MARCHE D'A COTE,SARL SKV LE MARCHE D'A COTE,,Non,12885,SARL SKV LE MARCHE D'A COTE
SASU GOURAYA,SASU GOURAYA,,Non,10361,SASU GOURAYA
SMART G20,SMART G20,,Non,12590,SMART G20
SOLEIL MARKET,SOLEIL MARKET,,Non,10383,SOLEIL MARKET
SOUSS NANTERRE,SOUSS NANTERRE,,Non,8587,SOUSS NANTERRE
stef PLESSIS APPRO,41025455100022,ISLA DELICE: Plateforme logistique,Non,800018,stef PLESSIS APPRO
STOCKMEIER FRANCE,30125287000144,,Non,900620,STOCKMEIER FRANCE
SUPER MARCHE ARPAJON,SUPER MARCHE ARPAJON,,Non,9676,SUPER MARCHE ARPAJON
SUPERETTE AMEIRA,SUPERETTE AMEIRA,,Non,7071,SUPERETTE AMEIRA
SUPERETTE DE CHAMPFLEURI,SUPERETTE DE CHAMPFLEURI,,Non,10030,SUPERETTE DE CHAMPFLEURI
SUPERETTE DE L'OISELET- MEVLANA,SUPERETTE DE L'OISELET- MEVLANA,,Non,8550,SUPERETTE DE L'OISELET- MEVLANA
TAD MARKET,TAD MARKET,,Non,11917,TAD MARKET
TARA SARL,TARA SARL,,Non,11309,TARA SARL
TEREOS STARCH & SWEETENERS BELGI,40869429700016,ISLA DELICE: Fournisseur,Non,901174,TEREOS STARCH & SWEETENERS BELGI
TEREOS STARCH & SWEETENERS BELGI,40869429700016,,Non,901174,TEREOS STARCH & SWEETENERS BELGI
TEREOS STARCH& SWEETENERS EUROPE,40313822500012,,Non,901123,TEREOS STARCH& SWEETENERS EUROPE
tmp_ActorTranscode_14704,tmp_tmp_ActorTranscode_14704_DUC_79374,,Non,,tmp_ActorTranscode_14704
VAN HEES SARL,30652217800038,ISLA DELICE: Fournisseur,Non,900594,VAN HEES SARL
VOSGES MARKET ETS ALSACE,VOSGES MARKET ETS ALSACE,,Non,11613,VOSGES MARKET ETS ALSACE
VOSGES MARKET ETS VERDUN,VOSGES MARKET ETS VERDUN,,Non,11612,VOSGES MARKET ETS VERDUN
