Propriétaire,Nom du produit,Code interne,Unité,Code GS1,Standard GS1 utilisé
Juste et vendéen,Boite de 6 œufs plein air JUSTE & VENDEEN,Boite de 6 œufs plein air JUSTE & VENDEEN,Unité,,
Juste et vendéen,Farine Juste,Farine Juste,,,
Juste et vendéen,Fromage Juste,Fromage Juste,,,
Juste et vendéen,Lait Demi écrémé 1L JUSTE & VENDÉEN,Lait Demi écrémé 1L JUSTE & VENDÉEN,L,,
Juste et vendéen,Lait Demi écrémé 1L JUSTE de LA,Lait Demi écrémé 1L JUSTE de LA,L,,
Samuel BODET,Miel en pot JUSTE & VENDEEN,Miel en pot JUSTE & VENDEEN,KG,,
Laure LESCURE,Miel en pot JUSTE & VENDEEN,Miel en pot JUSTE & VENDEEN,KG,,
William Chaigne,Miel en pot JUSTE & VENDEEN,Miel en pot JUSTE & VENDEEN,,,
Chaigne William,Miel en pot JUSTE & VENDEEN,Miel en pot JUSTE & VENDEEN,,,
MR COLOMB LAURENT,Palmipèdes gras,PG,U,,
Juste et vendéen,Vin Juste,Vin Juste,,,
