Nom de l'acteur,ID acteur,Cahier des charges : rôles,AmbassadeurTousTous,Code Interne REL,Acteur
20289,tmp_20289 _Moulin de Lozanne_8904,,Non,,20289
20999,tmp_20999_5.4378E+13_7763,,Non,,
20999,tmp_20999_Moulin Le Thor_77859,,Non,,
29030,tmp_29030_5.4378E+13_7763,,Non,,
46641,tmp_46641_Moulin de Lozanne_8904,,Non,,46641
46641,tmp_46641_Moulin de Corbeil_9952,,Non,,46641
66467,tmp_66467_Moulin de Lozanne_8904,,Non,,66467
76362,tmp_76362_Moulin de Lozanne_8904,,Non,,76362
76362,tmp_76362_Moulin Le Thor_77859,,Non,,76362
90015017,tmp_90015017_Moulin de Lozanne_8904,,Non,,90015017
90015017,tmp_90015017_Moulin Le Thor_77859,,Non,,90015017
90023480,tmp_90023480_Moulin de Lozanne_8904,,Non,,90023480
90050757,tmp_90050757_MOULINS SOUFFLET SA_1762,,Non,,90050757
90169577,tmp_90169577_Moulin de Lozanne_8904,,Non,,90169577
90203798,tmp_90203798_Moulin de Lozanne_8904,,Non,,90203798
90219747,tmp_90219747_Moulin de Lozanne_8904,,Non,,90219747
90236596,tmp_90236596_SOUFFLET AGRICULTURE_845,,Non,,90236596
90238441,tmp_90238441_SOUFFLET AGRICULTURE_845,,Non,,90238441
90242706,tmp_90242706_SOUFFLET AGRICULTURE_845,,Non,,90242706
90244127,tmp_90244127_SOUFFLET AGRICULTURE_845,,Non,,90244127
90250857,tmp_90250857_SOUFFLET AGRICULTURE_845,,Non,,90250857
90258249,tmp_90258249_SOUFFLET AGRICULTURE_845,,Non,,90258249
98002029,tmp_98002029_SOUFFLET AGRICULTURE_845,,Non,,98002029
98006117,tmp_98006117_SOUFFLET AGRICULTURE_845,,Non,,98006117
98022739,tmp_98022739_SOUFFLET AGRICULTURE_845,,Non,,98022739
98025873,tmp_98025873_SOUFFLET AGRICULTURE_845,,Non,,98025873
98045392,tmp_98045392_SOUFFLET AGRICULTURE_845,,Non,,98045392
98069743,tmp_98069743_SOUFFLET AGRICULTURE_845,,Non,,98069743
98070515,41212166700023,SOUFFLET BIO: Agriculteur,Non,98070515,98070515
98090651,45181628400017,SOUFFLET BIO: Agriculteur,Non,98090651,98090651
98092502,tmp_98092502_SOUFFLET AGRICULTURE_845,,Non,,98092502
AGRIBIO UNION,42478119300018,SOUFFLET BIO: OS Hors SA,Non,90054474,AGRIBIO UNION
ARMBRUSTER,91602016700166,SOUFFLET BIO: OS Hors SA,Non,28385,ARMBRUSTER
AXEREAL,79931873800041,SOUFFLET EXCELLENCE: OS Hors SA,Non,,AXEREAL
COOP ESTERNAY,77561197300014,SOUFFLET EXCELLENCE: OS Hors SA,Non,,COOP ESTERNAY
ERREUR,tmp_ERREUR_Moulin de Lozanne_8904,,Non,,ERREUR
LA DROMOISE,34228300900062,SOUFFLET BIO: OS Hors SA,Non,90042137,LA DROMOISE
Moulin de Corbeil,54378044900152,SOUFFLET EXCELLENCE: Moulin de Corbeil,Non,,
Moulin de Lozanne,54378044900012,SOUFFLET BIO: Moulin de Lozanne,Non,,
Moulin Le Thor,54378044900194,,Non,,
Moulin Pont Sur Seine,54378044900103,SOUFFLET EXCELLENCE: Moulin Pont de Seine,Non,,
MOULINS SOUFFLET SA,54378044900145,HARMONY VPB: Meunier,Non,M02PO,MOULINS SOUFFLET SA
SEINEYONNE,50218830300015,SOUFFLET EXCELLENCE: OS Hors SA,Non,,SEINEYONNE
SEVEPI,77557381900270,,Oui,test1,SEVEPI
SEVEPI,44220810400012,SOUFFLET EXCELLENCE: OS Hors SA,Non,test1,SEVEPI
SODEPAC,34151807400024,SOUFFLET BIO: OS Hors SA,Non,22720,SODEPAC
SOUFFLET AGRICULTURE,70698018200028,HARMONY VPB: (SOU) OSSOUFFLET BIO: (SOU) OSSOUFFLET EXCELLENCE: OS Hors SA,Non,20999,SOUFFLET AGRICULTURE
TERRIS,30679674900043,SOUFFLET EXCELLENCE: (SOU) OS hors SA,Non,90028348,TERRIS
VAL DE GASCOGNE,38206371700781,SOUFFLET BIO: OS Hors SA,Non,90121323,VAL DE GASCOGNE
VALFRANCE,44227647300042,SOUFFLET EXCELLENCE: OS Hors SA,Non,,
