Propriétaire,Nom du site,Code interne,Type du site,Adresse du site,Code postal,Ville,Département,Région,Pays
EARL LA FERME DE BACCAS,EARL LA FERME DE BACCAS,gaveur,,ROUTE DE BACCAS,24250,CENAC-ET-SAINT-JULIEN,24,NOUVELLE AQUITAINE,France
LAPEYRONIE KEVIN ALEXIS,LAPEYRONIE KEVIN ALEXIS,gaveur,,1411 BIS ROUTE DE MONTAURIOL,47410,SEGALAS,47,NOUVELLE AQUITAINE,France
LECOCQ JONATHAN,LECOCQ JONATHAN,éleveur,,1258 ROUTE DE LA TUQUE,47290,MONBAHUS,47,NOUVELLE AQUITAINE,France
MARCHES DANIELLE,MARCHES DANIELLE,éleveur,,LIEU DIT COMBE DE FERRAND,24480,ALLES SUR DORDOGNE,24,NOUVELLE AQUITAINE,France
MICOYNE LUCILE,MICOYNE LUCILE,gaveur,,447 ROUTE DU LAVOIR,24130,BOSSET,24,NOUVELLE AQUITAINE,France
MULOR,Mulor,,,661 ROUTE DE VOYE,40400,,,,
PEUCH JULIEN,PEUCH JULIEN,gaveur,,LES ROUMEVIES,24590,SAINT-CREPIN-ET-CARLUCET,24,NOUVELLE AQUITAINE,France
TERRES DU SUD ALIMENTS  - USINE DE GAMOT,site 1,site 1,Usine de transformation,33 AVENUE RENE BOUCHON,47110,STE LIVRADE SUR LOT,,,France
COUVOIR DE LA SEIGNEURTIERE,site 1,site 1,Exploitation agricole,BP 8,44116,VIEILLEVIGNE,,,France
SUD OUEST ACCOUVAGE,site 1,site 1,Exploitation agricole,661 ROUTE DE YOYE,40400,CARCARES SAINE CROIX,,,France
ORVIA COUVOIRS SEVRE MAINE,site 1,site 1,Exploitation agricole,"17, RTE DE LA PETITE ROCHE",79140,LE PIN,,,France
L.E.G.T.A. DE PERIGUEUX,site 1,site 1,Exploitation agricole,AVENUE CHURCHILL B.P.22,24660,COULOUNIEIX CHAMIERS,,,France
THIBAUD CANE TON,site 1,site 1,Exploitation agricole,2 RUE DE LA PARIE,85290,SAINT LAURENT SUR SEVRE,,,France
DELMOND FOIES GRAS BOULAZAC,site 1,site 1,Usine de transformation,ST LAURENT SUR MANOIRE - GRAND FRONT,24330,BOULAZAC ISLE MANOIRE,Dordogne,Nouvelle-Aquitaine,France
DELMOND FOIES GRAS BERGERAC,site 1,site 1,Usine de transformation,LE LIBRAIRE,24100,BERGERAC,Dordogne,Nouvelle-Aquitaine,France
CAPEL LA QUERCYNOISE,site 1,site 1,Exploitation agricole,Z.A. DU PERIE ROUTE DE FIGEAC,46500,GRAMAT,,,France
ASSELDOR FERME DE L OIE,site 1,site 1,Exploitation agricole,ASSELDOR DOMAINE DE GLANE,24420,COULAURES,,,France
ESPINET ELEVAGE FABRY,site 1,site 1,Exploitation agricole,AVENUE FIRMIN BOUVIER Z.I. BOULAZAC,24752,PERIGUEUX,,,France
ESPINET,site 1,site 1,Exploitation agricole,AVENUE FIRMIN BOUVIER Z.I. BOULAZAC,24750,BOULAZAC,,,France
EARL DE MAISONNEUVE,site 1,site 1,Exploitation agricole,MR LAFOY PATRICE,24380,ST MAYME DE PEREYROL,,,France
SANDERS PERIGORD,site 1,site 1,Exploitation agricole,AVENUE BENOIT FRACHON ZI DE BOULAZAC,24759,TRELISSAC CEDEX,,,France
EARL DE MAYNOT,site 1,site 1,Exploitation agricole,MRS GRANNEREAU J PIERRE ET MICHEL,47800,LA SAUVETAT DU DROPT,,,France
EARL DENIS CHARLY,site 1,site 1,Exploitation agricole,FAUCHIERAS,24380,CREYSSENSAC ET PISSOT,,,France
EARL DES GRANGES,site 1,site 1,Exploitation agricole,JOEL CARBONNIERE LES GRANGES,24620,TURSAC,,,France
PEYRONIE CHRISTIAN,site 1,site 1,Exploitation agricole,LE BOIS DU PRINCE PRESSIGNAC VICQ,24150,LALINDE,,,France
GAEC DU ROUCAL,site 1,site 1,Exploitation agricole,MR GOUYOU ALAIN,47210,PARRANQUET,,,France
MR GALAND PHILIPPE,site 1,site 1,Exploitation agricole,BACCAS,24250,CENAC ET SAINT JULIEN,,,France
MME MALLET CLAUDINE,site 1,site 1,Exploitation agricole,LA GRANGE DE TOURNY,24380,FOULEIX,,,France
EARL DE PUYDAUPHIN,site 1,site 1,Exploitation agricole,M TESSON ANDRE,47350,LABRETONIE,,,France
MR DUFRESNE MICHEL,site 1,site 1,Exploitation agricole,LES BARBARIES GAVEUR,24340,LEGUILLAC DE CERCLES,,,France
MR AUBERTIN BRUNO,site 1,site 1,Exploitation agricole,LE MAINE,24380,ST MICHEL DE VILLADEIX,,,France
MR ANGELAUD LIONEL,site 1,site 1,Exploitation agricole,BERNADERE,47600,ESPIENS,,,France
EARL LES TUCQUES,site 1,site 1,Exploitation agricole,LES LANDES,46300,ANGLARS NOZAC,,,France
MR VERNET BERNARD,site 1,site 1,Exploitation agricole,CASTEL DECHE,24330,LA DOUZE,,,France
MR DUBOIS PATRICK,site 1,site 1,Exploitation agricole,MAISON ROUGE,24290,SERGEAC,,,France
ETS INZO,site 1,site 1,Exploitation agricole,B.P. N° 19 CHIERRY,02402,CHATEAU THIERRY CEDEX,,,France
MR TAULOU PATRICE,site 1,site 1,Exploitation agricole,PUYCHAMBAUD,24380,CENDRIEUX,,,France
EXCEL FOIE GRAS,site 1,site 1,Exploitation agricole,,40380,GIBRET,,,France
EARL DE FAVAS,site 1,site 1,Exploitation agricole,MR TESSON ROBERT,47410,ST COLOMB DE LAUZUN,,,France
MR BUSSAC STEPHANE,site 1,site 1,Exploitation agricole,LES TUSTELS,24510,STE ALVERE,,,France
MR MARTY JEAN LUC,site 1,site 1,Exploitation agricole,LA SIGONIE,24380,LACROPTE,,,France
SCA VIVADOUR,site 1,site 1,Exploitation agricole,ROUTE DE TARBES,32300,MIRANDE,,,France
LES DELICES D AUZAN,site 1,site 1,Exploitation agricole,ARCHAN,32440,CASTELNAU  D AUZAN,,,France
MR CHEVALIER DANIEL,site 1,site 1,Exploitation agricole,LA MERELIE,24590,SAINT GENIES,,,France
SAS CANADOUR-COQADOUR,site 1,site 1,Exploitation agricole,BP 15 184 CHEMIN DE LABENNE,40360,POMAREZ,,,France
SCEA PALMI PERIGORD GASCOGNE,site 1,site 1,Exploitation agricole,MR DELMOND DIDIER BEAUREPOS,24220,VEZAC,,,France
MR MONTAURIOL THIERRY,site 1,site 1,Exploitation agricole,LE PETIT CLAUD,24380,LACROPTE,,,France
SERDA CO-EXPLOITATION,site 1,site 1,Exploitation agricole,LA VEYRIERE,24750,MARSANEIX,,,France
MR CHAPELOUT YANNICK,site 1,site 1,Exploitation agricole,BAS FOURCAUD,24110,GRIGNOLS,,,France
MME GAUMISSOU ANNICK,site 1,site 1,Exploitation agricole,TUILERIE DE TREFFONS,47210,RIVES,,,France
MR LAUZEILLE JEAN FRANCOIS,site 1,site 1,Exploitation agricole,GRUN,24380,VERGT,,,France
GAEC PATRY,site 1,site 1,Exploitation agricole,VIALLEBESOIN,87230,DOURNAZAC,,,France
MR BRAJOT DANIEL,site 1,site 1,Exploitation agricole,LA BARDE,24310,ST CREPIN DE RICHEMONT,,,France
GAEC ASFAUX DE LA SALESSE,site 1,site 1,Exploitation agricole,SALESSE,46190,COMAIC,,,France
MR MONTEIRO FRANCISCO,site 1,site 1,Exploitation agricole,MARTINAUX,47290,MONBAHUS,,,France
EARL DU MURAILLE,site 1,site 1,Exploitation agricole,LE ROQUET FERME DU MOULINAT,33190,LOUBENS,,,France
AUTREFOIE,site 1,site 1,Exploitation agricole,M. LACAZE SEBASTIEN 6 LIEU DIT LE BRANLE,33490,CAUDROT,,,France
EARL DE TOURET,site 1,site 1,Exploitation agricole,MRS ET MME LAYMOND TOURET,46700,SOTURAC,,,France
EARL SOURBE,site 1,site 1,Exploitation agricole,16 CHEMIN DU BOS,24570,LE LARDIN ST LAZARE,,,France
MR CHARRIERE STEPHANE,site 1,site 1,Exploitation agricole,LA PALUE,24510,ST FELIX DE VILLADEIX,,,France
MR BERNIER ALAIN,site 1,site 1,Exploitation agricole,LA LANDE,24140,ST GEORGES DE MONTCLARD,,,France
BOYER Flore,site 1,site 1,Exploitation agricole,LA CABANE,24140,BEAUREGARD ET BASSAC,,,France
MR MICOYNE ALAIN,site 1,site 1,Exploitation agricole,LA MOUTHETTE,24130,BOSSET,,,France
SARL CANTELAUBE,site 1,site 1,Exploitation agricole,MONTFERRIER,24380,CENDRIEUX,,,France
MR ROUBINEAU G.,site 1,site 1,Exploitation agricole,LA CROIX DE L OR,24260,JOURNIAC,,,France
MR LEGRAND FRANCIS,site 1,site 1,Exploitation agricole,LA GENESTE,24510,ST LAURENT DES BATONS,,,France
MR BAUCHIERO THIERRY,site 1,site 1,Exploitation agricole,LES VERNAUX,24380,SALON,,,France
MR VINCENT BERNARD,site 1,site 1,Exploitation agricole,MAJOURES,47210,ST ETIENNE DE VILLEREAL,,,France
MR FABRY DAVID,site 1,site 1,Exploitation agricole,PEYREFOND,24380,VERGT,,,France
SARL MAISON PELEGRIS,site 1,site 1,Exploitation agricole,LA VICHAVE,24290,LES FARGES,,,France
MR BROLESE LAURENT,site 1,site 1,Exploitation agricole,ROUMAGUEY,47800,LAVERGNE,,,France
MME BERTRAND CHRISTELLE,site 1,site 1,Exploitation agricole,VILLARD,87370,BERSAC SUR RIVALIER,,,France
GAEC SAMARITAINE,site 1,site 1,Exploitation agricole,MR VARACHAUD RAPHAEL LD LES BROUSSES,87440,ST MATHIEU,,,France
MR JEGERLEHNER PIERRE,site 1,site 1,Exploitation agricole,,47170,MEZIN,,,France
MME LORRE ANNE,site 1,site 1,Exploitation agricole,BRUNET,47150,MONFLANQUIN,,,France
EARL DE L HIRONDELLE,site 1,site 1,Exploitation agricole,MR MONTORIOL LA BRUGERE,24380,VEYRINES DE VERGT,,,France
EARL LA VERNELLE,site 1,site 1,Exploitation agricole,MR DE BONFILS,24510,ST FELIX DE VILLADEIX,,,France
EARL DE MERIGOU,site 1,site 1,Exploitation agricole,MR DE VAUJANY THIERRY TERREBLANQUE,47290,CANCON,,,France
MR BARCONNIERE FRANCK,site 1,site 1,Exploitation agricole,CHEYRAT,24290,SAINT AMAND DE COLY,,,France
EARL DU BORDERAGE,site 1,site 1,Exploitation agricole,MR ET MME TAULOU VINCENT LE BORDERAGE,24380,CENDRIEUX,,,France
MME PASQUET AURORE,site 1,site 1,Exploitation agricole,TRICOUGNE,47210,RIVES,,,France
MR LABROUSSE STEPHANE,site 1,site 1,Exploitation agricole,PEREYROLS,24480,LE BUISSON DE CADOUIN,,,France
MR LASSAGNE FRANCK,site 1,site 1,Exploitation agricole,,24000,BOULAZAC,,,France
C.P.L.,site 1,site 1,Exploitation agricole,RUE DES ECOLES,24270,PAYZAC,,,France
AGROPALM,site 1,site 1,Exploitation agricole,AGROPOLE DELTAGRO 1 HALL B  BP 310,47931,AGEN CEDEX 09,,,France
EARL GAV 98,site 1,site 1,Exploitation agricole,MESSIEURS ARDENES F.  T. LES CAZETES,46250,MARMINIAC,,,France
MR LEBLOND MICHEL,site 1,site 1,Exploitation agricole,BELLIOT,47150,GAVAUDUN,,,France
SCEA LES DEUX CHENES,site 1,site 1,Exploitation agricole,MR BUSEYNE LE BOURG,24340,MONSEC,,,France
MR BEUILLE FRANCOIS,site 1,site 1,Exploitation agricole,LE MAS,33350,STE RADEGONDE,,,France
VAL DE SEVRE,site 1,site 1,Exploitation agricole,Z.I. DU VAL DE SEVRE,85700,LA POMMERAIE SUR SEVRE,,,France
MR BIDOU JEAN-PIERRE,site 1,site 1,Exploitation agricole,SEPILLAC HAUT DIODE,47300,VILLENEUVE SUR LOT,,,France
GAEC DENOIX,site 1,site 1,Exploitation agricole,MR DENOIX CHRISTIAN CHATEAUVERT,24140,BALEYMAS,,,France
EARL TEYCHENNE,site 1,site 1,Exploitation agricole,MR TEYCHENNE YANNICK FERME DES COULEAUDS,24380,ST MICHEL DE VILLADEIX,,,France
EARL DE MONTAZEL,site 1,site 1,Exploitation agricole,M.  JAUBERT CEDRIC  ET MICHAEL MONTAZEL,24200,SAINTE NATHALENE,,,France
MR BRITTNER CLAUDE,site 1,site 1,Exploitation agricole,LE MOULIN DE LA SEGUE,24560,CONNE DE LA BARDE,,,France
AVI SERVICES SO,site 1,site 1,Exploitation agricole,2 RUE DES TEMPLIERS,47480,PONT DU CASSE,,,France
EARL BIT LAURENT,site 1,site 1,Exploitation agricole,CIPRES,47400,GONTAUD DE NOGARET,,,France
LALEU DOMINIQUE,site 1,site 1,Exploitation agricole,VALADIER,24290,VALOJOULX,,,France
EARL DE PROT,site 1,site 1,Exploitation agricole,MME PROT SYLVIE TAILLEBOURG,47800,ALLEMANS DU DROPT,,,France
SARL LA GARRIGUE HAUTE,site 1,site 1,Exploitation agricole,BOUCHERIE FLORIAN LA GARRIGUE HAUTE,24370,PRATS DE CARLUX,,,France
MR RIBEIRO GONCALVES CARLOS,site 1,site 1,Exploitation agricole,DESQUIROL GAVEUR,47160,RAZIMET,,,France
COOP SARLAT PERIGORD FOIES GRA,site 1,site 1,Exploitation agricole,RUE PIERRE BROSSOLETTE,24200,SARLAT LA CANEDA,,,France
HEBERT - PROVIF,site 1,site 1,Exploitation agricole,JOLI CHAMP,47300,BIAS,,,France
EARL SERRE  CHRISTOPHE DIDIER,site 1,site 1,Exploitation agricole,LE NEYPOUILLET GAVEUR,24130,BOSSET,,,France
EARL DE ROQUEBERNAT,site 1,site 1,Exploitation agricole,MR LABADIE REGIS AVENUE ROGER LACROIX,32480,LA ROMIEU,,,France
MME BIGNON MONIQUE,site 1,site 1,Exploitation agricole,GRANGE NEUVE,47120,SOUMENSAC,,,France
MR DA FONSECA ALCINDO,site 1,site 1,Exploitation agricole,MAREDE,47430,CALONGES,,,France
EARL LE BOIS DE LA CERVE,site 1,site 1,Exploitation agricole,MR LAPARRE JEAN PHILIPPE LAROCAL,24440,STE SABINE BORN,,,France
EARL PAGA,site 1,site 1,Exploitation agricole,MLLE PAGA VIRGINIE GAVEUR,47800,LA SAUVETAT DU DROPT,,,France
MR ALBUQUERQUE AGOST,site 1,site 1,Exploitation agricole,CHEZ MR FAVIER GAVEUR,24340,LA ROCHEBEAUCOURT,,,France
MR LAMAISON JEAN-PIERRE,site 1,site 1,Exploitation agricole,,40500,MONTSOUE,,,France
MME DELAGE VALERIE,site 1,site 1,Exploitation agricole,LIEU DIT CHANCELANT,24310,ST CREPIN DE RICHEMONT,,,France
MR RENAUD PATRICK,site 1,site 1,Exploitation agricole,LE PEUCH,24290,ST AMAND DE COLY,,,France
EARL DE BERNADOUX,site 1,site 1,Exploitation agricole,MR DELMON,47290,CANCON,,,France
EARL MARCHIVE,site 1,site 1,Exploitation agricole,MR MARCHIVE LUDOVIC LES SALLES,24270,ANGOISSE,,,France
EARL CHATEAU VEYRINES,site 1,site 1,Exploitation agricole,MR LASCOMBES ERIC VEYRINES,24560,BOUNIAGUES,,,France
MR JEGERLHENER NICOLAS,site 1,site 1,Exploitation agricole,MOUCHAN,47170,MEZIN,,,France
EARL FLC,site 1,site 1,Exploitation agricole,MR COURNAC LAURENT LE CASTELAT,46300,GOURDON,,,France
EARL DU FOUGEREAU,site 1,site 1,Exploitation agricole,CHAMP DE ROUMAGNE MR GLANES THIERRY,47800,ROUMAGNE,,,France
MR ALVES DOMINGOS AGRO DEL,site 1,site 1,Exploitation agricole,,47430,CALONGES,,,France
SCEA DE MAZIERES,site 1,site 1,Exploitation agricole,MR MAINGY MAXIME MAZIERES,47410,SEGALAS,,,France
MR ALENDURO CHAPAS HENRIQUE,site 1,site 1,Exploitation agricole,LE PEYREDIEU,47360,SAINT SARDOS,,,France
EARL QUERCY PALMIPEDES,site 1,site 1,Exploitation agricole,MME FOUQUART PATRICIA AUGE,82150,MONTAIGU DE QUERCY,,,France
SCEA LAGRANDIE,site 1,site 1,Exploitation agricole,MR LAGRANDIE PIERRE POUCHOU  BAS,24370,VEYRIGNAC,,,France
MME DELEAU MARTINE,site 1,site 1,Exploitation agricole,LA COMBE,24380,SAINT MAYME DE PEREYROL,,,France
MR GAVERINA DAVID,site 1,site 1,Exploitation agricole,BANIZETTE,47350,ESCASSEFORT,,,France
PROVIF ELEVAGE,site 1,site 1,Exploitation agricole,AVENUE DE L OCEAN,40500,SAINT SEVER,,,France
SARL LA SIGONIE,site 1,site 1,Exploitation agricole,MR GAILLARD DOMINIQUE LA SIGONIE,24380,LACROPTE,,,France
MR MAREILLAUD JEROME,site 1,site 1,Exploitation agricole,LA JAUBERTIE,24380,SALON,,,France
MR CARPE DOMINIQUE,site 1,site 1,Exploitation agricole,COUYRACOU,24150,BOURNIQUEL,,,France
GAEC BLANCHET,site 1,site 1,Exploitation agricole,MR BLANCHET FREDERIC FERME LE ROULLE,87230,CHALUS,,,France
MR FOURNET SEBASTIEN,site 1,site 1,Exploitation agricole,CHALUSSET,24380,CHALAGNAC,,,France
EARL DU FORT,site 1,site 1,Exploitation agricole,MR ET MME BAGARD LE FORT,47120,SOUMENSAC,,,France
MONSIEUR ATTARD PIERRE,site 1,site 1,Exploitation agricole,PEYREGRUE,24380,SAINT MAYME DE PEREYROL,,,France
MME LOUBIAT GRACINDA,site 1,site 1,Exploitation agricole,CHANTEGRILL,24750,MARSANEIX,,,France
MR RIBEIRO AGROPALM,site 1,site 1,Exploitation agricole,PONT DE LUSSAC,47160,VILLEFRANCHE DU QUEYRAN,,,France
EARL DES MASCAREIGNES,site 1,site 1,Exploitation agricole,MR BLARD SEBASTIEN BOUFSELA,47250,STE GEMME MARTAILLAC,,,France
LES BRUYERES,site 1,site 1,Exploitation agricole,LES BRUYERES GAVEUR,24320,LA CHAPELLE GRESIGNAC,,,France
EARL DE L ETANG DE BELLEVUE,site 1,site 1,Exploitation agricole,BELLEVUE,24360,BUSSEROLLES,,,France
SARL DELMOND AGRI,site 1,site 1,Exploitation agricole,MR DIDIER DELMOND BEAUREPOS,24220,VEZAC,,,France
MME CORREIA-GOMEZ SONIA,site 1,site 1,Exploitation agricole,LE PRAPALOU,24510,ST FELIX DE VILLADEIX,,,France
EARL GUILLEMET,site 1,site 1,Exploitation agricole,LA PECOULIE,24380,ST MAYME DE PEREYROL,,,France
GAEC PRIAT,site 1,site 1,Exploitation agricole,GUILLEGORCE,24510,SAINT LAURENT DES BATONS,,,France
MR TOSON ALEXANDRE,site 1,site 1,Exploitation agricole,,24150,CALES,,,France
MRS BOLZON ET ZANDONA,site 1,site 1,Exploitation agricole,BEL AIR,47290,MONBAHUS,,,France
EARL FONTPAPOU,site 1,site 1,Exploitation agricole,MR GRELLETY ET MME POTIER PESQUEILLE,24510,ST LAURENT DES BATONS,,,France
MME LABRIOT CHRISTELLE,site 1,site 1,Exploitation agricole,GRUN,24380,VERGT,,,France
EARL LE PIMPIDOUR,site 1,site 1,Exploitation agricole,M. MARCELLY LE PIMPIDOUR,24470,ST SAUD LACOUSSIERE,,,France
EARL DU SUD,site 1,site 1,Exploitation agricole,MME LAETITIA KASTER LALIBERT,47250,STE GEMME DE MARTAILLAC,,,France
EARL TACHAUT,site 1,site 1,Exploitation agricole,MR FERREIRA RODRIGUES ERIC TACHAUT,47120,SAINT SERNIN,,,France
EARL LA GRENOUILLE,site 1,site 1,Exploitation agricole,MME GRANGER MIREILLE,24380,CREYSSENSAC ET PISSOT,,,France
EARL GARAT BEL AIR,site 1,site 1,Exploitation agricole,MM. GARAT CARINA ET SEBASTIEN BEL AIR,33220,ST QUENTIN DE CAPLONG,,,France
MR RACLIUS WILLIAM,site 1,site 1,Exploitation agricole,MARIETOU,24540,ST CASSIEN,,,France
MR SIMONNET JEAN FRANCOIS,site 1,site 1,Exploitation agricole,LES BETOUX,24400,LES LECHES,,,France
MR MORIZUR JEROME,site 1,site 1,Exploitation agricole,LES ARBALESTES,24500,SAINT AUBIN DE CADELECH,,,France
MONSIEUR VENDE DIMITRI,site 1,site 1,Exploitation agricole,MONSACOUT,24520,LAMONZIE MONTASTRUC,,,France
EARL OLIVEIRA,site 1,site 1,Exploitation agricole,VIGNE VIEILLE,47380,MONCLAR,,,France
MR LARGE JOHAN,site 1,site 1,Exploitation agricole,MONSACOU,24520,LAMONZIE MONTASTRUC,,,France
MR BANY PATRICK,site 1,site 1,Exploitation agricole,LE GARRY,24520,LAMONZIE MONTASTRUC,,,France
MR SAGOT JEAN CLAUDE,site 1,site 1,Exploitation agricole,LES TILS,24380,SALON,,,France
LYCEE AGRICOLE,site 1,site 1,Exploitation agricole,AVENUE CHURCHILL BP 22,24660,COULOUNIEX CHAMIERS,,,France
EARL DES LANDES,site 1,site 1,Exploitation agricole,BEYRIE,47230,XAINTRAILLES,,,France
EARL DE LA JAUMARIE,site 1,site 1,Exploitation agricole,MR PALENCHER OLIVIER DOMAINE DE LA JAUMARIE,24380,VERGT,,,France
MR BESANGER STEPHANE,site 1,site 1,Exploitation agricole,GOUPILLAT,87230,BUSSIERE GALANT,,,France
MME LAUBIE MARIE FRANCE,site 1,site 1,Exploitation agricole,LES BAUDONS,47320,CLAIRAC,,,France
MR VINCENT GERALD,site 1,site 1,Exploitation agricole,LA FOURMIE,47210,ST ETIENNE DE VILLEREAL,,,France
SCEA LES DELICES DU PALAIS,site 1,site 1,Exploitation agricole,MME LACHAIZE MARIE THERESE AUX ARRECOTS,47230,THOUARS SUR GARONNE,,,France
EARL GONCALVES,site 1,site 1,Exploitation agricole,LES GRANGES,24520,LIORAC SUR LOUYRE,,,France
EARL LES COMBEAUX,site 1,site 1,Exploitation agricole,MR DESAILLY JAMES GAVEUR,24320,BERTRIC BUREE,,,France
SCEA PALMIPEDES DE TERME,site 1,site 1,Exploitation agricole,MR COUTOU CHRISTIAN LE TERTRE,24150,PRESSIGNAC VICQ,,,France
EARL DE LAMOTHE,site 1,site 1,Exploitation agricole,MR ROLAND ALAIN LAMOTHE,47210,TOURLIAC,,,France
EARL MASLE,site 1,site 1,Exploitation agricole,LABARDE,47410,SEGALAS,,,France
EARL SARLAT 1968,site 1,site 1,Exploitation agricole,MR MANISIER CHI HUANG LA GENETTERIE,24800,ST PAUL LA ROCHE,,,France
MME LATERRIERE AURELIE,site 1,site 1,Exploitation agricole,LA COMBE,24380,ST MAYME DE PEREYROL,,,France
MME BIGAUD NICOLE,site 1,site 1,Exploitation agricole,Monrillotte,33190,ST MICHEL DE LAPUJADE,,,France
MR MALLET LOIC,site 1,site 1,Exploitation agricole,LA GRANGE DE TOURNY,24380,FOULEIX,,,France
SARL BRARD,site 1,site 1,Exploitation agricole,CHANTE ALOUETTE MR BRARD CYRIL,24410,ST ANTOINE DE CUMOND,,,France
SCEA DE LA BRANDONNIERE,site 1,site 1,Exploitation agricole,CHANTE ALOUETTE,24410,ST ANTOINE DE CUMOND,,,France
ADHAL DRISS,site 1,site 1,Exploitation agricole,4 RUE MAURICE LUXEMBOURG,47160,BUZET SUR BAISE,,,France
MR GOUBERT LIONEL,site 1,site 1,Exploitation agricole,La Combe,24380,ST MAYME DE PEREYROL,,,France
MR PEREIRA DE ALMEIDA RUI,site 1,site 1,Exploitation agricole,LA MOULETTE,47250,COCUMONT,,,France
SARL LA GRAND POT,site 1,site 1,Exploitation agricole,LA FERME GAUVRY GAUVRY,33580,RIMONS,,,France
EARL GAVERINA,site 1,site 1,Exploitation agricole,BANIZETTE,47350,ESCASSEFORT,,,France
ROUGIER CEDRIC,site 1,site 1,Exploitation agricole,LA CROIX DE SAINT QUENTIN,24200,MARCILLAC ST QUENTIN,,,France
EARL LAPEYZIE,site 1,site 1,Exploitation agricole,MME MARCILLAUD CORINNE LA GENETTERIE,24800,SAINT PAUL LA ROCHE,,,France
EARL LES GREZALS,site 1,site 1,Exploitation agricole,MR MONTHEIL DOMINIQUE LES GREZALS,24480,MOLIERES,,,France
MELLE ALMEIDA EVA,site 1,site 1,Exploitation agricole,LA JOUMARIE,24380,VERGT,,,France
CEPPAG CORREZE-PERIGORD,site 1,site 1,Exploitation agricole,CARREFOUR ECO DU TERRASSONNAIS RUE EUGENE LEROY,24120,TERRASSON LAVILLEDIEU,,,France
EARL CARVALHO,site 1,site 1,Exploitation agricole,MME GUIMARAES SONIA A L OUSTALET,32250,LABARRERE,,,France
EARL MIOSSEC,site 1,site 1,Exploitation agricole,PAROUDET,47290,MONBAHUS,,,France
SCEA MOUZOUN ABDELJALIL,site 1,site 1,Exploitation agricole,MENEAU,47120,LEVIGNAC DE GUYENNE,,,France
EARL DE ST ROMAIN,site 1,site 1,Exploitation agricole,MANTESE SAMUEL LA CADETTE DE ST ROMAIN,47800,ROUMAGNE,,,France
EURALIS,site 1,site 1,Exploitation agricole,BOULEVARD DE L EUROPE BP 40494,64238,LESCAR CEDEX,,,France
EARL PETIT JEAN DECELIS CEDRIC,site 1,site 1,Exploitation agricole,170 RUE CHOISIT,33910,SAINT CIERS D ABZAC,,,France
SCEA LES TRUFFES,site 1,site 1,Exploitation agricole,MONTHEIL MICHEL,24480,MOLIERES,,,France
MR BOURY SEBASTIEN,site 1,site 1,Exploitation agricole,GRAND ROUDIE,47410,SEGALAS,,,France
EARL OPTIPAG,site 1,site 1,Exploitation agricole,LE NADALLLE,24140,ST GEORGES DE MONTCLAR,,,France
MR ROUQUIE SEBASTIEN,site 1,site 1,Exploitation agricole,LE MARGES,46300,GOURDON,,,France
LUR BERRI COOPERATIVE AGRICOLE,site 1,site 1,Exploitation agricole,GROUPEMENT PALMIPEDES ROUTE DE SAUVETERRE,64120,AICIRITS-CAMOU-SUHAST,,,France
EARL CAZALOUS,site 1,site 1,Exploitation agricole,MR HEMANDA RENE CAZALOUS,47290,BEAUGAS,,,France
MR VALENTE DE OLIVEIRA PEDRO D,site 1,site 1,Exploitation agricole,VIALOTTE,24800,SAINT PAUL LA ROCHE,,,France
GAEC LE CLAUD DES VACHES,site 1,site 1,Exploitation agricole,MR FLAMENT EDDY LE BOIS FERME,24270,LANOUAILLE,,,France
EARL BORIE VINCENT,site 1,site 1,Exploitation agricole,LA MEYNARDIE,19700,SEIHLAC,,,France
MR HEBRARD JEROME,site 1,site 1,Exploitation agricole,Laplane,47330,MONTAURIOL,,,France
EURL MARQUES TRANS,site 1,site 1,Exploitation agricole,PIERRE LONGUE GAVEUR,24240,RAZAC DE SAUSSIGNAC,,,France
MME BESSE MARIE THERESE,site 1,site 1,Exploitation agricole,LE JARRY,24130,BOSSET,,,France
MR BENNET LOIC,site 1,site 1,Exploitation agricole,MOUREZE,46190,TEYSSIEU,,,France
EARL BERTHE,site 1,site 1,Exploitation agricole,ETIENNE,47290,CASTELNAUD DE GRATECAMBE,,,France
MR ALMEIDA ADRIANO,site 1,site 1,Exploitation agricole,LE CREYSSAC,24340,ST FELIX DE BOURDEILLES,,,France
MR LABORIE THIERRY,site 1,site 1,Exploitation agricole,32 ROUTE DU BOURSOL,33350,MOULIETS ET VILLEMARTIN,,,France
MR DE FREITAS JEROME,site 1,site 1,Exploitation agricole,SPINTIRAGUET,24550,CAMPAGNAC LES QUERCY,,,France
MR LAURENT JEAN-PHILIPPE,site 1,site 1,Exploitation agricole,LEYMAIL,24550,BESSE,,,France
MR MENDES DA COSTA DOMINGOS,site 1,site 1,Exploitation agricole,Pech quizel,46250,MONCLERA,,,France
EARL LA MILIADE,site 1,site 1,Exploitation agricole,LA MILIADE MR ET MME LASSERROTTE,24260,MAUZENS ET MIREMONT,,,France
MME TARDY GENEVIEVE,site 1,site 1,Exploitation agricole,GERVINIE,47410,SEGALAS,,,France
EARL CAGEMA,site 1,site 1,Exploitation agricole,Gervinie,47410,SEGALAS,,,France
EARL SOULAGE,site 1,site 1,Exploitation agricole,BARJOU,24440,SAINTE-CROIX,,,France
MME DUPIN NADEGE,site 1,site 1,Exploitation agricole,LA BORDE,47800,LA SAUVETAT DU DROPT,,,France
MR GOMES COSTA MARCO JOSE,site 1,site 1,Exploitation agricole,LA GOURDOU BAS,47150,GAVAUDUN,,,France
GAEC BOURGEAS,site 1,site 1,Exploitation agricole,BOSLOUBET,24800,CORGNAC SUR L ISLE,,,France
EARL AURICOSTE,site 1,site 1,Exploitation agricole,MME AURICOSTE MARIE PAULE LAROQUE,24550,CAMPAGNAC LES QUERCY,,,France
MR DUFRESNES CHRISTOPHE,site 1,site 1,Exploitation agricole,MAISON NEUVE,24340,LEGUILLAC DE CERCLES,,,France
MR COUSINOU ERIC,site 1,site 1,Exploitation agricole,LES RENAUDIES,24800,NANTHEUIL,,,France
MR ZIGLER YOAN,site 1,site 1,Exploitation agricole,GOURDON,47150,GAVAUDUN,,,France
MR CREUZOT JEREMY,site 1,site 1,Exploitation agricole,CAILLAOU,47210,MONTAUT,,,France
COELHO HENRIQUES ANTUNES ISABEL,site 1,site 1,Exploitation agricole,GRAND ROUDIE,47410,SEGALAS,,,France
EARL LES VOLAILLES D ARMILLAC,site 1,site 1,Exploitation agricole,M. PROT LUDOVIC BELLEVUE,47800,ALLEMANS DU DROPT,,,France
GAEC DUCLAUD CHAMPS DE BORT,site 1,site 1,Exploitation agricole,LIEU DIT LES CHAMPS DE BORT,24210,SAINT RABIER,,,France
MR MATHIAS PIERRICK,site 1,site 1,Exploitation agricole,GRANGE NEUVE,24380,GRUN BORDAS,,,France
MME AUDEBERT ELISABETH,site 1,site 1,Exploitation agricole,LA GENETTERIE,24800,ST PAUL LA ROCHE,,,France
MME SAUVANET CHRISTELLE,site 1,site 1,Exploitation agricole,LA FERME DU MOULIN HAUT GUILLEBONDE,24120,TERRASSON LAVILLEDIEU,,,France
MR GRELETTY QUENTIN,site 1,site 1,Exploitation agricole,PESQUEILLE,24510,ST LAURENT DES BATONS,,,France
MR DOS SANTOS DORES,site 1,site 1,Exploitation agricole,BOIS DES LANDES,47210,SAINT EUTROPE DE BORN,,,France
MR MIOSSEC GUILLAUME,site 1,site 1,Exploitation agricole,LE PECH DE CAUBEL,47380,PINEL HAUTERIVE,,,France
GAEC DES TUILIERES,site 1,site 1,Exploitation agricole,MRS BARRET SYLVAIN ET JEAN LUC BEYRAND,87230,FLAVIGNAC,,,France
LECHARPENTIER EMMANUEL,site 1,site 1,Exploitation agricole,PUY BOS,87230,CHALUS,,,France
MR LECLERC JULIEN,site 1,site 1,Exploitation agricole,REZONZAC,24270,LANOUAILLE,,,France
EARL SAHSAHI,site 1,site 1,Exploitation agricole,LE BALEYTOUX,24380,LACROPTE,,,France
MME RODRIGUES DOS SANTOS ARIANE,site 1,site 1,Exploitation agricole,LD LA COMBE,24380,ST MAYME DE PEREYROL,,,France
GAEC VOISIN,site 1,site 1,Exploitation agricole,M. VOISIN XAVIER LA FORESTERIE,87500,LADIGNAC LE LONG,,,France
GAEC FRANCK ET CELINE,site 1,site 1,Exploitation agricole,M. ET MME DUC FRANCK ET CELINE PUY DE DOME,24160,SAINT MEDARD D EXCIDEUIL,,,France
LELO RIBEIRO PATRICIA,site 1,site 1,Exploitation agricole,LA BORDERIE,47800,LA SAUVETAT DU DROPT,,,France
EARL DE PEYRELEVADE,site 1,site 1,Exploitation agricole,LES CAMPS GRANDS,46300,SAINT PROJET,,,France
EARL LES MESANGES,site 1,site 1,Exploitation agricole,1 BIS ROUTE DES GOURCILS,24380,VERGT,,,France
LEGRAND GUILLAUME,site 1,site 1,Exploitation agricole,LA GENESTE,24510,SAINT-LAURENT-DES-BATONS,,,France
DOMENZI MICKAEL,site 1,site 1,Exploitation agricole,PIERRELONGUE,24240,RAZAC DE SAUSSIGNAC,,,France
SAS TERRA D AUCA,site 1,site 1,Exploitation agricole,Loumaudie,24380,SALON,,,France
LECOMPTE CLEMENT,site 1,site 1,Exploitation agricole,BRACHET GWENDOLINE LA GENETTERIE,24800,SAINT PAUL LA ROCHE,,,France
DELOUCHE ROMAIN,site 1,site 1,Exploitation agricole,MAZIERES,47410,SEGALAS,,,France
MR TAILLEMAUD BENJAMIN,site 1,site 1,Exploitation agricole,LE TREILLAC,24530,QUINSAC,,,France
MR BRASILEIRO BERNARDO JOSE,site 1,site 1,Exploitation agricole,LES BRUYERES,24320,LA CHAPELLE GRESIGNAC,,,France
MR GUEDES FONSECA RAFAEL,site 1,site 1,Exploitation agricole,LIEU DIT TACHAUT,47120,SAINT-SERNIN,,,France
GAEC DU MARGES,site 1,site 1,Exploitation agricole,Le Marges,46300,GOURDON,,,France
DA COSTA DA SILVA SOFIA,site 1,site 1,Exploitation agricole,LIEUDIT  TOURNILLAT,47120,LEVIGNAC DE GUYENNE,,,France
EARL PALMIVITI,site 1,site 1,Exploitation agricole,MR ET MME DUPIN LIEU DIT LABORDE,47800,LA SAUVETAT DU DROPT,,,France
EARL LES CANARDS CREYSSACOIS,site 1,site 1,Exploitation agricole,LIEU DIT LE CREYSSAC,24340,ST FELIX DE BOURDEILLES,,,France
EARL MORIZUR,site 1,site 1,Exploitation agricole,MR JEROME MORIZUR LIEU DIT LES ARBALESTES EST,24500,ST AUBIN DE CADELECH,,,France
EARL DE VIALOTTE,site 1,site 1,Exploitation agricole,VIALOTTE,24800,SAINT PAUL LA ROCHE,,,France
MR BERNIER CAMILLE,site 1,site 1,Exploitation agricole,LIEU DIT LE CAZAL,24380,ST MICHEL DE VILLADEIX,,,France
EARL LABRIOT CHRISTELLE,site 1,site 1,Exploitation agricole,100 ROUTE DES PELERINS,24380,GRUN BORDAS,,,France
M RODRIGUES DOS SANTOS JOAQUIM,site 1,site 1,Exploitation agricole,CHEMIN DE LA COMBE,24380,ST MAIME DE PEREYROL,,,France
M. SANTOS ABRUNHOSA NUNO,site 1,site 1,Exploitation agricole,LIEU DIT PONT DE LUSSAC,47160,VILLEFRANCHE DU QUEYRAN,,,France
LAFITTE,site 1,site 1,Exploitation agricole,BP 60023 MONTAUT,40501,ST SEVER CEDEX,,,France
MONSIEUR DANIEL MARCHES,site 1,site 1,Exploitation agricole,Ld combe de ferrand,24480,ALLES SUR DORDOGNE,,,France
EARL DENIS,site 1,site 1,Exploitation agricole,Faucherias,24380,CREYSSENSAC ET PISSOT,,,France
DFP NUTRALIANCE,site 1,site 1,Usine de transformation,BP 35 SAINT YBARD,19140,UZERCHE,,,FRANCE
SUD OUEST ALIMENT SITE SAINT SYLVESTRE,site 1,site 1,Usine de transformation,ZI LAS COMBETTES,47140,SAINT-SYLVESTRE-SUR-LOT,,,FRANCE
SUD OUEST ALIMENT SITE QUERIAL GOURDON,site 1,site 1,Usine de transformation,LE COLOMBIER,46300,GOURDON,,,France
M. MAUFRANGEAS Fabrice,site 1,site 1,Exploitation agricole,LIEU DIT FONTROUBADE,24380,LACROPTE,,,France
BENARD Laurent,site 1,site 1,Exploitation agricole,PECH DE COMPASSIE,46300,MILHAC,,,France
Acteur manquant,site 1,site 1,,,,,,,
PINTO DA FONSECA NUNO,site 1,site 1,Exploitation agricole,LIEU DIT LA BORDERIE,47800,LA SAUVETAT DU DROPT,,,France
Acteur manquant,site 1,site 1,,,,,,,
Acteur manquant,site 1,site 1,,,,,,,
81410488100010,site 1,site 1,,,,,,,
"3,47452E+13",site 1,site 1,,,,,,,
MONTEIRO ALVES MARCO,site 1,site 1,Exploitation agricole,1036 ROUTE DE VILLETON,47430,CALONGES,,,France
MME MOULIS LAETITIA,site 1,site 1,Exploitation agricole,ROUTE DES ROQUES,33350,MOULIETS ET VILLEMARTIN,,,France
SAS G3P,site 1,site 1,,,,,,,
MULOR,site 1,site 1,,,,,,,
37804659300018,site 1,site 1,,,,,,,
PEUCH JULIEN,site 1,site 1,,,,,,,
LECOCQ JONATHAN,site 1,site 1,,,,,,,
LAPEYRONIE KEVIN ALEXIS,site 1,site 1,,,,,,,
MICOYNE LUCILE,site 1,site 1,,,,,,,
MARCHES DANIELLE,site 1,site 1,,,,,,,
EARL LA FERME DE BACCAS,site 1,site 1,,,,,,,
EARL DE MAISONNEUVE,site 2,site 2,Exploitation agricole,MR LAFOY PATRICE GAVEUR,24380,ST MAYNE DE PEREYROL,,,France
MR TAULOU PATRICE,site 2,site 2,Exploitation agricole,PUYCHAMBAUD,24380,CENDRIEUX,,,France
MR CHEVALIER DANIEL,site 2,site 2,Exploitation agricole,LA MERELIE,24590,SAINT GENIES,,,France
SCEA PALMI PERIGORD GASCOGNE,site 2,site 2,Exploitation agricole,MR DELMOND DIDIER BEAUREPOS,24220,SAINT VINCENT DE COSSE,,,France
MR MONTAURIOL THIERRY,site 2,site 2,Exploitation agricole,LE PETIT CLAUD GAVEUR,24380,LACROPTE,,,France
GAEC PATRY,site 2,site 2,Exploitation agricole,Les Petits trois cerisiers,24450,MIALLET,,,France
MR BERNIER ALAIN,site 2,site 2,Exploitation agricole,LA LANDE,24140,ST GEORGES DE MONTCLARD,,,France
EARL DU BORDERAGE,site 2,site 2,Exploitation agricole,MR ET MME TAULOU VINCENT LE BORDERAGE,24380,CENDRIEUX,,,France
EARL TEYCHENNE,site 2,site 2,Exploitation agricole,MR TEYCHENNE YANNICK FERME DES COULEAUDS,24380,ST MICHEL DE VILLADEIX,,,France
SCEA LAGRANDIE,site 2,site 2,Exploitation agricole,MR LAGRANDIE PIERRE POUCHOU  BAS,24200,CARSAC,,,France
GAEC BLANCHET,site 2,site 2,Exploitation agricole,MR BLANCHET FREDERIC FERME LE ROULLE,87230,CHALUS,,,France
MME LOUBIAT GRACINDA,site 2,site 2,Exploitation agricole,CHANTEGRILL,24750,MARSANEIX,,,France
EARL DE L ETANG DE BELLEVUE,site 2,site 2,Exploitation agricole,La Coudenie,24360,BUSSEROLLES,,,France
