LIVELLO;COD. FORNITORE;DESC. FORNITORE;LOCALITA';PROVINCIA;NAZIONE;DDT CONSEGNA;DATA ENTRATA MERCE;Codice EAN;COD. PRODOTTO;DESC. PRODOTTO;LOTTO IN ENTRATA;LOTTO IN USCITA;QTA';UM;OLIO - Lotto;50000122;50000123;50000124;50000125;50000126;50000127;50000128;50000129;50000130;50000131;50000133;50000134;50000135;50000136;ANACARRE;CAPOREPA;CENTEFRO;CENTRERE;CERTIFIC;CONFADES;CONFEFRO;CONFPESO;CONFRETI;CONFTAPP;CSLEESIG;CTAPPATU;FLACINCH;FUNZBOTT;FUNZETIC;FUNZSOFF;IDONIGEN;LAVANAST;LOTTO;PULIFBOT;RISPINDI;RUBINETT;SCADENZA;SCHEMPAL;SMALCART;SMALPLAS
1;110003300;LA CUPA SOC.COOP.AGR.;SCORRANO;LE;IT;1;20230103;;7071;OLIVE BIO NERE DENOCCIOLATE LECCINO;63236;F311;3.360;KG;;;;;;;;;;;;;;;;;;;;;;;;;;;;;;;;;;;;;;;;;
2;;;;;;;20230222;;8071;OLIVE BIO NERE DENOCCIOLATE LECCINO;63760;63236;840;KG;;4.4;;11;;;;;;3.7;0;7500152801;0;4.5;CONF;;;;;;;;;;;;;;;;;;;;;;;;;;
3;;;;;;;20230222;8,00551E+12;497.94.08.0;Olive Bio Nere Denocc. Leccino gr.150x8;L1058731;63760;631,2;KG;63015;;;;;;;;;;;;;;;;;;;;;;;;;;;;;;;;;COER;;;;COER;;;
1;110003300;LA CUPA SOC.COOP.AGR.;SCORRANO;LE;IT;1;20230103;;7071;OLIVE BIO NERE DENOCCIOLATE LECCINO;63236;F311;3.360;KG;;;;;;;;;;;;;;;;;;;;;;;;;;;;;;;;;;;;;;;;;
2;;;;;;;20230224;;8071;OLIVE BIO NERE DENOCCIOLATE LECCINO;63781;63236;840;KG;;4.4;;10;;;;;;3.8;0;7500152801;0;5;CONF;;;;;;;;;;;;;;;;;;;;;;;;;;
3;;;;;;;20230224;8,00551E+12;497.94.08.0;Olive Bio Nere Denocc. Leccino gr.150x8;L1058924;63781;19,2;KG;63015;;;;;;;;;;;;;;;;;;;;;;;;;;;;;;;;;COER;;;;COER;;;
1;110003300;LA CUPA SOC.COOP.AGR.;SCORRANO;LE;IT;1;20230103;;7071;OLIVE BIO NERE DENOCCIOLATE LECCINO;63236;F311;3.360;KG;;;;;;;;;;;;;;;;;;;;;;;;;;;;;;;;;;;;;;;;;
2;;;;;;;20230222;;8071;OLIVE BIO NERE DENOCCIOLATE LECCINO;63760;63236;840;KG;;4.4;;11;;;;;;3.7;0;7500152801;0;4.5;CONF;;;;;;;;;;;;;;;;;;;;;;;;;;
3;;;;;;;20230222;8,00551E+12;497.94.08.195;Olive Bio Nere Denocc. Leccino gr.150x8;523;63760;193,2;KG;63015;;;;;;;;;;;;;;;;;;;;;;;;;;;;;;;;;COER;;;;COER;;;
1;110003300;LA CUPA SOC.COOP.AGR.;SCORRANO;LE;IT;1;20230103;;7071;OLIVE BIO NERE DENOCCIOLATE LECCINO;63236;F311;3.360;KG;;;;;;;;;;;;;;;;;;;;;;;;;;;;;;;;;;;;;;;;;
2;;;;;;;20230224;;8071;OLIVE BIO NERE DENOCCIOLATE LECCINO;63781;63236;840;KG;;4.4;;10;;;;;;3.8;0;7500152801;0;5;CONF;;;;;;;;;;;;;;;;;;;;;;;;;;
3;;;;;;;20230224;8,00551E+12;497.94.08.311;Olive Bio Nere Denocc. Leccino gr.150x8;L1058840;63781;798;KG;63015;;;;;;;;;;;;;;;;;;;;;;;;;;;;;;;;;COER;;;;COER;;;
1;110002450;D' ARIES SRL;LUCERA;FG;IT;21;20230111;;7070;OLIVE BIO VERDI INTERE SANT 'AGOSTINO;63353;VITO21;1.560;KG;;;;;;;;;;;;;;;;;;;;;;;;;;;;;;;;;;;;;;;;;
2;;;;;;;20230221;;8070;OLIVE BIO VERDI INTERE SANT 'AGOSTINO;63757;63353;260;KG;;4.4;;6.5;;;;;;3.7;0;7500152801;0;3.6;CONF;;;;;;;;;;;;;;;;;;;;;;;;;;
3;;;;;;;20230221;8,00551E+12;495.94.08.0;Olive Bio Verdi Intere S.Agost.gr.150x8;L1058680;63757;56,4;KG;63015;;;;;;;;;;;;;;;;;;;;;;;;;;;;;;;;;COER;;;;COER;;;
1;110002450;D' ARIES SRL;LUCERA;FG;IT;21;20230111;;7070;OLIVE BIO VERDI INTERE SANT 'AGOSTINO;63353;VITO21;1.560;KG;;;;;;;;;;;;;;;;;;;;;;;;;;;;;;;;;;;;;;;;;
2;;;;;;;20230221;;8070;OLIVE BIO VERDI INTERE SANT 'AGOSTINO;63757;63353;260;KG;;4.4;;6.5;;;;;;3.7;0;7500152801;0;3.6;CONF;;;;;;;;;;;;;;;;;;;;;;;;;;
3;;;;;;;20230221;8,00551E+12;495.94.08.191;Olive Bio Verdi Intere S.Agost.gr.150x8;L1058681;63757;192;KG;63015;;;;;;;;;;;;;;;;;;;;;;;;;;;;;;;;;COER;;;;COER;;;
1;110002450;D' ARIES SRL;LUCERA;FG;IT;21;20230111;;7070;OLIVE BIO VERDI INTERE SANT 'AGOSTINO;63353;VITO21;1.560;KG;;;;;;;;;;;;;;;;;;;;;;;;;;;;;;;;;;;;;;;;;
2;;;;;;;20230220;;8070;OLIVE BIO VERDI INTERE SANT 'AGOSTINO;63731;63353;130;KG;;4.3;;6.5;;;;;;3.5;0;7500152801;0;4;CONF;;;;;;;;;;;;;;;;;;;;;;;;;;
3;;;;;;;20230220;8,00551E+12;495.94.08.611;Olive Bio Verdi Intere S.Agost.gr.150x8;L1058596;63731;127,2;KG;63015;;;;;;;;;;;;;;;;;;;;;;;;;;;;;;;;;COER;;;;COER;;;
1;110002450;D' ARIES SRL;LUCERA;FG;IT;263;20220623;;9072;OLIVE BIO NERE INTERE PERANZANA;AZ21SCIA;AZ21SCIA;5.200;KG;;;;;;;;;;;;;;;;;;;;;;;;;;;;;;;;;;;;;;;;;
2;;;;;;;20230220;;8072;OLIVE BIO NERE INTERE PERANZANA;63732;AZ21SCIA;260;KG;;4.3;;7.2;;;;;;3.5;0;7500152801;0;5;CONF;;;;;;;;;;;;;;;;;;;;;;;;;;
3;;;;;;;20230220;8,00551E+12;496.94.08.0;Olive Bio Nere Intere Peranzana gr.150x8;L1058597;63732;127,2;KG;63015;;;;;;;;;;;;;;;;;;;;;;;;;;;;;;;;;COER;;;;COER;;;
1;110002450;D' ARIES SRL;LUCERA;FG;IT;263;20220623;;9072;OLIVE BIO NERE INTERE PERANZANA;AZ21SCIA;AZ21SCIA;5.200;KG;;;;;;;;;;;;;;;;;;;;;;;;;;;;;;;;;;;;;;;;;
2;;;;;;;20230220;;8072;OLIVE BIO NERE INTERE PERANZANA;63732;AZ21SCIA;260;KG;;4.3;;7.2;;;;;;3.5;0;7500152801;0;5;CONF;;;;;;;;;;;;;;;;;;;;;;;;;;
3;;;;;;;20230220;8,00551E+12;496.94.08.611;Olive Bio Nere Intere Peranzana gr.150x8;L1058598;63732;122,4;KG;63015;;;;;;;;;;;;;;;;;;;;;;;;;;;;;;;;;COER;;;;COER;;;
1;110003300;LA CUPA SOC.COOP.AGR.;SCORRANO;LE;IT;1;20230103;;7071;OLIVE BIO NERE DENOCCIOLATE LECCINO;63236;F311;3.360;KG;;;;;;;;;;;;;;;;;;;;;;;;;;;;;;;;;;;;;;;;;
2;;;;;;;20230220;;8071;OLIVE BIO NERE DENOCCIOLATE LECCINO;63742;63236;360;KG;;4.4;;9.6;;;;;;3.8;2.5;7500152801;40221;5;CONF;;;;;;;;;;;;;;;;;;;;;;;;;;
3;;;;;;;20230220;8,00551E+12;497.94.08.0;Olive Bio Nere Denocc. Leccino gr.150x8;L1058599;63742;222;KG;63015;;;;;;;;;;;;;;;;;;;;;;;;;;;;;;;;;COER;;;;COER;;;
1;110003300;LA CUPA SOC.COOP.AGR.;SCORRANO;LE;IT;1;20230103;;7071;OLIVE BIO NERE DENOCCIOLATE LECCINO;63236;F311;3.360;KG;;;;;;;;;;;;;;;;;;;;;;;;;;;;;;;;;;;;;;;;;
2;;;;;;;20230221;;8071;OLIVE BIO NERE DENOCCIOLATE LECCINO;63754;63236;240;KG;;4.4;;10;;;;;;3.6;0;7500152801;0;5;CONF;;;;;;;;;;;;;;;;;;;;;;;;;;
3;;;;;;;20230221;8,00551E+12;497.94.08.191;Olive Bio Nere Denocc. Leccino gr.150x8;L1058682;63754;231,6;KG;63015;;;;;;;;;;;;;;;;;;;;;;;;;;;;;;;;;COER;;;;COER;;;
1;110003300;LA CUPA SOC.COOP.AGR.;SCORRANO;LE;IT;1;20230103;;7071;OLIVE BIO NERE DENOCCIOLATE LECCINO;63236;F311;3.360;KG;;;;;;;;;;;;;;;;;;;;;;;;;;;;;;;;;;;;;;;;;
2;;;;;;;20230220;;8071;OLIVE BIO NERE DENOCCIOLATE LECCINO;63742;63236;360;KG;;4.4;;9.6;;;;;;3.8;2.5;7500152801;40221;5;CONF;;;;;;;;;;;;;;;;;;;;;;;;;;
3;;;;;;;20230220;8,00551E+12;497.94.08.611;Olive Bio Nere Denocc. Leccino gr.150x8;L1058600;63742;121,2;KG;63015;;;;;;;;;;;;;;;;;;;;;;;;;;;;;;;;;COER;;;;COER;;;
1;110002450;D' ARIES SRL;LUCERA;FG;IT;21;20230111;;7073;OLIVE BIO VERDE DENOC.BELLA DI CERIGNOLA;63354;SAP22IL;960;KG;;;;;;;;;;;;;;;;;;;;;;;;;;;;;;;;;;;;;;;;;
2;;;;;;;20230220;;8073;OLIVE BIO VERDE DENOC.BELLA DI CERIGNOLA;63752;63354;600;KG;;4.15;;6.60;;;;;;3.70;0;7500152801;0;3.5;CONF;;;;;;;;;;;;;;;;;;;;;;;;;;
3;;;;;;;20230220;8,00551E+12;498.94.08.0;Olive Bio Verde Denoc.B.d.Cerig.gr.150x8;L1058602;63752;441,6;KG;63015;;;;;;;;;;;;;;;;;;;;;;;;;;;;;;;;;COER;;;;COER;;;
1;110002450;D' ARIES SRL;LUCERA;FG;IT;21;20230111;;7073;OLIVE BIO VERDE DENOC.BELLA DI CERIGNOLA;63354;SAP22IL;960;KG;;;;;;;;;;;;;;;;;;;;;;;;;;;;;;;;;;;;;;;;;
2;;;;;;;20230221;;8073;OLIVE BIO VERDE DENOC.BELLA DI CERIGNOLA;63756;63354;240;KG;;       4.3;;6.6;;;;;;3.7;0;7500152801;0;3.2;CONF;;;;;;;;;;;;;;;;;;;;;;;;;;
3;;;;;;;20230221;8,00551E+12;498.94.08.191;Olive Bio Verde Denoc.B.d.Cerig.gr.150x8;L1058683;63756;220,8;KG;63015;;;;;;;;;;;;;;;;;;;;;;;;;;;;;;;;;COER;;;;COER;;;
1;110002450;D' ARIES SRL;LUCERA;FG;IT;21;20230111;;7073;OLIVE BIO VERDE DENOC.BELLA DI CERIGNOLA;63354;SAP22IL;960;KG;;;;;;;;;;;;;;;;;;;;;;;;;;;;;;;;;;;;;;;;;
2;;;;;;;20230220;;8073;OLIVE BIO VERDE DENOC.BELLA DI CERIGNOLA;63752;63354;600;KG;;4.15;;6.60;;;;;;3.70;0;7500152801;0;3.5;CONF;;;;;;;;;;;;;;;;;;;;;;;;;;
3;;;;;;;20230220;8,00551E+12;498.94.08.611;Olive Bio Verde Denoc.B.d.Cerig.gr.150x8;L1058603;63752;121,2;KG;63015;;;;;;;;;;;;;;;;;;;;;;;;;;;;;;;;;COER;;;;COER;;;
