﻿SIRETMoulin;CodeSite;CodeExterne;TypeFlux;DateDebutMouture;DateFinMouture;NumeroMouture;NumeroOFMouture;CelluleDestination;CodeProduit;Produit;QuantiteOF;PoidsFarine;CodeProduitEntrantRecette;ProduitEntrantRecette;QuantiteBle;CelluleOrigine;RotationCellule;CodeProduitEntrantMouture;ProduitEntrantMouture;QuantiteBL;TracabiliteReceptions;Key
54378044900152;M02CB;;Mouture;11/03/2023 02:38;14/03/2023 04:06;22CB00250;21189578;01-NONDEFINI;P204168;PRO FAR TRAD PRES LR BFR R21;138.982;138.982;;;188.839;CRB045;;19415722;BLE LABEL ROUGE OREGRAIN 22;30.06;M02CB-90028348_VILLEMAURY_18066;90028348_VILLEMAURY_18066
54378044900152;M02CB;;Mouture;11/03/2023 02:38;14/03/2023 04:06;22CB00250;21189578;01-NONDEFINI;P204168;PRO FAR TRAD PRES LR BFR R21;138.982;138.982;;;188.839;CRB045;;19415722;BLE LABEL ROUGE OREGRAIN 22;29.36;M02CB-90028348_LOGRON_18063;90028348_LOGRON_18063
54378044900152;M02CB;;Mouture;11/03/2023 02:38;14/03/2023 04:06;22CB00250;21189578;01-NONDEFINI;P204168;PRO FAR TRAD PRES LR BFR R21;138.982;138.982;;;188.839;CRB045;;19415722;BLE LABEL ROUGE OREGRAIN 22;29.14;M02CB-90028348_LOGRON_18068;90028348_LOGRON_18068
54378044900152;M02CB;;Mouture;11/03/2023 02:38;14/03/2023 04:06;22CB00250;21189578;01-NONDEFINI;P204168;PRO FAR TRAD PRES LR BFR R21;138.982;138.982;;;188.839;CRB045;;19415722;BLE LABEL ROUGE OREGRAIN 22;29.88;M02CB-90028348_LOGRON_18073;90028348_LOGRON_18073
54378044900152;M02CB;;Mouture;11/03/2023 02:38;14/03/2023 04:06;22CB00250;21189578;01-NONDEFINI;P204168;PRO FAR TRAD PRES LR BFR R21;138.982;138.982;;;188.839;CRB045;;19415722;BLE LABEL ROUGE OREGRAIN 22;30.64;M02CB-90028348_LOGRON_18070;90028348_LOGRON_18070
54378044900152;M02CB;;Mouture;11/03/2023 02:38;14/03/2023 04:06;22CB00250;21189578;01-NONDEFINI;P204168;PRO FAR TRAD PRES LR BFR R21;138.982;138.982;;;188.839;CRB045;;19415722;BLE LABEL ROUGE OREGRAIN 22;30.18;M02CB-90028348_LOGRON_18069;90028348_LOGRON_18069
54378044900152;M02CB;;Mouture;11/03/2023 02:38;14/03/2023 04:06;22CB00250;21189578;01-NONDEFINI;P204168;PRO FAR TRAD PRES LR BFR R21;138.982;138.982;;;188.839;CRB045;;19415722;BLE LABEL ROUGE OREGRAIN 22;30.44;M02CB-90028348_BONNEVAL_18076;90028348_BONNEVAL_18076
54378044900152;M02CB;;Mouture;11/03/2023 02:38;14/03/2023 04:06;22CB00250;21189578;01-NONDEFINI;P204168;PRO FAR TRAD PRES LR BFR R21;138.982;138.982;;;188.839;CRB045;;19415722;BLE LABEL ROUGE OREGRAIN 22;30.16;M02CB-90028348_LOGRON_18108;90028348_LOGRON_18108
54378044900152;M02CB;;Mouture;11/03/2023 02:38;14/03/2023 04:06;22CB00250;21189578;01-NONDEFINI;P204168;PRO FAR TRAD PRES LR BFR R21;138.982;138.982;;;188.839;CRB045;;19415722;BLE LABEL ROUGE OREGRAIN 22;29.8;M02CB-90028348_LOGRON_18109;90028348_LOGRON_18109
54378044900152;M02CB;;Mouture;11/03/2023 02:38;14/03/2023 04:06;22CB00250;21189578;01-NONDEFINI;P204168;PRO FAR TRAD PRES LR BFR R21;138.982;138.982;;;188.839;CRB045;;19415722;BLE LABEL ROUGE OREGRAIN 22;29.88;M02CB-90028348_LOGRON_18111;90028348_LOGRON_18111
54378044900152;M02CB;;Mouture;11/03/2023 02:38;14/03/2023 04:06;22CB00250;21189578;01-NONDEFINI;P204168;PRO FAR TRAD PRES LR BFR R21;138.982;138.982;;;188.839;CRB045;;19415722;BLE LABEL ROUGE OREGRAIN 22;29.86;M02CB-90028348_LOGRON_18116;90028348_LOGRON_18116
54378044900152;M02CB;;Mouture;11/03/2023 02:38;14/03/2023 04:06;22CB00250;21189578;01-NONDEFINI;P204168;PRO FAR TRAD PRES LR BFR R21;138.982;138.982;;;188.839;CRB045;;19415722;BLE LABEL ROUGE OREGRAIN 22;30.3;M02CB-90028348_LOGRON_18117;90028348_LOGRON_18117
54378044900152;M02CB;;Mouture;11/03/2023 02:38;14/03/2023 04:06;22CB00250;21189578;01-NONDEFINI;P204168;PRO FAR TRAD PRES LR BFR R21;138.982;138.982;;;188.839;CRB051;;19666122;BLE LABEL ROUGE REBELDE 22;29.77;M02CB-29111_ESTERNAY_10010505;29111_ESTERNAY_10010505
54378044900152;M02CB;;Mouture;11/03/2023 02:38;14/03/2023 04:06;22CB00250;21189578;01-NONDEFINI;P204168;PRO FAR TRAD PRES LR BFR R21;138.982;138.982;;;188.839;CRB051;;19666122;BLE LABEL ROUGE REBELDE 22;29.32;M02CB-29111_ESTERNAY_10010507;29111_ESTERNAY_10010507
54378044900152;M02CB;;Mouture;11/03/2023 02:38;14/03/2023 04:06;22CB00250;21189578;01-NONDEFINI;P204168;PRO FAR TRAD PRES LR BFR R21;138.982;138.982;;;188.839;CRB051;;19666122;BLE LABEL ROUGE REBELDE 22;30.36;M02CB-29111_ESTERNAY_10010516;29111_ESTERNAY_10010516
54378044900152;M02CB;;Mouture;11/03/2023 02:38;14/03/2023 04:06;22CB00250;21189578;01-NONDEFINI;P204168;PRO FAR TRAD PRES LR BFR R21;138.982;138.982;;;188.839;CRB051;;19666122;BLE LABEL ROUGE REBELDE 22;30;M02CB-29111_ESTERNAY_10010530;29111_ESTERNAY_10010530
54378044900152;M02CB;;Mouture;11/03/2023 02:38;14/03/2023 04:06;22CB00250;21189578;01-NONDEFINI;P204168;PRO FAR TRAD PRES LR BFR R21;138.982;138.982;;;188.839;CRB051;;19666122;BLE LABEL ROUGE REBELDE 22;30.06;M02CB-29111_ESTERNAY_10010534;29111_ESTERNAY_10010534
54378044900152;M02CB;;Mouture;11/03/2023 02:38;14/03/2023 04:06;22CB00250;21189578;01-NONDEFINI;P204168;PRO FAR TRAD PRES LR BFR R21;138.982;138.982;;;188.839;CRB051;;19666122;BLE LABEL ROUGE REBELDE 22;30.1;M02CB-29111_ESTERNAY_10010544;29111_ESTERNAY_10010544
54378044900152;M02CB;;Mouture;11/03/2023 02:38;14/03/2023 04:06;22CB00250;21189578;01-NONDEFINI;P204168;PRO FAR TRAD PRES LR BFR R21;138.982;138.982;;;188.839;CRB051;;19666122;BLE LABEL ROUGE REBELDE 22;30.8;M02CB-29111_ESTERNAY_10010547;29111_ESTERNAY_10010547
54378044900152;M02CB;;Mouture;11/03/2023 02:38;14/03/2023 04:06;22CB00250;21189578;01-NONDEFINI;P204168;PRO FAR TRAD PRES LR BFR R21;138.982;138.982;;;188.839;CRB051;;19666122;BLE LABEL ROUGE REBELDE 22;30.12;M02CB-29111_ESTERNAY_10010549;29111_ESTERNAY_10010549
54378044900152;M02CB;;Mouture;11/03/2023 02:38;14/03/2023 04:06;22CB00250;21189578;01-NONDEFINI;P204168;PRO FAR TRAD PRES LR BFR R21;138.982;138.982;;;188.839;CRB045;;19415722;BLE LABEL ROUGE OREGRAIN 22;29.54;M02CB-90028348_LOGRON_18174;90028348_LOGRON_18174
54378044900152;M02CB;;Mouture;11/03/2023 02:38;14/03/2023 04:06;22CB00250;21189578;01-NONDEFINI;P204168;PRO FAR TRAD PRES LR BFR R21;138.982;138.982;;;188.839;CRB045;;19415722;BLE LABEL ROUGE OREGRAIN 22;26.48;M02CB-90028348_LOGRON_18175;90028348_LOGRON_18175
54378044900152;M02CB;;Mouture;11/03/2023 02:38;14/03/2023 04:06;22CB00250;21189578;01-NONDEFINI;P204168;PRO FAR TRAD PRES LR BFR R21;138.982;138.982;;;188.839;CRB047;;19415722;BLE LABEL ROUGE OREGRAIN 22;30.5;M02CB-90138231_AUTHON_102701172;90138231_AUTHON_102701172
54378044900152;M02CB;;Mouture;11/03/2023 02:38;14/03/2023 04:06;22CB00250;21189578;01-NONDEFINI;P204168;PRO FAR TRAD PRES LR BFR R21;138.982;138.982;;;188.839;CRB047;;19415722;BLE LABEL ROUGE OREGRAIN 22;29.52;M02CB-90138231_AUTHON_102701173;90138231_AUTHON_102701173
54378044900152;M02CB;;Mouture;11/03/2023 02:38;14/03/2023 04:06;22CB00250;21189578;01-NONDEFINI;P204168;PRO FAR TRAD PRES LR BFR R21;138.982;138.982;;;188.839;CRB047;;19415722;BLE LABEL ROUGE OREGRAIN 22;29.9;M02CB-90138231_AUTHON_102701174;90138231_AUTHON_102701174
54378044900152;M02CB;;Mouture;11/03/2023 02:38;14/03/2023 04:06;22CB00250;21189578;01-NONDEFINI;P204168;PRO FAR TRAD PRES LR BFR R21;138.982;138.982;;;188.839;CRB047;;19415722;BLE LABEL ROUGE OREGRAIN 22;30.06;M02CB-90138231_AUTHON_102701175;90138231_AUTHON_102701175
54378044900152;M02CB;;Mouture;11/03/2023 02:38;14/03/2023 04:06;22CB00250;21189578;01-NONDEFINI;P204168;PRO FAR TRAD PRES LR BFR R21;138.982;138.982;;;188.839;CRB047;;19415722;BLE LABEL ROUGE OREGRAIN 22;29.56;M02CB-90138231_AUTHON_102701176;90138231_AUTHON_102701176
54378044900152;M02CB;;Mouture;11/03/2023 02:38;14/03/2023 04:06;22CB00250;21189578;01-NONDEFINI;P204168;PRO FAR TRAD PRES LR BFR R21;138.982;138.982;;;188.839;CRB047;;19415722;BLE LABEL ROUGE OREGRAIN 22;29.84;M02CB-90138231_AUTHON_10271177;90138231_AUTHON_10271177
54378044900152;M02CB;;Mouture;11/03/2023 02:38;14/03/2023 04:06;22CB00250;21189578;01-NONDEFINI;P204168;PRO FAR TRAD PRES LR BFR R21;138.982;138.982;;;188.839;CRB047;;19415722;BLE LABEL ROUGE OREGRAIN 22;29.25;M02CB-90138231_AUTHON_102701178;90138231_AUTHON_102701178
54378044900152;M02CB;;Mouture;11/03/2023 02:38;14/03/2023 04:06;22CB00250;21189578;01-NONDEFINI;P204168;PRO FAR TRAD PRES LR BFR R21;138.982;138.982;;;188.839;CRB047;;19415722;BLE LABEL ROUGE OREGRAIN 22;29.54;M02CB-90138231_AUTHON_102701179;90138231_AUTHON_102701179
54378044900152;M02CB;;Mouture;11/03/2023 02:38;14/03/2023 04:06;22CB00250;21189578;01-NONDEFINI;P204168;PRO FAR TRAD PRES LR BFR R21;138.982;138.982;;;188.839;CRB047;;19415722;BLE LABEL ROUGE OREGRAIN 22;29.74;M02CB-90138231_AUTHON_102701180;90138231_AUTHON_102701180
54378044900152;M02CB;;Mouture;11/03/2023 02:38;14/03/2023 04:06;22CB00250;21189578;01-NONDEFINI;P204168;PRO FAR TRAD PRES LR BFR R21;138.982;138.982;;;188.839;CRB047;;19415722;BLE LABEL ROUGE OREGRAIN 22;29.88;M02CB-90138231_AUTHON_102701181;90138231_AUTHON_102701181
54378044900152;M02CB;;Mouture;11/03/2023 02:38;14/03/2023 04:06;22CB00250;21189578;01-NONDEFINI;P204168;PRO FAR TRAD PRES LR BFR R21;138.982;138.982;;;188.839;CRB047;;19415722;BLE LABEL ROUGE OREGRAIN 22;30.08;M02CB-90138231_AUTHON_102701184;90138231_AUTHON_102701184
54378044900152;M02CB;;Mouture;11/03/2023 02:38;14/03/2023 04:06;22CB00250;21189578;01-NONDEFINI;P204168;PRO FAR TRAD PRES LR BFR R21;138.982;138.982;;;188.839;CRB047;;19415722;BLE LABEL ROUGE OREGRAIN 22;29.02;M02CB-90138231_AUTHON_102701183;90138231_AUTHON_102701183
54378044900152;M02CB;;Mouture;11/03/2023 02:38;14/03/2023 04:06;22CB00250;21189578;01-NONDEFINI;P204168;PRO FAR TRAD PRES LR BFR R21;138.982;138.982;;;188.839;CRB047;;19415722;BLE LABEL ROUGE OREGRAIN 22;29.94;M02CB-90138231_AUTHON_102701185;90138231_AUTHON_102701185
54378044900152;M02CB;;Mouture;11/03/2023 02:38;14/03/2023 04:06;22CB00250;21189578;01-NONDEFINI;P204168;PRO FAR TRAD PRES LR BFR R21;138.982;138.982;;;188.839;CRB047;;19415722;BLE LABEL ROUGE OREGRAIN 22;30.26;M02CB-90138231_AUTHON_102701186;90138231_AUTHON_102701186
54378044900152;M02CB;;Mouture;11/03/2023 02:38;14/03/2023 04:06;22CB00250;21189578;01-NONDEFINI;P204168;PRO FAR TRAD PRES LR BFR R21;138.982;138.982;;;188.839;CRB047;;19415722;BLE LABEL ROUGE OREGRAIN 22;29.66;M02CB-90138231_AUTHON_102701187;90138231_AUTHON_102701187
54378044900152;M02CB;;Mouture;17/03/2023 20:37;20/03/2023 06:31;22CB00278;21203270;01-NONDEFINI;P204168;PRO FAR TRAD PRES LR BFR R21;62.344;62.344;;;89.746;CRB045;;19415722;BLE LABEL ROUGE OREGRAIN 22;30.06;M02CB-90028348_VILLEMAURY_18066;90028348_VILLEMAURY_18066
54378044900152;M02CB;;Mouture;17/03/2023 20:37;20/03/2023 06:31;22CB00278;21203270;01-NONDEFINI;P204168;PRO FAR TRAD PRES LR BFR R21;62.344;62.344;;;89.746;CRB045;;19415722;BLE LABEL ROUGE OREGRAIN 22;29.36;M02CB-90028348_LOGRON_18063;90028348_LOGRON_18063
54378044900152;M02CB;;Mouture;17/03/2023 20:37;20/03/2023 06:31;22CB00278;21203270;01-NONDEFINI;P204168;PRO FAR TRAD PRES LR BFR R21;62.344;62.344;;;89.746;CRB045;;19415722;BLE LABEL ROUGE OREGRAIN 22;29.14;M02CB-90028348_LOGRON_18068;90028348_LOGRON_18068
54378044900152;M02CB;;Mouture;17/03/2023 20:37;20/03/2023 06:31;22CB00278;21203270;01-NONDEFINI;P204168;PRO FAR TRAD PRES LR BFR R21;62.344;62.344;;;89.746;CRB045;;19415722;BLE LABEL ROUGE OREGRAIN 22;29.88;M02CB-90028348_LOGRON_18073;90028348_LOGRON_18073
54378044900152;M02CB;;Mouture;17/03/2023 20:37;20/03/2023 06:31;22CB00278;21203270;01-NONDEFINI;P204168;PRO FAR TRAD PRES LR BFR R21;62.344;62.344;;;89.746;CRB045;;19415722;BLE LABEL ROUGE OREGRAIN 22;30.64;M02CB-90028348_LOGRON_18070;90028348_LOGRON_18070
54378044900152;M02CB;;Mouture;17/03/2023 20:37;20/03/2023 06:31;22CB00278;21203270;01-NONDEFINI;P204168;PRO FAR TRAD PRES LR BFR R21;62.344;62.344;;;89.746;CRB045;;19415722;BLE LABEL ROUGE OREGRAIN 22;30.18;M02CB-90028348_LOGRON_18069;90028348_LOGRON_18069
54378044900152;M02CB;;Mouture;17/03/2023 20:37;20/03/2023 06:31;22CB00278;21203270;01-NONDEFINI;P204168;PRO FAR TRAD PRES LR BFR R21;62.344;62.344;;;89.746;CRB045;;19415722;BLE LABEL ROUGE OREGRAIN 22;30.44;M02CB-90028348_BONNEVAL_18076;90028348_BONNEVAL_18076
54378044900152;M02CB;;Mouture;17/03/2023 20:37;20/03/2023 06:31;22CB00278;21203270;01-NONDEFINI;P204168;PRO FAR TRAD PRES LR BFR R21;62.344;62.344;;;89.746;CRB045;;19415722;BLE LABEL ROUGE OREGRAIN 22;30.16;M02CB-90028348_LOGRON_18108;90028348_LOGRON_18108
54378044900152;M02CB;;Mouture;17/03/2023 20:37;20/03/2023 06:31;22CB00278;21203270;01-NONDEFINI;P204168;PRO FAR TRAD PRES LR BFR R21;62.344;62.344;;;89.746;CRB045;;19415722;BLE LABEL ROUGE OREGRAIN 22;29.8;M02CB-90028348_LOGRON_18109;90028348_LOGRON_18109
54378044900152;M02CB;;Mouture;17/03/2023 20:37;20/03/2023 06:31;22CB00278;21203270;01-NONDEFINI;P204168;PRO FAR TRAD PRES LR BFR R21;62.344;62.344;;;89.746;CRB045;;19415722;BLE LABEL ROUGE OREGRAIN 22;29.88;M02CB-90028348_LOGRON_18111;90028348_LOGRON_18111
54378044900152;M02CB;;Mouture;17/03/2023 20:37;20/03/2023 06:31;22CB00278;21203270;01-NONDEFINI;P204168;PRO FAR TRAD PRES LR BFR R21;62.344;62.344;;;89.746;CRB045;;19415722;BLE LABEL ROUGE OREGRAIN 22;29.86;M02CB-90028348_LOGRON_18116;90028348_LOGRON_18116
54378044900152;M02CB;;Mouture;17/03/2023 20:37;20/03/2023 06:31;22CB00278;21203270;01-NONDEFINI;P204168;PRO FAR TRAD PRES LR BFR R21;62.344;62.344;;;89.746;CRB045;;19415722;BLE LABEL ROUGE OREGRAIN 22;30.3;M02CB-90028348_LOGRON_18117;90028348_LOGRON_18117
54378044900152;M02CB;;Mouture;17/03/2023 20:37;20/03/2023 06:31;22CB00278;21203270;01-NONDEFINI;P204168;PRO FAR TRAD PRES LR BFR R21;62.344;62.344;;;89.746;CRB051;;19666122;BLE LABEL ROUGE REBELDE 22;29.77;M02CB-29111_ESTERNAY_10010505;29111_ESTERNAY_10010505
54378044900152;M02CB;;Mouture;17/03/2023 20:37;20/03/2023 06:31;22CB00278;21203270;01-NONDEFINI;P204168;PRO FAR TRAD PRES LR BFR R21;62.344;62.344;;;89.746;CRB051;;19666122;BLE LABEL ROUGE REBELDE 22;29.32;M02CB-29111_ESTERNAY_10010507;29111_ESTERNAY_10010507
54378044900152;M02CB;;Mouture;17/03/2023 20:37;20/03/2023 06:31;22CB00278;21203270;01-NONDEFINI;P204168;PRO FAR TRAD PRES LR BFR R21;62.344;62.344;;;89.746;CRB051;;19666122;BLE LABEL ROUGE REBELDE 22;30.36;M02CB-29111_ESTERNAY_10010516;29111_ESTERNAY_10010516
54378044900152;M02CB;;Mouture;17/03/2023 20:37;20/03/2023 06:31;22CB00278;21203270;01-NONDEFINI;P204168;PRO FAR TRAD PRES LR BFR R21;62.344;62.344;;;89.746;CRB051;;19666122;BLE LABEL ROUGE REBELDE 22;30;M02CB-29111_ESTERNAY_10010530;29111_ESTERNAY_10010530
54378044900152;M02CB;;Mouture;17/03/2023 20:37;20/03/2023 06:31;22CB00278;21203270;01-NONDEFINI;P204168;PRO FAR TRAD PRES LR BFR R21;62.344;62.344;;;89.746;CRB051;;19666122;BLE LABEL ROUGE REBELDE 22;30.06;M02CB-29111_ESTERNAY_10010534;29111_ESTERNAY_10010534
54378044900152;M02CB;;Mouture;17/03/2023 20:37;20/03/2023 06:31;22CB00278;21203270;01-NONDEFINI;P204168;PRO FAR TRAD PRES LR BFR R21;62.344;62.344;;;89.746;CRB051;;19666122;BLE LABEL ROUGE REBELDE 22;30.1;M02CB-29111_ESTERNAY_10010544;29111_ESTERNAY_10010544
54378044900152;M02CB;;Mouture;17/03/2023 20:37;20/03/2023 06:31;22CB00278;21203270;01-NONDEFINI;P204168;PRO FAR TRAD PRES LR BFR R21;62.344;62.344;;;89.746;CRB051;;19666122;BLE LABEL ROUGE REBELDE 22;30.8;M02CB-29111_ESTERNAY_10010547;29111_ESTERNAY_10010547
54378044900152;M02CB;;Mouture;17/03/2023 20:37;20/03/2023 06:31;22CB00278;21203270;01-NONDEFINI;P204168;PRO FAR TRAD PRES LR BFR R21;62.344;62.344;;;89.746;CRB051;;19666122;BLE LABEL ROUGE REBELDE 22;30.12;M02CB-29111_ESTERNAY_10010549;29111_ESTERNAY_10010549
54378044900152;M02CB;;Mouture;17/03/2023 20:37;20/03/2023 06:31;22CB00278;21203270;01-NONDEFINI;P204168;PRO FAR TRAD PRES LR BFR R21;62.344;62.344;;;89.746;CRB045;;19415722;BLE LABEL ROUGE OREGRAIN 22;29.54;M02CB-90028348_LOGRON_18174;90028348_LOGRON_18174
54378044900152;M02CB;;Mouture;17/03/2023 20:37;20/03/2023 06:31;22CB00278;21203270;01-NONDEFINI;P204168;PRO FAR TRAD PRES LR BFR R21;62.344;62.344;;;89.746;CRB045;;19415722;BLE LABEL ROUGE OREGRAIN 22;26.48;M02CB-90028348_LOGRON_18175;90028348_LOGRON_18175
54378044900152;M02CB;;Mouture;17/03/2023 20:37;20/03/2023 06:31;22CB00278;21203270;01-NONDEFINI;P204168;PRO FAR TRAD PRES LR BFR R21;62.344;62.344;;;89.746;CRB047;;19415722;BLE LABEL ROUGE OREGRAIN 22;30.5;M02CB-90138231_AUTHON_102701172;90138231_AUTHON_102701172
54378044900152;M02CB;;Mouture;17/03/2023 20:37;20/03/2023 06:31;22CB00278;21203270;01-NONDEFINI;P204168;PRO FAR TRAD PRES LR BFR R21;62.344;62.344;;;89.746;CRB047;;19415722;BLE LABEL ROUGE OREGRAIN 22;29.52;M02CB-90138231_AUTHON_102701173;90138231_AUTHON_102701173
54378044900152;M02CB;;Mouture;17/03/2023 20:37;20/03/2023 06:31;22CB00278;21203270;01-NONDEFINI;P204168;PRO FAR TRAD PRES LR BFR R21;62.344;62.344;;;89.746;CRB047;;19415722;BLE LABEL ROUGE OREGRAIN 22;29.9;M02CB-90138231_AUTHON_102701174;90138231_AUTHON_102701174
54378044900152;M02CB;;Mouture;17/03/2023 20:37;20/03/2023 06:31;22CB00278;21203270;01-NONDEFINI;P204168;PRO FAR TRAD PRES LR BFR R21;62.344;62.344;;;89.746;CRB047;;19415722;BLE LABEL ROUGE OREGRAIN 22;30.06;M02CB-90138231_AUTHON_102701175;90138231_AUTHON_102701175
54378044900152;M02CB;;Mouture;17/03/2023 20:37;20/03/2023 06:31;22CB00278;21203270;01-NONDEFINI;P204168;PRO FAR TRAD PRES LR BFR R21;62.344;62.344;;;89.746;CRB047;;19415722;BLE LABEL ROUGE OREGRAIN 22;29.56;M02CB-90138231_AUTHON_102701176;90138231_AUTHON_102701176
54378044900152;M02CB;;Mouture;17/03/2023 20:37;20/03/2023 06:31;22CB00278;21203270;01-NONDEFINI;P204168;PRO FAR TRAD PRES LR BFR R21;62.344;62.344;;;89.746;CRB047;;19415722;BLE LABEL ROUGE OREGRAIN 22;29.84;M02CB-90138231_AUTHON_10271177;90138231_AUTHON_10271177
54378044900152;M02CB;;Mouture;17/03/2023 20:37;20/03/2023 06:31;22CB00278;21203270;01-NONDEFINI;P204168;PRO FAR TRAD PRES LR BFR R21;62.344;62.344;;;89.746;CRB047;;19415722;BLE LABEL ROUGE OREGRAIN 22;29.25;M02CB-90138231_AUTHON_102701178;90138231_AUTHON_102701178
54378044900152;M02CB;;Mouture;17/03/2023 20:37;20/03/2023 06:31;22CB00278;21203270;01-NONDEFINI;P204168;PRO FAR TRAD PRES LR BFR R21;62.344;62.344;;;89.746;CRB047;;19415722;BLE LABEL ROUGE OREGRAIN 22;29.54;M02CB-90138231_AUTHON_102701179;90138231_AUTHON_102701179
54378044900152;M02CB;;Mouture;17/03/2023 20:37;20/03/2023 06:31;22CB00278;21203270;01-NONDEFINI;P204168;PRO FAR TRAD PRES LR BFR R21;62.344;62.344;;;89.746;CRB047;;19415722;BLE LABEL ROUGE OREGRAIN 22;29.74;M02CB-90138231_AUTHON_102701180;90138231_AUTHON_102701180
54378044900152;M02CB;;Mouture;17/03/2023 20:37;20/03/2023 06:31;22CB00278;21203270;01-NONDEFINI;P204168;PRO FAR TRAD PRES LR BFR R21;62.344;62.344;;;89.746;CRB047;;19415722;BLE LABEL ROUGE OREGRAIN 22;29.88;M02CB-90138231_AUTHON_102701181;90138231_AUTHON_102701181
54378044900152;M02CB;;Mouture;17/03/2023 20:37;20/03/2023 06:31;22CB00278;21203270;01-NONDEFINI;P204168;PRO FAR TRAD PRES LR BFR R21;62.344;62.344;;;89.746;CRB047;;19415722;BLE LABEL ROUGE OREGRAIN 22;30.08;M02CB-90138231_AUTHON_102701184;90138231_AUTHON_102701184
54378044900152;M02CB;;Mouture;17/03/2023 20:37;20/03/2023 06:31;22CB00278;21203270;01-NONDEFINI;P204168;PRO FAR TRAD PRES LR BFR R21;62.344;62.344;;;89.746;CRB047;;19415722;BLE LABEL ROUGE OREGRAIN 22;29.02;M02CB-90138231_AUTHON_102701183;90138231_AUTHON_102701183
54378044900152;M02CB;;Mouture;17/03/2023 20:37;20/03/2023 06:31;22CB00278;21203270;01-NONDEFINI;P204168;PRO FAR TRAD PRES LR BFR R21;62.344;62.344;;;89.746;CRB047;;19415722;BLE LABEL ROUGE OREGRAIN 22;29.94;M02CB-90138231_AUTHON_102701185;90138231_AUTHON_102701185
54378044900152;M02CB;;Mouture;17/03/2023 20:37;20/03/2023 06:31;22CB00278;21203270;01-NONDEFINI;P204168;PRO FAR TRAD PRES LR BFR R21;62.344;62.344;;;89.746;CRB047;;19415722;BLE LABEL ROUGE OREGRAIN 22;30.26;M02CB-90138231_AUTHON_102701186;90138231_AUTHON_102701186
54378044900152;M02CB;;Mouture;17/03/2023 20:37;20/03/2023 06:31;22CB00278;21203270;01-NONDEFINI;P204168;PRO FAR TRAD PRES LR BFR R21;62.344;62.344;;;89.746;CRB047;;19415722;BLE LABEL ROUGE OREGRAIN 22;29.66;M02CB-90138231_AUTHON_102701187;90138231_AUTHON_102701187
