﻿ref_actor_producer;ref_site;ref_lot;ref_actor_receipt;ref_product;quantity;unit;delivery_at;hour;ref_order_form;ref_delivery_form_display
41517200600017;site 1;06923002;34745168400059;PG;1000;U;03/03/2023;02:59;;
53817837700015;site 1;68423001;34745168400059;PG;1000;U;03/03/2023;05:04;;
