Harvest Start Date;Ranch;Variety;Shipping Year;Block
8/24/22;Oakdale;NONPAREIL;2022;321
9/11/22;Oakdale;ALDRICH;2022;321
9/9/22;Oakdale;SONORA;2022;321
9/1/22;Oakdale;NONPAREIL;2022;611
9/26/22;Oakdale;ALDRICH;2022;611
9/18/22;Oakdale;SONORA;2022;611
9/10/22;Oakdale;ALDRICH;2022;Ardis 640
9/10/22;Oakdale;WOOD COLONY;2022;Ardis 640
8/22/22;Oakdale;NONPAREIL;2022;Ardis 640
8/8/22;Oakdale;NONPAREIL;2022;Crabtree
9/3/22;Oakdale;ALDRICH;2022;Crabtree
9/3/22;Oakdale;WOOD COLONY;2022;Crabtree
10/6/22;Oakdale;MONTEREY;2022;Crabtree
8/17/22;Oakdale;NONPAREIL;2022;Fund II 160
9/14/22;Oakdale;ALDRICH;2022;Fund II 160
9/14/22;Oakdale;SONORA;2022;Fund II 160
8/29/22;Oakdale;NONPAREIL;2022;Fund II 312
9/13/22;Oakdale;ALDRICH;2022;Fund II 312
9/7/22;Oakdale;SONORA;2022;Fund II 312
8/29/22;Oakdale;NONPAREIL;2022;Fund II 376
9/17/22;Oakdale;ALDRICH;2022;Fund II 376
9/17/22;Oakdale;SONORA;2022;Fund II 376
9/8/22;Oakdale;NONPAREIL;2022;Fund II 763
9/25/22;Oakdale;ALDRICH;2022;Fund II 763
9/25/22;Oakdale;SONORA;2022;Fund II 763
8/15/22;Oakdale;NONPAREIL;2022;Grohl 626
9/4/22;Oakdale;ALDRICH;2022;Grohl 626
9/1/22;Oakdale;SONORA;2022;Grohl 626
9/15/22;Oakdale;NONPAREIL;2022;Holthouse
10/5/22;Oakdale;ALDRICH;2022;Holthouse
10/5/22;Oakdale;MONTEREY;2022;Holthouse
8/27/22;Oakdale;NONPAREIL;2022;Olive
9/25/22;Oakdale;ALDRICH;2022;Olive
9/25/22;Oakdale;WOOD COLONY;2022;Olive
8/8/22;Oakdale;NONPAREIL;2022;Tim Bell
9/7/22;Oakdale;ALDRICH;2022;Tim Bell
9/8/22;Oakdale;WOOD COLONY;2022;Tim Bell
9/22/22;Oakdale;MONTEREY;2022;Tim Bell
8/19/22;Oakdale;NONPAREIL;2022;Warnerville 369
9/28/22;Oakdale;FRITZ;2022;Warnerville 369
9/28/22;Oakdale;MONTEREY;2022;Warnerville 369