ref_actor_producer;ref_site;ref_lot;ref_actor_receipt;ref_product;quantity;unit;delivery_at;hour;ref_order_form;ref_delivery_form_display;dlc
34745168400059;site 1;;14132700;11000315;;P  ;01/04/2023;;419939;402099; 
34745168400059;site 1;D3086275;14133500;11000315;30.00;P  ;01/04/2023;;419938;402100;21/04/2023
34745168400059;site 1;D3088257;14133500;11000315;45.00;P  ;01/04/2023;;419938;402100;21/04/2023
34745168400059;site 1;D3090121;14133500;11000315;75.00;P  ;01/04/2023;;419938;402100;21/04/2023
34745168400059;site 1;D3090121;14133300;11000315;75.00;P  ;01/04/2023;;419940;402101;21/04/2023
34745168400059;site 1;D3087289;14133300;11001910;30.00;P  ;01/04/2023;;419940;402101;21/04/2023
34745168400059;site 1;;14133500;11013106;;P  ;01/04/2023;;419938;402100; 
