{
   "name":"flow_name",
   "product":{
      "fixed":"Boite ma\u00efs"
   },
   "quantity":{
      "fixed":"1"
   },
   "flow_date":"DateFab",
   "actor_sender":"ID_Agriculteur",
   "site_sender":"ID_Parcelle",
   "tool_sender":null,
   "actor_receiver":{
      "fixed":"44867070300017"
   },
   "site_receiver":{
      "fixed":"SERETRAM"
   },
   "tool_receiver":null,
   "cf_uniqueness_first":{
      "fixed":"44867070300017"
   },
   "Quanti\u00e8me de production":{
      "reference":"DateFab"
   },
   "specific_data":{
      "Heure d\u00e9but prod":"HDT",
      "Heure fin prod":"HFT",
      "Salle":"loST",
      "Date semis":"DateSemis",
      "Date r\u00e9colte":"DateRecolte"
   },
   "csv_parameters":{
      "decimal":".",
      "delimiter":";"
   },
   "extra_parameters":{
      "date_format":"%d/%m/%Y"
   },
   "db_request_mapping":{
      "actor_sender":{
         "matching_key":"connection",
         "owner":"actor_receiver",
         "matching_table":"ActorTranscode"
      },
      "site_sender":{
         "matching_key":"internal_code",
         "owner":"actor_sender"
      },
      "tool_sender":null,
      "product":{
         "matching_key":"internal_code",
         "owner":"actor_receiver"
      },
      "actor_receiver":{
         "matching_key":"siret_number"
      },
      "site_receiver":{
         "matching_key":"internal_code",
         "owner":"actor_receiver"
      },
      "tool_receiver":null
   },
   "transformations":[
      {
         "transformation":"change_date_format",
         "columns":[
            "Quanti\u00e8me de production"
         ],
         "old_format":"%d/%m/%Y",
         "new_format":"%j%Y"
      },
      {
         "transformation":"concatenate",
         "columns":[
            "Quanti\u00e8me de production"
         ],
         "target":"flow_name",
         "format":"{}"
      }
   ]
}