﻿Niv. hiérarchie;Type;Transfert de stock;Article;Désignation art.;Division;Lot;Quantité;Unité de qté base;Document d'achat;Ordre;Fournisseur;Nom 1;Référence;Date comptable;Date de fabrication;Date péremption/DLC
1;C;;36479;COCH COURBE FILIERE VPF SSC 250G C10;FA07;8618040;0,000;;;;;;;;05/10/2022;04/12/2022
2;A;;36479;COCH COURBE FILIERE VPF SSC 250G C10;FA07;8618040;7 080;PC;;8618040;;;;;05/10/2022;04/12/2022
3;C;;4039795;L300 PA290 M COCH CBE 250G FILIERE V2;FA07;P220812001;759,418;M2;;8618040;;;;;12/08/2022;07/05/2025
4;B;;4039795;L300 PA290 M COCH CBE 250G FILIERE V2;FA07;P220812001;2 880,000;M2;3000269762;;100106;MONTEIRO, RIBAS EMBALAGENS FLEXIVEI;;12/08/2022;12/08/2022;07/05/2025
3;C;;4023016;PL DIEDRE 2K5 SANS RABATS NEW;FA07;P220825001;717;PC;;8618040;;;;;25/08/2022;25/02/2023
4;B;;4023016;PL DIEDRE 2K5 SANS RABATS NEW;FA07;P220825001;41 800;PC;3000262870;;105754;DS SMITH PACKAGING;;25/08/2022;25/08/2022;25/02/2023
3;C;;1502754;PFP FAB SSE MENU F5 VPF FILIERE 250G;FA07;8568119;879,402;KG;;8618040;;;;;05/10/2022;10/10/2022
4;A;;1502754;PFP FAB SSE MENU F5 VPF FILIERE 250G;FA07;8568119;1 627,208;KG;;8568119;;;;;05/10/2022;10/10/2022
5;C;;1404983;POUS SSE MENU F5 VPF FILIERE 250G;FA07;8568057;2 779,700;KG;;8568119;;;;;15/09/2022;16/09/2022
6;A;;1404983;POUS SSE MENU F5 VPF FILIERE 250G;FA07;8568057;2 779,700;KG;;8568057;;;;;15/09/2022;16/09/2022
7;C;;4040037;FICELLE COTON NOIRE UNIVERSAL;FA07;P220711001;1,639;KG;;8568057;;;;;11/07/2022;05/04/2025
8;B;;4040037;FICELLE COTON NOIRE UNIVERSAL;FA07;P220711001;81,150;KG;4502098826;;114645;UNIVERSAL  SA;;11/07/2022;11/07/2022;05/04/2025
7;C;;4016681;CLIP HC 25-2712 BT;FA07;P220718001;13 804;PC;;8568057;;;;;18/07/2022;12/04/2025
8;B;;4016681;CLIP HC 25-2712 BT;FA07;P220718001;1 440 000;PC;4502102960;;114323;TECHNOCARNE;;18/07/2022;18/07/2022;12/04/2025
7;C;;4016098;MENU COCHE 38/40 SUR GAINE;FA07;P220906001;2 959,311;M;;8568057;;;;;06/09/2022;04/05/2023
8;B;;4016098;MENU COCHE 38/40 SUR GAINE;FA07;P220906001;43 680,000;M;4502134553;;107482;VAN HESSEN BV;;06/09/2022;06/09/2022;04/05/2023
7;C;;4016098;MENU COCHE 38/40 SUR GAINE;FA07;P220817001;146,557;M;;8568057;;;;;17/08/2022;14/04/2023
8;B;;4016098;MENU COCHE 38/40 SUR GAINE;FA07;P220817001;43 680,000;M;4502118339;;107482;VAN HESSEN BV;;17/08/2022;17/08/2022;14/04/2023
7;C;;3001269;FLEUR PV3 50L;FA07;P220621001;0,020;KG;;8568057;;;;;30/09/2022;30/09/2023
8;B;;3001269;FLEUR PV3 50L;FA07;P220621001;16,000;KG;4502085779;;120964;LALLEMAND SPECIALTY CULTURES;;21/06/2022;30/09/2022;30/09/2023
7;C;;1205315;PATE F5 VPF FILIERE;FA07;8567686;1 119,500;KG;;8568057;;;;;15/09/2022;17/09/2022
8;A;;1205315;PATE F5 VPF FILIERE;FA07;8567686;1 119,500;KG;;8567686;;;;;15/09/2022;17/09/2022
9;C;;3003654;MIX DRY SAUS. CUT2 - 8,4 KG;FA07;P220614001;8,400;KG;;8567686;;;;;14/06/2022;31/05/2024
10;B;;3003654;MIX DRY SAUS. CUT2 - 8,4 KG;FA07;P220614001;5 040,000;KG;4502079214;;114327;FUCHS INDUSTRIE FRANCE  SNC;;14/06/2022;14/06/2022;31/05/2024
9;C;;3002852;FLORA ITALIA X 250G;FA07;P220621001;0,250;KG;;8567686;;;;;09/11/2022;09/11/2023
10;B;;3002852;FLORA ITALIA X 250G;FA07;P220621001;100,000;KG;4502077294;;109400;CHR.HANSEN FRANCE;;21/06/2022;09/11/2022;09/11/2023
9;C;;3002684;FERMENT BLC77 100GR/T;FA07;P220613001;1;PC;;8567686;;;;;25/10/2022;25/10/2023
10;B;;3002684;FERMENT BLC77 100GR/T;FA07;P220613001;400;PC;4502076737;;109400;CHR.HANSEN FRANCE;;13/06/2022;25/10/2022;25/10/2023
9;C;;3001421;LACTOSE BIG BAG;FA07;P220825001;25,000;KG;;8567686;;;;;25/08/2022;10/06/2024
10;B;;3001421;LACTOSE BIG BAG;FA07;P220825001;24 000,000;KG;4502103116;;118112;LACTALIS INGREDIENTS;;25/08/2022;25/08/2022;10/06/2024
9;C;;3001289;SEL  FIN SEC 1300KG BIG BAG;FA07;P220812001;25,000;KG;;8567686;;;;;12/08/2022;27/07/2024
10;B;;3001289;SEL  FIN SEC 1300KG BIG BAG;FA07;P220812001;18 200,000;KG;4502116668;;114440;COMPAGNIE DES SALINS DU MIDI ET;;12/08/2022;12/08/2022;27/07/2024
9;C;;230221;PORC GRAS DE BARDIERE DEC VPF FILIERE C;FA07;P220729001;250,000;KG;;8567686;;;;;02/03/2022;28/10/2022
10;B;;230221;PORC GRAS DE BARDIERE DEC VPF FILIERE C;FA07;P220729001;9 291,000;KG;3000271373;;116987;SOCOPA VIANDES;FR 53.097.001 CE;29/07/2022;02/03/2022;28/10/2022
9;C;;220218;PORC POITRINE CUTTER 65/35 VPF FILIERE F;FA07;P220915001;74,000;KG;;8567686;;;;;13/09/2022;20/09/2022
10;B;;220218;PORC POITRINE CUTTER 65/35 VPF FILIERE F;FA07;P220915001;171,000;KG;3000274606;;116987;SOCOPA VIANDES;FR 53.097.001 CE;15/09/2022;13/09/2022;20/09/2022
9;C;;210228;PORC EPAULE 3D VPF FILIERE F;FA07;P220915001;676,000;KG;;8567686;;;;;12/09/2022;19/09/2022
10;B;;210228;PORC EPAULE 3D VPF FILIERE F;FA07;P220915001;3 626,500;KG;3000274606;;116987;SOCOPA VIANDES;FR 53.097.001 CE;15/09/2022;12/09/2022;19/09/2022
7;C;;1205315;PATE F5 VPF FILIERE;FA07;8567684;1 087,500;KG;;8568057;;;;;14/09/2022;16/09/2022
8;A;;1205315;PATE F5 VPF FILIERE;FA07;8567684;1 087,500;KG;;8567684;;;;;14/09/2022;16/09/2022
9;C;;3003654;MIX DRY SAUS. CUT2 - 8,4 KG;FA07;P220614001;8,400;KG;;8567684;;;;;14/06/2022;31/05/2024
9;C;;3002852;FLORA ITALIA X 250G;FA07;P220621001;0,250;KG;;8567684;;;;;09/11/2022;09/11/2023
9;C;;3002684;FERMENT BLC77 100GR/T;FA07;P220613001;1;PC;;8567684;;;;;25/10/2022;25/10/2023
9;C;;3001421;LACTOSE BIG BAG;FA07;P220825001;25,000;KG;;8567684;;;;;25/08/2022;10/06/2024
9;C;;3001289;SEL  FIN SEC 1300KG BIG BAG;FA07;P220812001;25,000;KG;;8567684;;;;;12/08/2022;27/07/2024
9;C;;230221;PORC GRAS DE BARDIERE DEC VPF FILIERE C;FA07;P220907001;236,000;KG;;8567684;;;;;06/07/2022;03/03/2023
10;B;;230221;PORC GRAS DE BARDIERE DEC VPF FILIERE C;FA07;P220907001;12 238,500;KG;3000274092;;116987;SOCOPA VIANDES;FR 53.097.001 CE;07/09/2022;06/07/2022;03/03/2023
9;C;;220218;PORC POITRINE CUTTER 65/35 VPF FILIERE F;FA07;P220914002;38,000;KG;;8567684;;;;;09/09/2022;16/09/2022
10;B;;220218;PORC POITRINE CUTTER 65/35 VPF FILIERE F;FA07;P220914002;96,500;KG;3000274606;;116987;SOCOPA VIANDES;FR 53.097.001 CE;14/09/2022;09/09/2022;16/09/2022
9;C;;210228;PORC EPAULE 3D VPF FILIERE F;FA07;P220914001;726,000;KG;;8567684;;;;;09/09/2022;16/09/2022
10;B;;210228;PORC EPAULE 3D VPF FILIERE F;FA07;P220914001;2 088,000;KG;3000274606;;116987;SOCOPA VIANDES;FR 53.097.001 CE;14/09/2022;09/09/2022;16/09/2022
7;C;;1205315;PATE F5 VPF FILIERE;FA07;8567687;394,500;KG;;8568057;;;;;15/09/2022;17/09/2022
8;A;;1205315;PATE F5 VPF FILIERE;FA07;8567687;1 058,500;KG;;8567687;;;;;15/09/2022;17/09/2022
9;C;;3003654;MIX DRY SAUS. CUT2 - 8,4 KG;FA07;P220614001;8,400;KG;;8567687;;;;;14/06/2022;31/05/2024
9;C;;3002852;FLORA ITALIA X 250G;FA07;P220621001;0,250;KG;;8567687;;;;;09/11/2022;09/11/2023
9;C;;3002684;FERMENT BLC77 100GR/T;FA07;P220613001;1;PC;;8567687;;;;;25/10/2022;25/10/2023
9;C;;3001421;LACTOSE BIG BAG;FA07;P220825001;25,000;KG;;8567687;;;;;25/08/2022;10/06/2024
9;C;;3001289;SEL  FIN SEC 1300KG BIG BAG;FA07;P220812001;25,000;KG;;8567687;;;;;12/08/2022;27/07/2024
9;C;;230221;PORC GRAS DE BARDIERE DEC VPF FILIERE C;FA07;P220729001;230,000;KG;;8567687;;;;;02/03/2022;28/10/2022
9;C;;220218;PORC POITRINE CUTTER 65/35 VPF FILIERE F;FA07;P220915001;92,000;KG;;8567687;;;;;13/09/2022;20/09/2022
9;C;;210228;PORC EPAULE 3D VPF FILIERE F;FA07;P220915001;678,000;KG;;8567687;;;;;12/09/2022;19/09/2022
7;C;;1205315;PATE F5 VPF FILIERE;FA07;8567683;228,000;KG;;8568057;;;;;14/09/2022;16/09/2022
8;A;;1205315;PATE F5 VPF FILIERE;FA07;8567683;1 068,000;KG;;8567683;;;;;14/09/2022;16/09/2022
9;C;;3003654;MIX DRY SAUS. CUT2 - 8,4 KG;FA07;P220614001;8,400;KG;;8567683;;;;;14/06/2022;31/05/2024
9;C;;3002852;FLORA ITALIA X 250G;FA07;P220621001;0,250;KG;;8567683;;;;;09/11/2022;09/11/2023
9;C;;3002684;FERMENT BLC77 100GR/T;FA07;P220613001;1;PC;;8567683;;;;;25/10/2022;25/10/2023
9;C;;3001421;LACTOSE BIG BAG;FA07;P220825001;25,000;KG;;8567683;;;;;25/08/2022;10/06/2024
9;C;;3001289;SEL  FIN SEC 1300KG BIG BAG;FA07;P220812001;25,000;KG;;8567683;;;;;12/08/2022;27/07/2024
9;C;;230221;PORC GRAS DE BARDIERE DEC VPF FILIERE C;FA07;P220907001;237,000;KG;;8567683;;;;;06/07/2022;03/03/2023
9;C;;220218;PORC POITRINE CUTTER 65/35 VPF FILIERE F;FA07;P220914002;43,000;KG;;8567683;;;;;09/09/2022;16/09/2022
9;C;;210228;PORC EPAULE 3D VPF FILIERE F;FA07;P220914001;721,000;KG;;8567683;;;;;09/09/2022;16/09/2022
3;C;;1502754;PFP FAB SSE MENU F5 VPF FILIERE 250G;FA07;8568110;629,957;KG;;8618040;;;;;05/10/2022;10/10/2022
4;A;;1502754;PFP FAB SSE MENU F5 VPF FILIERE 250G;FA07;8568110;1 138,191;KG;;8568110;;;;;05/10/2022;10/10/2022
5;C;;1404983;POUS SSE MENU F5 VPF FILIERE 250G;FA07;8568046;1 929,591;KG;;8568110;;;;;14/09/2022;15/09/2022
6;A;;1404983;POUS SSE MENU F5 VPF FILIERE 250G;FA07;8568046;1 929,591;KG;;8568046;;;;;14/09/2022;15/09/2022
7;C;;4040037;FICELLE COTON NOIRE UNIVERSAL;FA07;P220711001;1,141;KG;;8568046;;;;;11/07/2022;05/04/2025
7;C;;4016681;CLIP HC 25-2712 BT;FA07;P220718001;9 584;PC;;8568046;;;;;18/07/2022;12/04/2025
7;C;;4016098;MENU COCHE 38/40 SUR GAINE;FA07;P220817001;2 156,009;M;;8568046;;;;;17/08/2022;14/04/2023
7;C;;3001269;FLEUR PV3 50L;FA07;P220621001;0,014;KG;;8568046;;;;;30/09/2022;30/09/2023
7;C;;1205315;PATE F5 VPF FILIERE;FA07;8567685;1 068,500;KG;;8568046;;;;;14/09/2022;16/09/2022
8;A;;1205315;PATE F5 VPF FILIERE;FA07;8567685;1 068,500;KG;;8567685;;;;;14/09/2022;16/09/2022
9;C;;3003654;MIX DRY SAUS. CUT2 - 8,4 KG;FA07;P220614001;8,400;KG;;8567685;;;;;14/06/2022;31/05/2024
9;C;;3002852;FLORA ITALIA X 250G;FA07;P220621001;0,250;KG;;8567685;;;;;09/11/2022;09/11/2023
9;C;;3002684;FERMENT BLC77 100GR/T;FA07;P220613001;1;PC;;8567685;;;;;25/10/2022;25/10/2023
9;C;;3001421;LACTOSE BIG BAG;FA07;P220825001;25,000;KG;;8567685;;;;;25/08/2022;10/06/2024
9;C;;3001289;SEL  FIN SEC 1300KG BIG BAG;FA07;P220812001;25,000;KG;;8567685;;;;;12/08/2022;27/07/2024
9;C;;230221;PORC GRAS DE BARDIERE DEC VPF FILIERE C;FA07;P220907001;137,000;KG;;8567685;;;;;06/07/2022;03/03/2023
9;C;;230221;PORC GRAS DE BARDIERE DEC VPF FILIERE C;FA07;P220729001;125,000;KG;;8567685;;;;;02/03/2022;28/10/2022
9;C;;210228;PORC EPAULE 3D VPF FILIERE F;FA07;P220914001;743,000;KG;;8567685;;;;;09/09/2022;16/09/2022
7;C;;1205315;PATE F5 VPF FILIERE;FA07;8567683;840,000;KG;;8568046;;;;;14/09/2022;16/09/2022
3;C;;1502754;PFP FAB SSE MENU F5 VPF FILIERE 250G;FA07;8586992;393,166;KG;;8618040;;;;;05/10/2022;10/10/2022
4;A;;1502754;PFP FAB SSE MENU F5 VPF FILIERE 250G;FA07;8586992;393,166;KG;;8586992;;;;;05/10/2022;10/10/2022
5;C;;1404983;POUS SSE MENU F5 VPF FILIERE 250G;FA07;8586991;661,766;KG;;8586992;;;;;16/09/2022;17/09/2022
6;A;;1404983;POUS SSE MENU F5 VPF FILIERE 250G;FA07;8586991;661,766;KG;;8586991;;;;;16/09/2022;17/09/2022
7;C;;4040037;FICELLE COTON NOIRE UNIVERSAL;FA07;P220711001;0,391;KG;;8586991;;;;;11/07/2022;05/04/2025
7;C;;4016681;CLIP HC 25-2712 BT;FA07;P220718001;3 288;PC;;8586991;;;;;18/07/2022;12/04/2025
7;C;;4016098;MENU COCHE 38/40 SUR GAINE;FA07;P220906001;739,417;M;;8586991;;;;;06/09/2022;04/05/2023
7;C;;3001269;FLEUR PV3 50L;FA07;P220621001;0,005;KG;;8586991;;;;;30/09/2022;30/09/2023
7;C;;1205315;PATE F5 VPF FILIERE;FA07;8567687;664,000;KG;;8586991;;;;;15/09/2022;17/09/2022
