actor_number,name,identification_type,identification_number,company_name,category,description,tags,sectors
25294,252940,siret,tmp_00252940_SOCOPA_74686,,undefined,,,
27EWJ,27EWJ,siret,tmp_27EWJ_SOCOPA_74686,,undefined,,,
61FIR,61FIR,siret,tmp_61FIR_SOCOPA_74686,,undefined,,,
61FOR,61FOR,siret,tmp_61FOR_SOCOPA_74686,,undefined,,,
61UFR,61UFR,siret,tmp_61UFR_SOCOPA_74686,,undefined,,,
72BGD,72BGD,siret,tmp_72BGD_SOCOPA_74686,,undefined,,,
72DXE,72DXE,siret,tmp_72DXE_SOCOPA_74686,,undefined,,,
72KBE,72KBE,siret,tmp_72KBE_SOCOPA_74686,,undefined,,,
72LKP,72LKP,siret,tmp_72LKP_SOCOPA_74686,,undefined,,,
72THN,72THN,siret,tmp_72THN_SOCOPA_74686,,undefined,,,
72ZMH,72ZMH,siret,tmp_72ZMH_SOCOPA_74686,,undefined,,,
72ZPJ,72ZPJ,siret,tmp_72ZPJ_SOCOPA_74686,,undefined,,,
38881872600100,Aoste,siret,38881872600100,,undefined,,,
50851378500107.,SOCOPA,siret,50851378500107.,,undefined,,,
