actor_number,name,identification_type,identification_number,company_name,category,description,tags,sectors
20300015,20300015,siret,tmp_20300015_AXIANE MEUNERIE REUILLY_848,,undefined,,,
4021,402100,siret,tmp_402100_AXIANE MEUNERIE REUILLY_848,,undefined,,,
RE01,AXIANE MEUNERIE REUILLY,siret,80889274900066,,undefined,,,
VI01,AXIANE MEUNERIE VIVONNE,siret,80889274900025,,undefined,,,
178589,EARL DAVIAU,siret,43023026800012,,undefined,,,
134296,EARL DE BOUVILLE,siret,48333360500010,,undefined,,,
170718,EARL DE LA BELLE ETOILE,siret,39463761500011,,undefined,,,
216075972,EARL DE MONTBASSON,siret,32853981200011,,undefined,,,
400065,EARL ROGER BRUERE,siret,80129541100012,,undefined,,,
103591,LECLERC JEROME,siret,51015890000017,,undefined,,,
170942,MONSIEUR FRANCK GIRARD,siret,52197181200016,,undefined,,,
104721,MONSIEUR LUDOVIC DAUBERT,siret,79847110800018,,undefined,,,
001208,SOCIETE COOPERATIVE AGRICOLE AXEREAL,siret,50368180100935,,undefined,,,
