location_number,actor_number,name,company_name,gln,country,postcode,city,first_name,last_name,line_1,line_2,line_3,tags,latitude,longitude
110152965,1171839521,1101529650,1171839521,,France,65320.0,Gardères,,,undefined,,,,,
1259397871,139,1259397871,139,,France,64300.0,Orthez,,,undefined,,,,,
1294790959,304,1294790959,304,,France,40230.0,Josse,,,undefined,,,,,
1454721376,341,1454721376,341,,France,64300.0,LANNEPLAA,,,undefined,,,,,
1527263344,417,1527263344,417,,France,64198.0,Denguin,,,undefined,,,,,
1544424315,168,1544424315,168,,France,64160.0,Ouillon,,,undefined,,,,,
1609082278,1094,1609082278,1094,,France,65320.0,Séron,,,undefined,,,,,
1616969683,494,1616969683,494,,France,33113.0,BOURIDEYS,,,undefined,,,,,
1654120629,314,1654120629,314,,France,64460.0,Ponson-Dessus,,,undefined,,,,,
1720173536,571,1720173536,571,,France,40410.0,Saugnacq-et-Muret,,,undefined,,,,,
178848324,424,1788483240,424,,France,64530.0,GER,,,undefined,,,,,
1942789481,373,1942789481,373,,France,65185.0,Gardères,,,undefined,,,,,
199683476,1977547343,199683476,1977547343,,France,,,,,undefined,,,,,
200619442,398,2006194420,398,,France,64420.0,Hours,,,undefined,,,,,
2125730154,2119139879,2125730154,2119139879,,France,64097.0,Barzun,,,undefined,,,,,
2129621014,329,2129621014,329,,France,40160.0,YCHOUX,,,undefined,,,,,
23749944,438,23749944,438,,France,64530.0,Pontacq,,,undefined,,,,,
27342429,571,27342429,571,,France,40410.0,Saugnacq-et-Muret,,,undefined,,,,,
394286112,497,394286112,497,,France,40410.0,Saugnacq-et-Muret,,,undefined,,,,,
395805269,220,395805269,220,,France,40370.0,RION DES LANDES,,,undefined,,,,,
42742298,511,427422980,511,,France,40210.0,Solférino,,,undefined,,,,,
525888847,292,525888847,292,,France,40410.0,Saugnacq-et-Muret,,,undefined,,,,,
674470888,323,674470888,323,,France,40300.0,Saint-Cricq-du-Gave,,,undefined,,,,,
736104354,1173110593,736104354,1173110593,,France,64190.0,Dognen,,,undefined,,,,,
748980758,494,748980758,494,,France,33113.0,BOURIDEYS,,,undefined,,,,,
752164304,299,752164304,299,,France,64212.0,Espéchède,,,undefined,,,,,
757194854,757194854,757194854,1205853644,,France,,,,,undefined,,,,,
774255096,510,774255096,510,,France,64300.0,Sainte-Suzanne,,,undefined,,,,,
804495654,151,804495654,151,,France,64230.0,DENGUIN,,,undefined,,,,,
919943753,497,919943753,497,,France,40410.0,Saugnacq-et-Muret,,,undefined,,,,,
96557333,389,965573330,389,,France,65380.0,Lamarque-Pontacq,,,undefined,,,,,
1062825368,1157684293,1062825368,1157684293,,France,64460.0,Ponson-Debat-Pouts,,,undefined,,,,,
1080296698,170,1080296698,170,,France,40410.0,PISSOS,,,undefined,,,,,
1080309208,208,1080309208,208,,France,40430.0,LUXEY,,,undefined,,,,,
108075585,642,1080755850,642,,France,40230.0,Josse,,,undefined,,,,,
1081358723,297,1081358723,297,,France,40300.0,Labatut,,,undefined,,,,,
1082229059,2053414299,1082229059,2053414299,,France,40160.0,Ychoux,,,undefined,,,,,
1084369243,574065520,1084369243,574065520,,France,64420.0,Artigueloutan,,,undefined,,,,,
1112713599,223,1112713599,223,,France,64390.0,SAUVETERRE DE BEARN,,,undefined,,,,,
1113379663,416,1113379663,416,,France,64230.0,Denguin,,,undefined,,,,,
1113491929,544,1113491929,544,,France,64420.0,Andoins,,,undefined,,,,,
1113495024,649,1113495024,649,,France,64160.0,Gabaston,,,undefined,,,,,
1114097625,292,1114097625,292,,France,40410.0,Saugnacq-et-Muret,,,undefined,,,,,
1145884843,389966298,1145884843,389966298,,France,64400.0,GEUS D OLORON,,,undefined,,,,,
1145969056,139,1145969056,139,,France,64300.0,Orthez,,,undefined,,,,,
1146034741,571,1146034741,571,,France,40410.0,Saugnacq-et-Muret,,,undefined,,,,,
1146840127,180,1146840127,180,,France,33830.0,Belin-Béliet,,,undefined,,,,,
1147792414,329,1147792414,329,,France,40410.0,Liposthey,,,undefined,,,,,
115,323,115,323,,France,40300.0,Saint-Cricq-du-Gave,,,undefined,,,,,
115024693,1977547343,1150246930,1977547343,,France,40630.0,Trensacq,,,undefined,,,,,
117,292,117,292,,France,40410.0,SAUGNACQ ET MURET,,,undefined,,,,,
1172479662,172,1172479662,172,,France,40420.0,Vert,,,undefined,,,,,
1174323245,325,1174323245,325,,France,64390.0,ABITAIN,,,undefined,,,,,
1177604441,1869910136,1177604441,1869910136,,France,64530.0,Pontacq,,,undefined,,,,,
1178112777,353,1178112777,353,,France,64420.0,Hours,,,undefined,,,,,
1178527835,571,1178527835,571,,France,,,,,undefined,,,,,
1178801968,170,1178801968,170,,France,40410.0,PISSOS,,,undefined,,,,,
12,932868121,120,932868121,,France,40250.0,SOUPROSSE,,,undefined,,,,,
1200654947,179,1200654947,179,,France,40230.0,Saint-Geours-de-Maremne,,,undefined,,,,,
1202922155,295,1202922155,295,,France,40140.0,SOUSTONS,,,undefined,,,,,
1204122831,723,1204122831,723,,France,40260.0,Lesperon,,,undefined,,,,,
1205158058,471,1205158058,471,,France,65320.0,Séron,,,undefined,,,,,
1207647946,520,1207647946,520,,France,65320.0,Séron,,,undefined,,,,,
1210749389,553,1210749389,553,,France,,,,,undefined,,,,,
1247663176,214000124,1247663176,214000124,,France,64400.0,Orin,,,undefined,,,,,
125,362,125,362,,France,64300.0,Balansun,,,undefined,,,,,
1269938618,368,1269938618,368,,France,40400.0,MEILHAN,,,undefined,,,,,
1274955588,521,1274955588,521,,France,64530.0,Ger,,,undefined,,,,,
1336195582,418,1336195582,418,,France,40110.0,Onesse-Laharie,,,undefined,,,,,
1341511366,571,1341511366,571,,France,40410.0,Saugnacq-et-Muret,,,undefined,,,,,
1371390355,319,1371390355,319,,France,40410.0,Saugnacq-et-Muret,,,undefined,,,,,
1389898161,615,1389898161,615,,France,40630.0,SABRES,,,undefined,,,,,
139,546,139,546,,France,40410.0,Saugnacq-et-Muret,,,undefined,,,,,
14,501,14,501,,France,40210.0,Commensacq,,,undefined,,,,,
14,304,140,304,,France,40230.0,Josse,,,undefined,,,,,
1403450749,848,1403450749,848,,France,64190.0,Dognen,,,undefined,,,,,
1406061345,723,1406061345,723,,France,40260.0,LESPERON,,,undefined,,,,,
1431468573,355,1431468573,355,,France,40420.0,Vert,,,undefined,,,,,
143219915,471,143219915,471,,France,65320.0,Séron,,,undefined,,,,,
145,510,145,510,,France,64300.0,Lanneplaà,,,undefined,,,,,
146,325,146,325,,France,64390.0,Abitain,,,undefined,,,,,
1466090029,546,1466090029,546,,France,40410.0,Saugnacq-et-Muret,,,undefined,,,,,
148,345,148,345,,France,64420.0,Andoins,,,undefined,,,,,
154103306,208,1541033060,208,,France,40430.0,LUXEY,,,undefined,,,,,
157,404,157,404,,France,40129.0,Josse,,,undefined,,,,,
1606005745,175,1606005745,175,,France,40410.0,PISSOS,,,undefined,,,,,
1621484203,194,1621484203,194,,France,40600.0,BISCARROSSE,,,undefined,,,,,
1666770104,1977547343,1666770104,1977547343,,France,40630.0,Trensacq,,,undefined,,,,,
168,372,168,372,,France,40168.0,Magescq,,,undefined,,,,,
1693776369,499,1693776369,499,,France,64530.0,Barzun,,,undefined,,,,,
17422086,887,174220860,887,,France,64300.0,Sainte-Suzanne,,,undefined,,,,,
1749748694,584,1749748694,584,,France,40110.0,Onesse-Laharie,,,undefined,,,,,
178163707,1157684293,178163707,1157684293,,France,64460.0,Ponson-Debat-Pouts,,,undefined,,,,,
1787925602,553,1787925602,553,,France,,,,,undefined,,,,,
179,273,179,273,,France,40990.0,Saint-Paul-lès-Dax,,,undefined,,,,,
1794001135,791,1794001135,791,,France,40300.0,Orthevielle,,,undefined,,,,,
18173438,492,18173438,492,,France,64530.0,Pontacq,,,undefined,,,,,
189,295,189,295,,France,40140.0,Soustons,,,undefined,,,,,
1901460273,1901460273,1901460273,609,,France,,,,,undefined,,,,,
195317355,417,1953173550,417,,France,64230.0,Denguin,,,undefined,,,,,
199,479,199,479,,France,40140.0,Soustons,,,undefined,,,,,
2037346385,1819875516,2037346385,1819875516,,France,65320.0,Gardères,,,undefined,,,,,
208,483,208,483,,France,64420.0,Arrien,,,undefined,,,,,
209,350,209,350,,France,64420.0,Artigueloutan,,,undefined,,,,,
2111486789,571,2111486789,571,,France,40410.0,SAUGNACQ ET MURET,,,undefined,,,,,
2119736092,315,2119736092,315,,France,40230.0,Saubrigues,,,undefined,,,,,
2136059209,584,2136059209,584,,France,40110.0,Onesse-Laharie,,,undefined,,,,,
2136059214,387,2136059214,387,,France,33470.0,Le Teich,,,undefined,,,,,
2136059229,172990285,2136059229,172990285,,France,40230.0,Saint-Geours-de-Maremne,,,undefined,,,,,
2136059233,253,2136059233,253,,France,64130.0,Lichos,,,undefined,,,,,
2136059239,548,2136059239,548,,France,64170.0,Labastide-Monrejeau,,,undefined,,,,,
213605924,1081331993,2136059240,1081331993,,France,64230.0,Bougarber,,,undefined,,,,,
213605926,2119139879,2136059260,2119139879,,France,64530.0,Barzun,,,undefined,,,,,
2136059262,812551803,2136059262,812551803,,France,64420.0,Lourenties,,,undefined,,,,,
2136059265,1157684293,2136059265,1157684293,,France,64460.0,Ponson-Debat-Pouts,,,undefined,,,,,
2136059278,464132189,2136059278,464132189,,France,64370.0,Arthez-de-Béarn,,,undefined,,,,,
2136059295,172990285,2136059295,172990285,,France,40180.0,Saubusse,,,undefined,,,,,
2136059311,292,2136059311,292,,France,40410.0,Saugnacq-et-Muret,,,undefined,,,,,
2136059324,167,2136059324,167,,France,65380.0,Lamarque-Pontacq,,,undefined,,,,,
2136059328,87,2136059328,87,,France,40420.0,Le Sen,,,undefined,,,,,
2136059335,498,2136059335,498,,France,40210.0,Lüe,,,undefined,,,,,
2136059357,1105,2136059357,1105,,France,64530.0,Livron,,,undefined,,,,,
2136059358,292,2136059358,292,,France,40410.0,Saugnacq-et-Muret,,,undefined,,,,,
2136059372,1551355124,2136059372,1551355124,,France,40430.0,Sore,,,undefined,,,,,
2136059386,450,2136059386,450,,France,64530.0,LIVRON,,,undefined,,,,,
2136059402,499,2136059402,499,,France,64530.0,Barzun,,,undefined,,,,,
2136059408,511,2136059408,511,,France,40210.0,Solférino,,,undefined,,,,,
2136059419,215,2136059419,215,,France,40990.0,Saint-Paul-lès-Dax,,,undefined,,,,,
2136059424,483,2136059424,483,,France,64420.0,Arrien,,,undefined,,,,,
2136059425,1157684293,2136059425,1157684293,,France,64460.0,Ponson-Debat-Pouts,,,undefined,,,,,
2136059426,1817957020,2136059426,1817957020,,France,64160.0,Espéchède,,,undefined,,,,,
2136059427,257182722,2136059427,257182722,,France,64160.0,Sedzère,,,undefined,,,,,
2136059429,492,2136059429,492,,France,65380.0,OSSUN,,,undefined,,,,,
213605943,556,2136059430,556,,France,64160.0,ESPECHEDE,,,undefined,,,,,
2136059431,321019294,2136059431,321019294,,France,40300.0,Sorde-l’Abbaye,,,undefined,,,,,
2136059432,495,2136059432,495,,France,64160.0,Lombia,,,undefined,,,,,
2136059436,234,2136059436,234,,France,40230.0,Josse,,,undefined,,,,,
2136059436,179,2136059436,179,,France,40129.0,Josse,,,undefined,,,,,
2136059448,1922855419,2136059448,1922855419,,France,40630.0,Trensacq,,,undefined,,,,,
2136059468,615,2136059468,615,,France,40630.0,Sabres,,,undefined,,,,,
2136059471,569,2136059471,569,,France,40332.0,,,,undefined,,,,,
2136059472,407,2136059472,407,,France,64530.0,Ger,,,undefined,,,,,
213605948,824,2136059480,824,,France,64300.0,Castétis,,,undefined,,,,,
2136059484,1922855419,2136059484,1922855419,,France,40410.0,Liposthey,,,undefined,,,,,
2136059487,333,2136059487,333,,France,64370.0,Hagetaubin,,,undefined,,,,,
2136059489,521,2136059489,521,,France,64460.0,Ponson-Dessus,,,undefined,,,,,
2136059497,511,2136059497,511,,France,40210.0,SOLFERINO,,,undefined,,,,,
2136059503,1220296578,2136059503,1220296578,,France,40430.0,Sore,,,undefined,,,,,
2136059504,512,2136059504,512,,France,40420.0,Vert,,,undefined,,,,,
2136059518,1006,2136059518,1006,,France,64530.0,Pontacq,,,undefined,,,,,
2136059519,1193,2136059519,1193,,France,64530.0,Ger,,,undefined,,,,,
213605952,1948635134,2136059520,1948635134,,France,64530.0,Pontacq,,,undefined,,,,,
2136059527,348,2136059527,348,,France,64420.0,Arrien,,,undefined,,,,,
2136059528,1746150956,2136059528,1746150956,,France,64270.0,Escos,,,undefined,,,,,
2136059532,417,2136059532,417,,France,64230.0,Denguin,,,undefined,,,,,
2136059534,355,2136059534,355,,France,40420.0,Vert,,,undefined,,,,,
2136059539,452,2136059539,452,,France,40230.0,Saint-Jean-de-Marsacq,,,undefined,,,,,
2136059545,916477206,2136059545,916477206,,France,64370.0,Boumourt,,,undefined,,,,,
2136059559,146,2136059559,146,,France,40430.0,SORE,,,undefined,,,,,
2136059561,569,2136059561,569,,France,,,,,undefined,,,,,
2136059564,372,2136059564,372,,France,40140.0,Magescq,,,undefined,,,,,
2136059575,569,2136059575,569,,France,40160.0,Ychoux,,,undefined,,,,,
2136059578,520,2136059578,520,,France,65320.0,Séron,,,undefined,,,,,
213605958,39,2136059580,39,,France,40210.0,Lüe,,,undefined,,,,,
2136059592,488,2136059592,488,,France,40200.0,MIMIZAN,,,undefined,,,,,
2136059594,714261868,2136059594,714261868,,France,40210.0,Escource,,,undefined,,,,,
2136059599,441,2136059599,441,,France,40110.0,ONESSE LAHARIE,,,undefined,,,,,
2136059601,441,2136059601,441,,France,40110.0,Onesse-Laharie,,,undefined,,,,,
2136059607,757610510,2136059607,757610510,,France,,,,,undefined,,,,,
2136059617,925488251,2136059617,925488251,,France,65380.0,Ossun,,,undefined,,,,,
2136059618,164,2136059618,164,,France,64530.0,Barzun,,,undefined,,,,,
2136059629,308833142,2136059629,308833142,,France,64230.0,Denguin,,,undefined,,,,,
2136059636,2013861958,2136059636,2013861958,,France,65500.0,Escaunets,,,undefined,,,,,
2136059646,569,2136059646,569,,France,40160.0,YCHOUX,,,undefined,,,,,
2136059647,569,2136059647,569,,France,,,,,undefined,,,,,
2136059652,173,2136059652,173,,France,40410.0,Saugnacq-et-Muret,,,undefined,,,,,
2136059661,1744722477,2136059661,1744722477,,France,40630.0,Trensacq,,,undefined,,,,,
2136059666,1352674698,2136059666,1352674698,,France,40160.0,Ychoux,,,undefined,,,,,
2136059668,180,2136059668,180,,France,40410.0,SAUGNACQ ET MURET,,,undefined,,,,,
2136059669,1884596054,2136059669,1884596054,,France,64460.0,Bédeille,,,undefined,,,,,
213605967,1884596054,2136059670,1884596054,,France,64460.0,Bédeille,,,undefined,,,,,
2136059672,87,2136059672,87,,France,40420.0,LABRIT,,,undefined,,,,,
2136059676,1746476584,2136059676,1746476584,,France,64230.0,Uzein,,,undefined,,,,,
2136059677,1944709012,2136059677,1944709012,,France,64230.0,Uzein,,,undefined,,,,,
2136059679,33196908,2136059679,33196908,,France,64230.0,Uzein,,,undefined,,,,,
213605968,185678810,2136059680,185678810,,France,64230.0,Uzein,,,undefined,,,,,
2136059681,185678810,2136059681,185678810,,France,64230.0,Uzein,,,undefined,,,,,
2136059688,1638232216,2136059688,1638232216,,France,40410.0,Pissos,,,undefined,,,,,
213605972,1936498732,2136059720,1936498732,,France,40420.0,Le Sen,,,undefined,,,,,
2136059722,2114392102,2136059722,2114392102,,France,64530.0,Labatmale,,,undefined,,,,,
2136059724,692809249,2136059724,692809249,,France,64530.0,Pontacq,,,undefined,,,,,
2136059725,692809249,2136059725,692809249,,France,64530.0,PONTACQ,,,undefined,,,,,
2136059729,162,2136059729,162,,France,40390.0,ST MARTIN DE HINX,,,undefined,,,,,
2136059737,700,2136059737,700,,France,40400.0,MEILHAN,,,undefined,,,,,
2136059738,239971771,2136059738,239971771,,France,40140.0,Magescq,,,undefined,,,,,
2136059746,1373407412,2136059746,1373407412,,France,64460.0,Aast,,,undefined,,,,,
2136059747,646,2136059747,646,,France,40400.0,Meilhan,,,undefined,,,,,
2136059762,1686943192,2136059762,1686943192,,France,64230.0,Uzein,,,undefined,,,,,
2136059765,2062000775,2136059765,2062000775,,France,64270.0,Saint-Dos,,,undefined,,,,,
2136059766,83,2136059766,83,,France,64190.0,Préchacq-Navarrenx,,,undefined,,,,,
2136059767,83,2136059767,83,,France,64190.0,LAY LAMIDOU,,,undefined,,,,,
2136059769,1117,2136059769,1117,,France,64530.0,Pontacq,,,undefined,,,,,
2136059772,408,2136059772,408,,France,40230.0,Saint-Geours-de-Maremne,,,undefined,,,,,
2136059773,633,2136059773,633,,France,40250.0,Souprosse,,,undefined,,,,,
2136059774,633,2136059774,633,,France,40250.0,Souprosse,,,undefined,,,,,
2136059778,1372201959,2136059778,1372201959,,France,64230.0,Denguin,,,undefined,,,,,
2136059781,151,2136059781,151,,France,64230.0,DENGUIN,,,undefined,,,,,
2136059782,239971771,2136059782,239971771,,France,40140.0,Magescq,,,undefined,,,,,
2136059784,483,2136059784,483,,France,64530.0,Livron,,,undefined,,,,,
2136059785,314,2136059785,314,,France,64460.0,Ponson-Dessus,,,undefined,,,,,
2136059788,263,2136059788,263,,France,64170.0,Labastide-Cézéracq,,,undefined,,,,,
2136059789,460,2136059789,460,,France,40180.0,,,,undefined,,,,,
213605979,2053414299,2136059790,2053414299,,France,40160.0,YCHOUX,,,undefined,,,,,
2136059794,150,2136059794,150,,France,40630.0,Sabres,,,undefined,,,,,
2136059797,584,2136059797,584,,France,40210.0,Solférino,,,undefined,,,,,
2136059804,688,2136059804,688,,France,40430.0,SORE,,,undefined,,,,,
2136059807,1586524027,2136059807,1586524027,,France,40420.0,Labrit,,,undefined,,,,,
2136059813,497,2136059813,497,,France,,,,,undefined,,,,,
2136059815,501,2136059815,501,,France,,,,,undefined,,,,,
213605982,208,2136059820,208,,France,40430.0,Luxey,,,undefined,,,,,
2136059821,979320920,2136059821,979320920,,France,64230.0,Uzein,,,undefined,,,,,
2136059822,33196908,2136059822,33196908,,France,,,,,undefined,,,,,
2136059823,8,2136059823,8,,France,40260.0,Lesperon,,,undefined,,,,,
2136059837,212157358,2136059837,212157358,,France,64230.0,Uzein,,,undefined,,,,,
2136059838,812551803,2136059838,812551803,,France,64420.0,HOURS,,,undefined,,,,,
213605984,334629127,2136059840,334629127,,France,64530.0,Pontacq,,,undefined,,,,,
2136059841,334629127,2136059841,334629127,,France,64530.0,Pontacq,,,undefined,,,,,
2136059847,479,2136059847,479,,France,40140.0,Soustons,,,undefined,,,,,
2136059848,398,2136059848,398,,France,64420.0,Artigueloutan,,,undefined,,,,,
2136059849,638098086,2136059849,638098086,,France,64230.0,Uzein,,,undefined,,,,,
213605985,1182774760,2136059850,1182774760,,France,64230.0,Lescar,,,undefined,,,,,
2136059851,1182774760,2136059851,1182774760,,France,64230.0,Lescar,,,undefined,,,,,
2136059852,217,2136059852,217,,France,40410.0,Pissos,,,undefined,,,,,
2136059854,299,2136059854,299,,France,64160.0,Espéchède,,,undefined,,,,,
2136059867,925488251,2136059867,925488251,,France,65380.0,Ossun,,,undefined,,,,,
2136059879,223,2136059879,223,,France,64390.0,Athos-Aspis,,,undefined,,,,,
2136059881,196,2136059881,196,,France,64370.0,Arthez-de-Béarn,,,undefined,,,,,
2136059891,366,2136059891,366,,France,40210.0,Lüe,,,undefined,,,,,
2136059909,1801560817,2136059909,1801560817,,France,64530.0,Ger,,,undefined,,,,,
2136059913,378,2136059913,378,,France,64460.0,Ponson-Dessus,,,undefined,,,,,
2136059915,588184903,2136059915,588184903,,France,40990.0,Herm,,,undefined,,,,,
2136059931,979320920,2136059931,979320920,,France,64230.0,Uzein,,,undefined,,,,,
2136059933,494,2136059933,494,,France,33113.0,Bourideys,,,undefined,,,,,
2136059973,1539314354,2136059973,1539314354,,France,64530.0,Livron,,,undefined,,,,,
2136059975,1463527169,2136059975,1463527169,,France,64460.0,Ponson-Debat-Pouts,,,undefined,,,,,
2136059977,692809249,2136059977,692809249,,France,64530.0,PONTACQ,,,undefined,,,,,
2136059979,110,2136059979,110,,France,64370.0,Boumourt,,,undefined,,,,,
2136059985,1139576068,2136059985,1139576068,,France,40180.0,Rivière-Saas-et-Gourby,,,undefined,,,,,
2136059989,355,2136059989,355,,France,40420.0,Vert,,,undefined,,,,,
2136059999,2110360413,2136059999,2110360413,,France,40410.0,MANO,,,undefined,,,,,
2136060001,2110360413,2136060001,2110360413,,France,40410.0,MANO,,,undefined,,,,,
2136060007,1744722477,2136060007,1744722477,,France,40630.0,Trensacq,,,undefined,,,,,
2136060021,333302495,2136060021,333302495,,France,64530.0,Barzun,,,undefined,,,,,
2136060035,538277545,2136060035,538277545,,France,64230.0,Uzein,,,undefined,,,,,
2136060126,1092249811,2136060126,1092249811,,France,40210.0,LUE,,,undefined,,,,,
2136060128,846906249,2136060128,846906249,,France,64420.0,Lourenties,,,undefined,,,,,
2136060136,573,2136060136,573,,France,40430.0,Sore,,,undefined,,,,,
2136060144,615,2136060144,615,,France,40630.0,Sabres,,,undefined,,,,,
2136060148,1725150019,2136060148,1725150019,,France,33113.0,Bourideys,,,undefined,,,,,
213606015,1725994887,2136060150,1725994887,,France,33113.0,Bourideys,,,undefined,,,,,
2136060152,548272008,2136060152,548272008,,France,40140.0,MAGESCQ,,,undefined,,,,,
2136060154,245,2136060154,245,,France,40210.0,Commensacq,,,undefined,,,,,
2136060158,151,2136060158,151,,France,64230.0,Denguin,,,undefined,,,,,
2136060162,509906634,2136060162,509906634,,France,64530.0,Pontacq,,,undefined,,,,,
2136060164,1123356559,2136060164,1123356559,,France,64420.0,Hours,,,undefined,,,,,
2136060166,1070,2136060166,1070,,France,64530.0,Barzun,,,undefined,,,,,
2136060168,1566198166,2136060168,1566198166,,France,40400.0,MEILHAN,,,undefined,,,,,
213606017,1849168799,2136060170,1849168799,,France,40400.0,MEILHAN,,,undefined,,,,,
2136060176,634,2136060176,634,,France,40410.0,BELHADE,,,undefined,,,,,
213606018,260487066,2136060180,260487066,,France,40410.0,BELHADE,,,undefined,,,,,
2136060186,1746476584,2136060186,1746476584,,France,64230.0,Uzein,,,undefined,,,,,
2136060196,2053414299,2136060196,2053414299,,France,40160.0,YCHOUX,,,undefined,,,,,
2136060212,39,2136060212,39,,France,40210.0,LUE,,,undefined,,,,,
2136060214,1280186137,2136060214,1280186137,,France,40420.0,Vert,,,undefined,,,,,
2136060222,507,2136060222,507,,France,40210.0,Commensacq,,,undefined,,,,,
213606023,366,2136060230,366,,France,40210.0,LUE,,,undefined,,,,,
2136060232,571,2136060232,571,,France,40410.0,Saugnacq-et-Muret,,,undefined,,,,,
2136060234,571,2136060234,571,,France,40410.0,Saugnacq-et-Muret,,,undefined,,,,,
2136060236,1216717679,2136060236,1216717679,,France,40210.0,Lüe,,,undefined,,,,,
2136060246,2009225516,2136060246,2009225516,,France,64530.0,Barzun,,,undefined,,,,,
2136060248,33196908,2136060248,33196908,,France,64230.0,Uzein,,,undefined,,,,,
2136060254,1747042499,2136060254,1747042499,,France,64230.0,Uzein,,,undefined,,,,,
2136060256,498077272,2136060256,498077272,,France,64230.0,Denguin,,,undefined,,,,,
213606026,191,2136060260,191,,France,64160.0,Espéchède,,,undefined,,,,,
2136060264,297,2136060264,297,,France,40300.0,Labatut,,,undefined,,,,,
2136060268,241,2136060268,241,,France,40160.0,Gastes,,,undefined,,,,,
213606027,241,2136060270,241,,France,40160.0,Gastes,,,undefined,,,,,
2136060294,669664697,2136060294,669664697,,France,40990.0,Herm,,,undefined,,,,,
2136060298,1892182967,2136060298,1892182967,,France,40210.0,SOLFERINO,,,undefined,,,,,
213606031,1338838816,2136060310,1338838816,,France,64230.0,Uzein,,,undefined,,,,,
2136060312,1338838816,2136060312,1338838816,,France,64230.0,UZEIN,,,undefined,,,,,
213606032,1045142524,2136060320,1045142524,,France,40410.0,Mano,,,undefined,,,,,
2136060326,1307472261,2136060326,1307472261,,France,64420.0,Lourenties,,,undefined,,,,,
2136060328,107869169,2136060328,107869169,,France,64420.0,Lourenties,,,undefined,,,,,
213606033,1819531530,2136060330,1819531530,,France,64230.0,Uzein,,,undefined,,,,,
2136060332,1709667929,2136060332,1709667929,,France,64410.0,Larreule,,,undefined,,,,,
2136060334,608,2136060334,608,,France,64460.0,Bédeille,,,undefined,,,,,
2136060336,2053414299,2136060336,2053414299,,France,40160.0,Ychoux,,,undefined,,,,,
213606034,2053414299,2136060340,2053414299,,France,40160.0,Ychoux,,,undefined,,,,,
2136060346,319,2136060346,319,,France,40410.0,Saugnacq-et-Muret,,,undefined,,,,,
2136060348,447084642,2136060348,447084642,,France,40410.0,LIPOSTHEY,,,undefined,,,,,
2136060354,33196908,2136060354,33196908,,France,64230.0,UZEIN,,,undefined,,,,,
2136060356,2110360413,2136060356,2110360413,,France,40410.0,MANO,,,undefined,,,,,
2136060379,512,2136060379,512,,France,40420.0,Vert,,,undefined,,,,,
2136060389,146,2136060389,146,,France,40430.0,Sore,,,undefined,,,,,
2136060391,146,2136060391,146,,France,40430.0,Sore,,,undefined,,,,,
2136060395,893264960,2136060395,893264960,,France,40160.0,Ychoux,,,undefined,,,,,
2136060399,308,2136060399,308,,France,40630.0,Sabres,,,undefined,,,,,
2136060401,291,2136060401,291,,France,40630.0,Sabres,,,undefined,,,,,
2136060403,154,2136060403,154,,France,40110.0,MORCENX LA NOUVELLE,,,undefined,,,,,
2136060407,223,2136060407,223,,France,64390.0,Athos-Aspis,,,undefined,,,,,
2136060409,2000885860,2136060409,2000885860,,France,64130.0,Lichos,,,undefined,,,,,
2136060411,304,2136060411,304,,France,40230.0,Saint-Geours-de-Maremne,,,undefined,,,,,
2136060413,1160609581,2136060413,1160609581,,France,40430.0,Sore,,,undefined,,,,,
2136060416,977305502,2136060416,977305502,,France,40200.0,Mimizan,,,undefined,,,,,
2136060418,977305502,2136060418,977305502,,France,40200.0,Mimizan,,,undefined,,,,,
213606042,634,2136060420,634,,France,40410.0,Belhade,,,undefined,,,,,
2136060422,634,2136060422,634,,France,40430.0,Argelouse,,,undefined,,,,,
2136060424,548272008,2136060424,548272008,,France,40140.0,Magescq,,,undefined,,,,,
2136060428,181,2136060428,181,,France,40110.0,Ousse-Suzan,,,undefined,,,,,
213606043,498,2136060430,498,,France,40210.0,Lüe,,,undefined,,,,,
2136060432,64,2136060432,64,,France,40430.0,Sore,,,undefined,,,,,
2136060434,2110360413,2136060434,2110360413,,France,40410.0,Mano,,,undefined,,,,,
2136060436,2110360413,2136060436,2110360413,,France,40410.0,Mano,,,undefined,,,,,
2136060439,2110360413,2136060439,2110360413,,France,40410.0,Mano,,,undefined,,,,,
2136060441,2110360413,2136060441,2110360413,,France,33113.0,Saint-Symphorien,,,undefined,,,,,
2136060443,2060200249,2136060443,2060200249,,France,33830.0,Lugos,,,undefined,,,,,
2136060445,2060200249,2136060445,2060200249,,France,33830.0,Lugos,,,undefined,,,,,
2136060447,292,2136060447,292,,France,40410.0,SAUGNACQ ET MURET,,,undefined,,,,,
2136060453,1352674698,2136060453,1352674698,,France,40160.0,Ychoux,,,undefined,,,,,
2136060455,553,2136060455,553,,France,40110.0,Onesse-Laharie,,,undefined,,,,,
2136060457,1412398834,2136060457,1412398834,,France,40170.0,Mézos,,,undefined,,,,,
2136060459,1216717679,2136060459,1216717679,,France,40210.0,Lüe,,,undefined,,,,,
2136060461,1216717679,2136060461,1216717679,,France,40210.0,Solférino,,,undefined,,,,,
2136060465,546,2136060465,546,,France,40410.0,Saugnacq-et-Muret,,,undefined,,,,,
2136060467,497,2136060467,497,,France,40410.0,Saugnacq-et-Muret,,,undefined,,,,,
2136060471,447084642,2136060471,447084642,,France,40410.0,Pissos,,,undefined,,,,,
2136060473,447084642,2136060473,447084642,,France,40410.0,Pissos,,,undefined,,,,,
2136060475,1725150019,2136060475,1725150019,,France,33113.0,Bourideys,,,undefined,,,,,
2136060477,1207122921,2136060477,1207122921,,France,40210.0,Solférino,,,undefined,,,,,
2136060481,1207122921,2136060481,1207122921,,France,40210.0,Solférino,,,undefined,,,,,
2136060483,1892182967,2136060483,1892182967,,France,40210.0,Solférino,,,undefined,,,,,
2136060485,723,2136060485,723,,France,40260.0,Lesperon,,,undefined,,,,,
2136060487,8,2136060487,8,,France,40260.0,Lesperon,,,undefined,,,,,
2136060489,39,2136060489,39,,France,40210.0,Lüe,,,undefined,,,,,
2136060491,108631457,2136060491,108631457,,France,40410.0,Pissos,,,undefined,,,,,
2136060493,1206438196,2136060493,1206438196,,France,40200.0,Saint-Paul-en-Born,,,undefined,,,,,
2136060496,494,2136060496,494,,France,33113.0,Bourideys,,,undefined,,,,,
2136060498,170,2136060498,170,,France,40410.0,Pissos,,,undefined,,,,,
21360605,170,2136060500,170,,France,40410.0,Pissos,,,undefined,,,,,
2136060502,2119139879,2136060502,2119139879,,France,64530.0,PONTACQ,,,undefined,,,,,
2136060504,1201375056,2136060504,1201375056,,France,64420.0,ESPOEY,,,undefined,,,,,
2136060506,1266842046,2136060506,1266842046,,France,65380.0,LAMARQUE PONTACQ,,,undefined,,,,,
2136060509,838627798,2136060509,838627798,,France,33830.0,Lugos,,,undefined,,,,,
2136060511,838627798,2136060511,838627798,,France,33830.0,Lugos,,,undefined,,,,,
2136060514,1744722477,2136060514,1744722477,,France,40630.0,Trensacq,,,undefined,,,,,
2136060518,210,2136060518,210,,France,40210.0,Solférino,,,undefined,,,,,
213606052,208,2136060520,208,,France,40430.0,Luxey,,,undefined,,,,,
2136060522,208,2136060522,208,,France,40430.0,Luxey,,,undefined,,,,,
2136060524,757610510,2136060524,757610510,,France,40410.0,Pissos,,,undefined,,,,,
2136060528,1995317459,2136060528,1995317459,,France,40410.0,Mano,,,undefined,,,,,
213606053,1995317459,2136060530,1995317459,,France,40410.0,Mano,,,undefined,,,,,
2136060532,1045142524,2136060532,1045142524,,France,40410.0,Mano,,,undefined,,,,,
2136060534,1045142524,2136060534,1045142524,,France,40410.0,Mano,,,undefined,,,,,
2136060536,424,2136060536,424,,France,64530.0,Ger,,,undefined,,,,,
2136060539,321449295,2136060539,321449295,,France,64160.0,SEDZERE,,,undefined,,,,,
2136060543,1948635134,2136060543,1948635134,,France,64530.0,PONTACQ,,,undefined,,,,,
2136060546,1223775966,2136060546,1223775966,,France,40230.0,Saubrigues,,,undefined,,,,,
2136060548,440,2136060548,440,,France,40090.0,Uchacq-et-Parentis,,,undefined,,,,,
213606055,1438513358,2136060550,1438513358,,France,40140.0,Magescq,,,undefined,,,,,
2136060552,558,2136060552,558,,France,40230.0,Josse,,,undefined,,,,,
2136060554,932868121,2136060554,932868121,,France,40090.0,Geloux,,,undefined,,,,,
2136060556,304,2136060556,304,,France,40230.0,Saint-Geours-de-Maremne,,,undefined,,,,,
2136060558,173,2136060558,173,,France,40410.0,Saugnacq-et-Muret,,,undefined,,,,,
2136060562,1727742764,2136060562,1727742764,,France,40410.0,Saugnacq-et-Muret,,,undefined,,,,,
2136060565,2110360413,2136060565,2110360413,,France,40410.0,Mano,,,undefined,,,,,
2136060568,1936498732,2136060568,1936498732,,France,40420.0,Le Sen,,,undefined,,,,,
2136060571,569,2136060571,569,,France,40160.0,Ychoux,,,undefined,,,,,
2136060575,512,2136060575,512,,France,40420.0,Vert,,,undefined,,,,,
2136060577,255,2136060577,255,,France,40210.0,Lüe,,,undefined,,,,,
2136060579,295976905,2136060579,295976905,,France,40120.0,Lencouacq,,,undefined,,,,,
2136060582,1937718181,2136060582,1937718181,,France,40160.0,Ychoux,,,undefined,,,,,
2136060587,2110360413,2136060587,2110360413,,France,33113.0,ST SYMPHORIEN,,,undefined,,,,,
2136060589,2110360413,2136060589,2110360413,,France,33113.0,ST SYMPHORIEN,,,undefined,,,,,
2136060591,2110360413,2136060591,2110360413,,France,33113.0,ST SYMPHORIEN,,,undefined,,,,,
2136060593,183,2136060593,183,,France,40110.0,ONESSE LAHARIE,,,undefined,,,,,
2136060595,146,2136060595,146,,France,40430.0,SORE,,,undefined,,,,,
2136060597,146,2136060597,146,,France,40430.0,SORE,,,undefined,,,,,
2136060599,893264960,2136060599,893264960,,France,40160.0,YCHOUX,,,undefined,,,,,
2136060601,245,2136060601,245,,France,40210.0,COMMENSACQ,,,undefined,,,,,
2136060603,368,2136060603,368,,France,40180.0,,,,undefined,,,,,
2136060605,64,2136060605,64,,France,40410.0,PISSOS,,,undefined,,,,,
2136060607,64,2136060607,64,,France,40410.0,PISSOS,,,undefined,,,,,
2136060609,497,2136060609,497,,France,40295.0,,,,undefined,,,,,
2136060611,497,2136060611,497,,France,40295.0,,,,undefined,,,,,
2136060613,546,2136060613,546,,France,40410.0,SAUGNACQ ET MURET,,,undefined,,,,,
2136060615,546,2136060615,546,,France,40410.0,SAUGNACQ ET MURET,,,undefined,,,,,
2136060617,546,2136060617,546,,France,40295.0,,,,undefined,,,,,
2136060619,1216717679,2136060619,1216717679,,France,40094.0,,,,undefined,,,,,
2136060621,1216717679,2136060621,1216717679,,France,40210.0,ESCOURCE,,,undefined,,,,,
2136060623,304,2136060623,304,,France,40230.0,ST GEOURS DE MAREMNE,,,undefined,,,,,
2136060625,304,2136060625,304,,France,40300.0,ORIST,,,undefined,,,,,
2136060627,573,2136060627,573,,France,40430.0,SORE,,,undefined,,,,,
2136060629,757610510,2136060629,757610510,,France,40410.0,PISSOS,,,undefined,,,,,
2136060631,977305502,2136060631,977305502,,France,40200.0,MIMIZAN,,,undefined,,,,,
2136060633,108631457,2136060633,108631457,,France,40430.0,SORE,,,undefined,,,,,
2136060635,241,2136060635,241,,France,40410.0,PISSOS,,,undefined,,,,,
2136060637,241,2136060637,241,,France,40410.0,PISSOS,,,undefined,,,,,
2136060639,1995317459,2136060639,1995317459,,France,40410.0,MANO,,,undefined,,,,,
2136060641,1995317459,2136060641,1995317459,,France,40410.0,MANO,,,undefined,,,,,
2136060643,1995317459,2136060643,1995317459,,France,40410.0,MANO,,,undefined,,,,,
2136060645,1018565807,2136060645,1018565807,,France,33113.0,ST SYMPHORIEN,,,undefined,,,,,
2136060649,33196908,2136060649,33196908,,France,64230.0,UZEIN,,,undefined,,,,,
2136060651,519398927,2136060651,519398927,,France,40250.0,TOULOUZETTE,,,undefined,,,,,
2136060653,213365007,2136060653,213365007,,France,64300.0,BALANSUN,,,undefined,,,,,
2136060655,1926497248,2136060655,1926497248,,France,40250.0,TOULOUZETTE,,,undefined,,,,,
2136060657,1926497248,2136060657,1926497248,,France,40250.0,TOULOUZETTE,,,undefined,,,,,
2136060661,181,2136060661,181,,France,40110.0,OUSSE SUZAN,,,undefined,,,,,
2136060663,1412398834,2136060663,1412398834,,France,40230.0,ST JEAN DE MARSACQ,,,undefined,,,,,
2136060663,761,2136060663,761,,France,40264.0,Saint-Jean-de-Marsacq,,,undefined,,,,,
2136060665,1223775966,2136060665,1223775966,,France,40230.0,SAUBRIGUES,,,undefined,,,,,
2136060667,285472006,2136060667,285472006,,France,40250.0,SOUPROSSE,,,undefined,,,,,
2136060669,739215648,2136060669,739215648,,France,40250.0,LAMOTHE,,,undefined,,,,,
2136060672,739215648,2136060672,739215648,,France,40500.0,CAUNA,,,undefined,,,,,
2136060674,926768752,2136060674,926768752,,France,40430.0,LUXEY,,,undefined,,,,,
2136060676,1725150019,2136060676,1725150019,,France,33113.0,BOURIDEYS,,,undefined,,,,,
2136060678,1936498732,2136060678,1936498732,,France,40420.0,LE SEN,,,undefined,,,,,
213606068,1936498732,2136060680,1936498732,,France,40420.0,LE SEN,,,undefined,,,,,
2136060682,739215648,2136060682,739215648,,France,40500.0,CAUNA,,,undefined,,,,,
2136060684,841921681,2136060684,841921681,,France,40110.0,YGOS ST SATURNIN,,,undefined,,,,,
2136060686,442,2136060686,442,,France,64530.0,GER,,,undefined,,,,,
2136060688,1922855419,2136060688,1922855419,,France,40210.0,LUE,,,undefined,,,,,
213606069,1922855419,2136060690,1922855419,,France,40430.0,CALLEN,,,undefined,,,,,
2136060692,1922855419,2136060692,1922855419,,France,33830.0,BELIN BELIET,,,undefined,,,,,
2136060694,1613121645,2136060694,1613121645,,France,40630.0,SABRES,,,undefined,,,,,
2136060696,1613121645,2136060696,1613121645,,France,40420.0,GAREIN,,,undefined,,,,,
21360607,1032,2136060700,1032,,France,65320.0,GARDERES,,,undefined,,,,,
2136060704,447084642,2136060704,447084642,,France,40410.0,PISSOS,,,undefined,,,,,
2136060706,447084642,2136060706,447084642,,France,40410.0,PISSOS,,,undefined,,,,,
2136060709,627831154,2136060709,627831154,,France,40170.0,MEZOS,,,undefined,,,,,
2136060709,1412398834,2136060709,1412398834,,France,40182.0,Mézos,,,undefined,,,,,
2136060711,644461022,2136060711,644461022,,France,64800.0,BENEJACQ,,,undefined,,,,,
2136060713,1193135122,2136060713,1193135122,,France,64420.0,HOURS,,,undefined,,,,,
2136060715,1117,2136060715,1117,,France,64530.0,PONTACQ,,,undefined,,,,,
2136060717,1193,2136060717,1193,,France,64530.0,GER,,,undefined,,,,,
2136060719,1508080922,2136060719,1508080922,,France,65500.0,ESCAUNETS,,,undefined,,,,,
2136060727,1235526896,2136060727,1235526896,,France,40700.0,HAGETMAU,,,undefined,,,,,
2136060729,1208506251,2136060729,1208506251,,France,40500.0,SARRAZIET,,,undefined,,,,,
2136060731,588184903,2136060731,588184903,,France,40990.0,HERM,,,undefined,,,,,
2136060735,208,2136060735,208,,France,40430.0,LUXEY,,,undefined,,,,,
2136060739,1352674698,2136060739,1352674698,,France,40160.0,PARENTIS EN BORN,,,undefined,,,,,
2136060741,1285937921,2136060741,1285937921,,France,64530.0,PONTACQ,,,undefined,,,,,
2136060743,154,2136060743,154,,France,40630.0,SABRES,,,undefined,,,,,
2136060745,154,2136060745,154,,France,40630.0,SABRES,,,undefined,,,,,
2136060747,838627798,2136060747,838627798,,France,33830.0,LUGOS,,,undefined,,,,,
2136060749,838627798,2136060749,838627798,,France,33830.0,LUGOS,,,undefined,,,,,
2136060751,2060200249,2136060751,2060200249,,France,33830.0,Lugos,,,undefined,,,,,
2136060753,2060200249,2136060753,2060200249,,France,33830.0,Lugos,,,undefined,,,,,
2136060755,319,2136060755,319,,France,40410.0,Saugnacq-et-Muret,,,undefined,,,,,
2136060757,260487066,2136060757,260487066,,France,40410.0,BELHADE,,,undefined,,,,,
2136060759,110,2136060759,110,,France,64370.0,BOUMOURT,,,undefined,,,,,
2136060761,110,2136060761,110,,France,64370.0,BOUMOURT,,,undefined,,,,,
2136060763,1555984454,2136060763,1555984454,,France,64150.0,ABIDOS,,,undefined,,,,,
2136060765,1555984454,2136060765,1555984454,,France,64150.0,LAGOR,,,undefined,,,,,
2136060767,750670235,2136060767,750670235,,France,40500.0,COUDURES,,,undefined,,,,,
2136060769,147208796,2136060769,147208796,,France,64270.0,PUYOO,,,undefined,,,,,
2136060771,308,2136060771,308,,France,40210.0,SOLFERINO,,,undefined,,,,,
2136060773,1805568814,2136060773,1805568814,,France,40630.0,TRENSACQ,,,undefined,,,,,
2136060775,1289994434,2136060775,1289994434,,France,40167.0,Luxey,,,undefined,,,,,
2136060777,688,2136060777,688,,France,40430.0,SORE,,,undefined,,,,,
2136060779,1744722477,2136060779,1744722477,,France,40630.0,TRENSACQ,,,undefined,,,,,
2136060782,1195921295,2136060782,1195921295,,France,33190.0,FLOUDES,,,undefined,,,,,
2136060784,2082829106,2136060784,2082829106,,France,33190.0,LOUPIAC DE LA REOLE,,,undefined,,,,,
2136060786,823876041,2136060786,823876041,,France,33190.0,NOAILLAC,,,undefined,,,,,
2136060788,220,2136060788,220,,France,40630.0,SABRES,,,undefined,,,,,
213606079,1709667929,2136060790,1709667929,,France,64410.0,LARREULE,,,undefined,,,,,
2136060792,537842861,2136060792,537842861,,France,64230.0,UZEIN,,,undefined,,,,,
2136060794,1758,2136060794,1758,,France,64130.0,ESPES UNDUREIN,,,undefined,,,,,
2136060796,1051785484,2136060796,1051785484,,France,64530.0,PONTACQ,,,undefined,,,,,
2136060798,1068,2136060798,1068,,France,64530.0,LIVRON,,,undefined,,,,,
21360608,373,2136060800,373,,France,64530.0,GER,,,undefined,,,,,
2136060802,1006,2136060802,1006,,France,64530.0,GER,,,undefined,,,,,
2136060804,1459751663,2136060804,1459751663,,France,31390.0,LAFITTE VIGORDANE,,,undefined,,,,,
2136060806,554712061,2136060806,554712061,,France,31390.0,LAFITTE VIGORDANE,,,undefined,,,,,
2136060808,1249102376,2136060808,1249102376,,France,31220.0,MARTRES TOLOSANE,,,undefined,,,,,
213606081,305780571,2136060810,305780571,,France,31390.0,LAFITTE VIGORDANE,,,undefined,,,,,
2136060812,617860784,2136060812,617860784,,France,31600.0,LAMASQUERE,,,undefined,,,,,
2136060814,1549481285,2136060814,1549481285,,France,31120.0,PINSAGUEL,,,undefined,,,,,
2136060816,272042699,2136060816,272042699,,France,31310.0,RIEUX VOLVESTRE,,,undefined,,,,,
2136060818,925488251,2136060818,925488251,,France,64530.0,PONTACQ,,,undefined,,,,,
213606082,1070,2136060820,1070,,France,64160.0,SERRES MORLAAS,,,undefined,,,,,
2136060824,1559607076,2136060824,1559607076,,France,31220.0,CAZERES,,,undefined,,,,,
2136060826,1559607076,2136060826,1559607076,,France,31220.0,CAZERES,,,undefined,,,,,
2136060829,997893270,2136060829,997893270,,France,31220.0,COULADERE,,,undefined,,,,,
2136060831,907620938,2136060831,907620938,,France,31410.0,LONGAGES,,,undefined,,,,,
2136060833,1164150043,2136060833,1164150043,,France,31410.0,ST HILAIRE,,,undefined,,,,,
2136060835,1289994434,2136060835,1289994434,,France,33190.0,BLAIGNAC,,,undefined,,,,,
2136060835,627831154,2136060835,627831154,,France,33054.0,Blaignac,,,undefined,,,,,
2136060837,627831154,2136060837,627831154,,France,33190.0,BLAIGNAC,,,undefined,,,,,
2136060839,627831154,2136060839,627831154,,France,33190.0,BLAIGNAC,,,undefined,,,,,
2136060841,1339129661,2136060841,1339129661,,France,64230.0,DENGUIN,,,undefined,,,,,
2136060843,1224023369,2136060843,1224023369,,France,40410.0,PISSOS,,,undefined,,,,,
2136060845,176833556,2136060845,176833556,,France,64160.0,ST LAURENT BRETAGNE,,,undefined,,,,,
2136060847,299,2136060847,299,,France,64160.0,ESPECHEDE,,,undefined,,,,,
2136060849,65,2136060849,65,,France,64460.0,PONSON DESSUS,,,undefined,,,,,
2136060851,326,2136060851,326,,France,65320.0,SERON,,,undefined,,,,,
2136060853,326,2136060853,326,,France,65320.0,SERON,,,undefined,,,,,
2136060855,206052480,2136060855,206052480,,France,64420.0,ESLOURENTIES DABAN,,,undefined,,,,,
2136060857,1756175453,2136060857,1756175453,,France,47180.0,MEILHAN SUR GARONNE,,,undefined,,,,,
2136060859,1659032209,2136060859,1659032209,,France,64350.0,MOMY,,,undefined,,,,,
2136060861,1659032209,2136060861,1659032209,,France,64350.0,MOMY,,,undefined,,,,,
2136060863,1845486439,2136060863,1845486439,,France,64400.0,MOUMOUR,,,undefined,,,,,
2136060865,1845486439,2136060865,1845486439,,France,64400.0,MOUMOUR,,,undefined,,,,,
2136060867,1845486439,2136060867,1845486439,,France,64400.0,MOUMOUR,,,undefined,,,,,
2136060869,1265728314,2136060869,1265728314,,France,40500.0,COUDURES,,,undefined,,,,,
2136060871,593,2136060871,593,,France,64800.0,BEUSTE,,,undefined,,,,,
2136060874,207991815,2136060874,207991815,,France,64800.0,MIREPEIX,,,undefined,,,,,
2136060876,207991815,2136060876,207991815,,France,64800.0,LAGOS,,,undefined,,,,,
2136060878,479148846,2136060878,479148846,,France,64800.0,LAGOS,,,undefined,,,,,
213606088,553,2136060880,553,,France,40110.0,ONESSE LAHARIE,,,undefined,,,,,
2136060882,553,2136060882,553,,France,40110.0,ONESSE LAHARIE,,,undefined,,,,,
2136060884,553,2136060884,553,,France,40110.0,ONESSE LAHARIE,,,undefined,,,,,
2136060886,553,2136060886,553,,France,40210.0,,,,undefined,,,,,
2136060888,553,2136060888,553,,France,40110.0,ONESSE LAHARIE,,,undefined,,,,,
213606089,2000885860,2136060890,2000885860,,France,64130.0,ESPES UNDUREIN,,,undefined,,,,,
2136060893,321449295,2136060893,321449295,,France,64160.0,SEDZERE,,,undefined,,,,,
2136060895,345,2136060895,345,,France,64420.0,ANDOINS,,,undefined,,,,,
2136060898,191,2136060898,191,,France,64160.0,ESPECHEDE,,,undefined,,,,,
21360609,846906249,2136060900,846906249,,France,64420.0,LOURENTIES,,,undefined,,,,,
2136060902,2110360413,2136060902,2110360413,,France,40410.0,MANO,,,undefined,,,,,
2136060906,2110360413,2136060906,2110360413,,France,40410.0,MANO,,,undefined,,,,,
2136060909,1036567928,2136060909,1036567928,,France,33124.0,AILLAS,,,undefined,,,,,
2136060911,1036567928,2136060911,1036567928,,France,33124.0,AILLAS,,,undefined,,,,,
2136060913,1036567928,2136060913,1036567928,,France,33124.0,AILLAS,,,undefined,,,,,
2136060915,1036567928,2136060915,1036567928,,France,33124.0,AILLAS,,,undefined,,,,,
2136060919,488,2136060919,488,,France,40200.0,MIMIZAN,,,undefined,,,,,
2136060922,498,2136060922,498,,France,40210.0,LUE,,,undefined,,,,,
2136060931,841921681,2136060931,841921681,,France,,,,,undefined,,,,,
2136060935,26,2136060935,26,,France,,,,,undefined,,,,,
2136060937,2136060937,2136060937,562458805,,France,,,,,undefined,,,,,
2136060939,2136060939,2136060939,1976030800,,France,,,,,undefined,,,,,
2136060941,2136060941,2136060941,1976030800,,France,,,,,undefined,,,,,
2136060943,2136060943,2136060943,1976030800,,France,,,,,undefined,,,,,
2136060947,1235526896,2136060947,1235526896,,France,,,,,undefined,,,,,
2136060951,1235526896,2136060951,1235526896,,France,,,,,undefined,,,,,
2136060953,750670235,2136060953,750670235,,France,,,,,undefined,,,,,
2136060955,750670235,2136060955,750670235,,France,,,,,undefined,,,,,
2136060957,750670235,2136060957,750670235,,France,,,,,undefined,,,,,
2136060965,1613121645,2136060965,1613121645,,France,,,,,undefined,,,,,
2136060967,1613121645,2136060967,1613121645,,France,,,,,undefined,,,,,
2136060975,1922855419,2136060975,1922855419,,France,,,,,undefined,,,,,
2136060977,1922855419,2136060977,1922855419,,France,,,,,undefined,,,,,
2136060986,1412398834,2136060986,1412398834,,France,,,,,undefined,,,,,
2136060988,2136060988,2136060988,1379506223,,France,,,,,undefined,,,,,
213606099,571,2136060990,571,,France,,,,,undefined,,,,,
2136060994,2136060994,2136060994,177143196,,France,,,,,undefined,,,,,
2136061011,571,2136061011,571,,France,,,,,undefined,,,,,
2136061019,2136061019,2136061019,5,,France,,,,,undefined,,,,,
2136061025,1892182967,2136061025,1892182967,,France,,,,,undefined,,,,,
2136061033,2136061033,2136061033,360856307,,France,,,,,undefined,,,,,
2136061058,2136061058,2136061058,972,,France,,,,,undefined,,,,,
2136061074,627831154,2136061074,627831154,,France,,,,,undefined,,,,,
213606109,213606109,2136061090,346969133,,France,,,,,undefined,,,,,
2136061096,571,2136061096,571,,France,,,,,undefined,,,,,
2136061109,2136061109,2136061109,1467799137,,France,,,,,undefined,,,,,
2136061111,2136061111,2136061111,1376201078,,France,,,,,undefined,,,,,
2136061115,571,2136061115,571,,France,,,,,undefined,,,,,
2136061117,1193135122,2136061117,1193135122,,France,,,,,undefined,,,,,
2136061125,2136061125,2136061125,1455913674,,France,,,,,undefined,,,,,
2136061133,977305502,2136061133,977305502,,France,,,,,undefined,,,,,
2136061144,1756175453,2136061144,1756175453,,France,,,,,undefined,,,,,
2136061152,2136061152,2136061152,1249513319,,France,,,,,undefined,,,,,
2136061154,2136061154,2136061154,1249513319,,France,,,,,undefined,,,,,
2136061156,2136061156,2136061156,808175454,,France,,,,,undefined,,,,,
2136061164,571,2136061164,571,,France,,,,,undefined,,,,,
2136061171,1160609581,2136061171,1160609581,,France,,,,,undefined,,,,,
2136061179,2110360413,2136061179,2110360413,,France,,,,,undefined,,,,,
2136061181,2110360413,2136061181,2110360413,,France,,,,,undefined,,,,,
216,495,216,495,,France,64420.0,Limendous,,,undefined,,,,,
218,212,218,212,,France,64530.0,Livron,,,undefined,,,,,
219,530,219,530,,France,64530.0,Livron,,,undefined,,,,,
221,420,221,420,,France,64352.0,,,,undefined,,,,,
222,2013861958,222,2013861958,,France,64343.0,,,,undefined,,,,,
225,475,225,475,,France,64530.0,Pontacq,,,undefined,,,,,
234077668,1206438196,234077668,1206438196,,France,,,,,undefined,,,,,
237,191,237,191,,France,64160.0,Espéchède,,,undefined,,,,,
24,450,240,450,,France,64530.0,Livron,,,undefined,,,,,
241,450,241,450,,France,64530.0,Livron,,,undefined,,,,,
243,326,243,326,,France,65320.0,Séron,,,undefined,,,,,
243528574,387,243528574,387,,France,33470.0,LE TEICH,,,undefined,,,,,
2465986,505,2465986,505,,France,64420.0,Artigueloutan,,,undefined,,,,,
248,164,248,164,,France,64530.0,Livron,,,undefined,,,,,
249,412,249,412,,France,64160.0,Sedzère,,,undefined,,,,,
251,398,251,398,,France,64420.0,HOURS,,,undefined,,,,,
252033296,220,252033296,220,,France,40630.0,Sabres,,,undefined,,,,,
253,2013861958,253,2013861958,,France,64420.0,Lourenties,,,undefined,,,,,
254,438,254,438,,France,64530.0,Pontacq,,,undefined,,,,,
26,332,260,332,,France,65500.0,Escaunets,,,undefined,,,,,
262,486471631,262,486471631,,France,40300.0,Orist,,,undefined,,,,,
271,292,271,292,,France,40410.0,Saugnacq-et-Muret,,,undefined,,,,,
273,418,273,418,,France,40110.0,ONESSE LAHARIE,,,undefined,,,,,
274,488,274,488,,France,40200.0,Mimizan,,,undefined,,,,,
276,210,276,210,,France,40210.0,SOLFERINO,,,undefined,,,,,
27966655,334,27966655,334,,France,64190.0,Ossenx,,,undefined,,,,,
292,576,292,576,,France,40230.0,ST GEOURS DE MAREMNE,,,undefined,,,,,
298,169,298,169,,France,64400.0,ORIN,,,undefined,,,,,
301,232,301,232,,France,64460.0,Ponson-Dessus,,,undefined,,,,,
304,521,304,521,,France,64530.0,GER,,,undefined,,,,,
305,442,305,442,,France,64530.0,Ger,,,undefined,,,,,
311,273,311,273,,France,40990.0,Saint-Paul-lès-Dax,,,undefined,,,,,
322,263,322,263,,France,64300.0,Arance,,,undefined,,,,,
323,548,323,548,,France,64230.0,DENGUIN,,,undefined,,,,,
324,571,324,571,,France,40410.0,Saugnacq-et-Muret,,,undefined,,,,,
328834004,1072,328834004,1072,,France,64530.0,Barzun,,,undefined,,,,,
335,180,335,180,,France,40410.0,Saugnacq-et-Muret,,,undefined,,,,,
34,139,340,139,,France,64300.0,ORTHEZ,,,undefined,,,,,
343,492,343,492,,France,64530.0,Pontacq,,,undefined,,,,,
348164829,537,348164829,537,,France,64390.0,Guinarthe-Parenties,,,undefined,,,,,
349,197,349,197,,France,65320.0,Séron,,,undefined,,,,,
349,520,349,520,,France,65422.0,65422,,,undefined,,,,,
35,209,350,209,,France,64530.0,PONTACQ,,,undefined,,,,,
355308112,183,355308112,183,,France,40110.0,Onesse-Laharie,,,undefined,,,,,
356,299,356,299,,France,64160.0,ESPECHEDE,,,undefined,,,,,
357,299,357,299,,France,64160.0,Espéchède,,,undefined,,,,,
358,483,358,483,,France,64530.0,Livron,,,undefined,,,,,
359,407,359,407,,France,64530.0,Pontacq,,,undefined,,,,,
369,171,369,171,,France,64190.0,Narp,,,undefined,,,,,
37,100,370,100,,France,64190.0,Narp,,,undefined,,,,,
38,183,38,183,,France,,,,,undefined,,,,,
38,411,380,411,,France,40700.0,Monségur,,,undefined,,,,,
396,504,396,504,,France,64160.0,Morlaas,,,undefined,,,,,
397,443,397,443,,France,65320.0,Gardères,,,undefined,,,,,
399,299,399,299,,France,64160.0,ESPECHEDE,,,undefined,,,,,
401,339,401,339,,France,64420.0,Artigueloutan,,,undefined,,,,,
403,333,403,333,,France,64370.0,Hagetaubin,,,undefined,,,,,
405,312,405,312,,France,64300.0,LACADEE,,,undefined,,,,,
407,347,407,347,,France,64230.0,Bougarber,,,undefined,,,,,
41,416,410,416,,France,64170.0,Lacq,,,undefined,,,,,
415,211,415,211,,France,65320.0,Séron,,,undefined,,,,,
419,272,419,272,,France,40990.0,Saint-Vincent-de-Paul,,,undefined,,,,,
43,292,430,292,,France,40410.0,Saugnacq-et-Muret,,,undefined,,,,,
433,319,433,319,,France,40410.0,Saugnacq-et-Muret,,,undefined,,,,,
434,355,434,355,,France,40420.0,Vert,,,undefined,,,,,
446867283,548,446867283,548,,France,64230.0,Denguin,,,undefined,,,,,
449,512,449,512,,France,40420.0,Vert,,,undefined,,,,,
463,461,463,461,,France,64160.0,Espéchède,,,undefined,,,,,
464,353,464,353,,France,64800.0,Bénéjacq,,,undefined,,,,,
465,378,465,378,,France,64460.0,Ponson-Dessus,,,undefined,,,,,
469,351,469,351,,France,64420.0,Andoins,,,undefined,,,,,
47,253,470,253,,France,64130.0,Lichos,,,undefined,,,,,
472,145,472,145,,France,64190.0,Lay-Lamidou,,,undefined,,,,,
473,338,473,338,,France,64400.0,Géronce,,,undefined,,,,,
499,1744722477,499,1744722477,,France,40630.0,TRENSACQ,,,undefined,,,,,
502,556,502,556,,France,64160.0,Espéchède,,,undefined,,,,,
512,1737,512,1737,,France,40300.0,Saint-Cricq-du-Gave,,,undefined,,,,,
536,537,536,537,,France,64390.0,Guinarthe-Parenties,,,undefined,,,,,
547,549,547,549,,France,64370.0,Hagetaubin,,,undefined,,,,,
548,209,548,209,,France,64530.0,Ger,,,undefined,,,,,
55,351,550,351,,France,64420.0,ANDOINS,,,undefined,,,,,
551,353,551,353,,France,,,,,undefined,,,,,
553,475,553,475,,France,64530.0,Pontacq,,,undefined,,,,,
554,450,554,450,,France,64530.0,Barzun,,,undefined,,,,,
556720378,442,556720378,442,,France,,,,,undefined,,,,,
558,499,558,499,,France,64530.0,Barzun,,,undefined,,,,,
567,571,567,571,,France,40410.0,SAUGNACQ ET MURET,,,undefined,,,,,
574,181,574,181,,France,40110.0,Ousse-Suzan,,,undefined,,,,,
5808923,510,5808923,510,,France,64497.0,,,,undefined,,,,,
6,194,6,194,,France,40600.0,Biscarrosse,,,undefined,,,,,
61,537,610,537,,France,64390.0,Guinarthe-Parenties,,,undefined,,,,,
612,261,612,261,,France,40300.0,Peyrehorade,,,undefined,,,,,
616,341,616,341,,France,64300.0,Orthez,,,undefined,,,,,
627,196,627,196,,France,64300.0,MONT,,,undefined,,,,,
632,228,632,228,,France,64170.0,Labastide-Monrejeau,,,undefined,,,,,
635,417,635,417,,France,64230.0,AUSSEVIELLE,,,undefined,,,,,
641,586,641,586,,France,64420.0,Artigueloutan,,,undefined,,,,,
646,461,646,461,,France,64160.0,Espéchède,,,undefined,,,,,
65,520,650,520,,France,64420.0,Espoey,,,undefined,,,,,
652,593,652,593,,France,64800.0,BEUSTE,,,undefined,,,,,
655,192,655,192,,France,65320.0,Gardères,,,undefined,,,,,
656,210,656,210,,France,40210.0,SOLFERINO,,,undefined,,,,,
66,498077272,66,498077272,,France,64198.0,,,,undefined,,,,,
673,368,673,368,,France,40400.0,Meilhan,,,undefined,,,,,
679934122,1280186137,679934122,1280186137,,France,40120.0,Maillères,,,undefined,,,,,
68,166,680,166,,France,64530.0,GER,,,undefined,,,,,
682,442,682,442,,France,64530.0,Pontacq,,,undefined,,,,,
69,548,69,548,,France,64230.0,DENGUIN,,,undefined,,,,,
694,613,694,613,,France,64400.0,Géronce,,,undefined,,,,,
708,50,708,50,,France,64460.0,Bédeille,,,undefined,,,,,
71,510,71,510,,France,64300.0,LANNEPLAA,,,undefined,,,,,
719,228,719,228,,France,64170.0,Labastide-Cézéracq,,,undefined,,,,,
719,719,719,654000050,,France,,,,,undefined,,,,,
71987029,355,71987029,355,,France,40420.0,Vert,,,undefined,,,,,
72,421,72,421,,France,64312.0,,,,undefined,,,,,
721,26,721,26,,France,40500.0,EYRES MONCUBE,,,undefined,,,,,
727,273,727,273,,France,40990.0,ST VINCENT DE PAUL,,,undefined,,,,,
73,646,730,646,,France,40400.0,Meilhan,,,undefined,,,,,
739,649,739,649,,France,64160.0,GABASTON,,,undefined,,,,,
742,607,742,607,,France,64460.0,LAMAYOU,,,undefined,,,,,
745,633,745,633,,France,40400.0,TARTAS,,,undefined,,,,,
749,348,749,348,,France,64420.0,Arrien,,,undefined,,,,,
751,656,751,656,,France,64420.0,Andoins,,,undefined,,,,,
75215193,745764184,752151930,745764184,,France,40110.0,Ygos-Saint-Saturnin,,,undefined,,,,,
757,1740,757,1740,,France,64530.0,Barzun,,,undefined,,,,,
77497694,723,774976940,723,,France,40260.0,LESPERON,,,undefined,,,,,
777430951,569,777430951,569,,France,40160.0,Ychoux,,,undefined,,,,,
78,341,78,341,,France,64300.0,Lanneplaà,,,undefined,,,,,
79,1739,790,1739,,France,64530.0,Barzun,,,undefined,,,,,
795047704,593,795047704,593,,France,64800.0,BEUSTE,,,undefined,,,,,
85,179,85,179,,France,40230.0,Saint-Geours-de-Maremne,,,undefined,,,,,
887175444,180,887175444,180,,France,33830.0,Belin-Béliet,,,undefined,,,,,
891347982,499,891347982,499,,France,64530.0,Barzun,,,undefined,,,,,
96,333,96,333,,France,64254.0,,,,undefined,,,,,
964259116,372,964259116,372,,France,40140.0,MAGESCQ,,,undefined,,,,,
SERETRAM,SERETRAM,SERETRAM,GENERAL MILLS,,FRANCE,40300.0,Labatut,,,519 Route Royale,,,,,
