actor_number,name,identification_type,identification_number,company_name,category,description,tags,sectors
34227744900019,EARL BAUDOUINAIS,siret,34227744900019,,undefined,,,
BLOTTIERE,EARL BLOTTIERE,siret,41771834300011,,undefined,,,
BUNELIERPO,EARL DE LA BUNELIERE,siret,33976920000017,,undefined,,,
372494,EARL DU MALIVEAU,siret,37785028400011,,undefined,,,
40049195700017,EARL FIZELLERIE,siret,40049195700017,,undefined,,,
FRANCOIS,EARL FRANCOIS,siret,39766367500015,,undefined,,,
83528199900010,EARL MOUCHARDIERE,siret,83528199900010,,undefined,,,
ROUSSEL,EARL ROUSSEL,siret,40762874200014,,undefined,,,
426861,EARL VAL AU GUE,siret,52853033000018,,undefined,,,
TRENTETROI,GAEC 33 RUE DU BOCAGE,siret,75021743200012,,undefined,,,
BACONNIEPO,GAEC BACONNIERE,siret,49037355200010,,undefined,,,
43988,GAEC BB,siret,79885156400012,,undefined,,,
83812709000010,GAEC BONVOISIN,siret,83812709000010,,undefined,,,
390986,GAEC DES GENETIERES,siret,39274590700015,,undefined,,,
49141655800014,GAEC VANNIER,siret,49141655800014,,undefined,,,
GAUTIERMAR,GAUTIER René-Marc,siret,40115389500016,,undefined,,,
31104319400647,HERTA,siret,31104319400647,,undefined,,,
82,HERTA SAS LE MEUX,siret,31104319400563,,undefined,,,
835,HERTA SAS LOZANNE,siret,31104319400662,,undefined,,,
LYCEEDETHE,LYCEE AGRICOLE SAINT LO,siret,19500060900048,,undefined,,,
HAIZIEREPO,SARL LA HAIZIERE,siret,75115105100016,,undefined,,,
THIBARDIER,SARL LA THIBARDIERE,siret,39911632600014,,undefined,,,
VALLEESPO,SARL LES DEUX VALLEES,siret,38465895100015,,undefined,,,
89271860200014,SAS ELEVAGE DE LA PETITE VALLEE,siret,89271860200014,,undefined,,,
79234665200011,SCEA CHEUX,siret,79234665200011,,undefined,,,
OUTREMER,SCEA D'OUTREMER,siret,41026867600013,,undefined,,,
LEGOUPSCEA,SCEA LEGOUPIL,siret,88093185200011,,undefined,,,
VARIN,SCEA VARIN DUBARRY,siret,44037449400019,,undefined,,,
50851378500107,SOCOPA VIANDES,siret,50851378500107,,undefined,,,
49648006200090,SOFRAL LE GOUESSANT,siret,49648006200090,,undefined,,,
49648006200082,SOFRAL LE GOUESSANT MONTAUBAN,siret,49648006200082,,undefined,,,
49648006200108,SOFRAL LE GOUESSANT SAINT-AARON,siret,49648006200108,,undefined,,,
35271931400010,TERDICI,siret,35271931400010,,undefined,,,
42970729200018_2,TERRENA ALIMENTS,siret,42970729200018_2,,undefined,,,
42970729200018_1,TERRENA PORVEO,siret,42970729200018_1,,undefined,,,
817,USINE HERTA ILLKIRCH,siret,31104319400621,,undefined,,,
88267467400016,VANNIER Matthieu,siret,88267467400016,,undefined,,,
