product_number,name,description,ean13,gtin13,gtin14,height,height_unit,width_unit,depth,depth_unit,volume,volume_unit,tags,sectors
MPI99LIQ23,RECETTE RETENTAT TYPE 852B PP,,,,,,,,,,,,,
07011L65,OLIGO VIT bidon 5 litres,,,,,,,,,,,,,
07055DUN,BOLUS ELEVAGE (boite de 20-1c=5b) marron,,,,,,,,,,,,,
0027302V00,0027302V00,,,,,,,,,,,,,
0028002V00,0028002V00,,,,,,,,,,,,,
0028102V00,0028102V00,,,,,,,,,,,,,
0028202V00,0028202V00,,,,,,,,,,,,,
0028602V00,0028602V00,,,,,,,,,,,,,
0028702V00,0028702V00,,,,,,,,,,,,,
0030702V00,0030702V00,,,,,,,,,,,,,
0031502V00,0031502V00,,,,,,,,,,,,,
0031602V00,0031602V00,,,,,,,,,,,,,
0031603V00,0031603V00,,,,,,,,,,,,,
0031702V00,0031702V00,,,,,,,,,,,,,
0031703V00,0031703V00,,,,,,,,,,,,,
0207702V00,0207702V00,,,,,,,,,,,,,
0207802V00,0207802V00,,,,,,,,,,,,,
0207803V00,0207803V00,,,,,,,,,,,,,
0207902V00,0207902V00,,,,,,,,,,,,,
0207903V00,0207903V00,,,,,,,,,,,,,
6046,6046,,,,,,,,,,,,,
6069,6069,,,,,,,,,,,,,
105802,105802,,,,,,,,,,,,,
106804,106804,,,,,,,,,,,,,
108249,108249,,,,,,,,,,,,,
110100,110100,,,,,,,,,,,,,
1119401S25,1119401S25,,,,,,,,,,,,,
113496,113496,,,,,,,,,,,,,
114586,114586,,,,,,,,,,,,,
114632,114632,,,,,,,,,,,,,
3895,1ER CAP-BOITE DE 6,,,,,,,,,,,,,
209319,209319,,,,,,,,,,,,,
209384,209384,,,,,,,,,,,,,
209438,209438,,,,,,,,,,,,,
209738,209738,,,,,,,,,,,,,
21154,21154,,,,,,,,,,,,,
21404,21404,,,,,,,,,,,,,
21733,21733,,,,,,,,,,,,,
22004,22004,,,,,,,,,,,,,
23246,23246,,,,,,,,,,,,,
23944,23944,,,,,,,,,,,,,
24044,24044,,,,,,,,,,,,,
24104,24104,,,,,,,,,,,,,
25124,25124,,,,,,,,,,,,,
26104,26104,,,,,,,,,,,,,
26119,26119,,,,,,,,,,,,,
26804,26804,,,,,,,,,,,,,
2905903V00,2905903V00,,,,,,,,,,,,,
4003914V00,4003914V00,,,,,,,,,,,,,
4004014V00,4004014V00,,,,,,,,,,,,,
4102203V00,4102203V00,,,,,,,,,,,,,
4107403V00,4107403V00,,,,,,,,,,,,,
4107603V00,4107603V00,,,,,,,,,,,,,
4107803V00,4107803V00,,,,,,,,,,,,,
4108003V00,4108003V00,,,,,,,,,,,,,
4108403V00,4108403V00,,,,,,,,,,,,,
4108503V00,4108503V00,,,,,,,,,,,,,
4108703V00,4108703V00,,,,,,,,,,,,,
4401503V00,4401503V00,,,,,,,,,,,,,
4405103V00,4405103V00,,,,,,,,,,,,,
4601303V00,4601303V00,,,,,,,,,,,,,
4601403B10,4601403B10,,,,,,,,,,,,,
5410912L03,5410912L03,,,,,,,,,,,,,
5457501S25,5457501S25,,,,,,,,,,,,,
5485201S25,5485201S25,,,,,,,,,,,,,
6050400V00,6050400V00,,,,,,,,,,,,,
6064000V00,6064000V00,,,,,,,,,,,,,
621701,621701,,,,,,,,,,,,,
6347261,6347261,,,,,,,,,,,,,
6393800V00,6393800V00,,,,,,,,,,,,,
6543000S25,6543000S25,,,,,,,,,,,,,
900521,7/21 GRANULE INCORPORE,,,,,,,,,,,,,
7011714I24,7011714I24,,,,,,,,,,,,,
7401001S25,7401001S25,,,,,,,,,,,,,
8106000V00,8106000V00,,,,,,,,,,,,,
9484701S25,9484701S25,,,,,,,,,,,,,
950030,950030,,,,,,,,,,,,,
950150,950150,,,,,,,,,,,,,
950650,950650,,,,,,,,,,,,,
950660,950660,,,,,,,,,,,,,
115996,ACID STOP GC,,,,,,,,,,,,,
00152000S25,ACTI-LEVUSEL + VIT.E F,,,,,,,,,,,,,
U15QRV04AD584D0EI,ADV VIA QR 15 1L 630 180J,,,,,,,,,,,,,
24414,AGNEAU CROISSANCE*-G V/T,,,,,,,,,,,,,
24424,AGNEAU FINITION MEGA*-G V/T,,,,,,,,,,,,,
24454,AGNEAU MEDI COX*-G V/T,,,,,,,,,,,,,
24314,AGNEAU STARTER*-G V/T,,,,,,,,,,,,,
104807,AGNEAU UNIC MEGA* -G V/T,,,,,,,,,,,,,
900463,AGNODOR PERFO,,,,,,,,,,,,,
900557,AGNODOR TRADITION 25 KG,,,,,,,,,,,,,
1077,AGNODOR TRADITION PLUS-25KG,,,,,,,,,,,,,
900419,ALIMENT DINDES/PINTADES,,,,,,,,,,,,,
900400,ALIMENT MASH VL,,,,,,,,,,,,,
900417,ALIMENT POULES PONDEUSES,,,,,,,,,,,,,
900422,ALIMENT VOLAILLES,,,,,,,,,,,,,
900432,ALIMENTS LIQUIDE,,,,,,,,,,,,,
900446,ALIT BRIO EXCELL 35,,,,,,,,,,,,,
F06-20/5,ALLIMAX EXTRA-FORT,,,,,,,,,,,,,
F06-60/1,ALLIMAX HUILE Concentrée,,,,,,,,,,,,,
F06-80/1,ALLIMAX Lance-bolus inox Diam 40mm,,,,,,,,,,,,,
F06-10/5,ALLIMAX Normal-25,,,,,,,,,,,,,
F06-30/5,ALLIMAX SANS-ODEUR,,,,,,,,,,,,,
1415,"Allmash vetmesting ""VEG"" - non OGM",,,,,,,,,,,,,
900415,AMINO,,,,,,,,,,,,,
AMINO 18,AMINO 18,,,,,,,,,,,,,
AMINO 25,AMINO 25,,,,,,,,,,,,,
900429,AMINO 25,,,,,,,,,,,,,
114636,AMINO 35*-G V/T,,,,,,,,,,,,,
114637,AMINO 39*-G V/T,,,,,,,,,,,,,
900412,AMINO 46,,,,,,,,,,,,,
900413,AMINO LEVURE,,,,,,,,,,,,,
AMINOFEED,AMINOFEED,,,,,,,,,,,,,
900401,AMINOFEED,,,,,,,,,,,,,
AMINOFEED TAMISE,AMINOFEED TAMISE,,,,,,,,,,,,,
AMINOMAÏS,AMINOMAÏS,,,,,,,,,,,,,
AMINOMIX 16,AMINOMIX 16,,,,,,,,,,,,,
AMINOMIX 17,AMINOMIX 17,,,,,,,,,,,,,
AMINOMIX 18,AMINOMIX 18,,,,,,,,,,,,,
AMINOMIX 19,AMINOMIX 19,,,,,,,,,,,,,
AMINOMIX 23,AMINOMIX 23,,,,,,,,,,,,,
900408,AMINONIX 16,,,,,,,,,,,,,
AMINOSTART 17 NON OGM,AMINOSTART 17 NON OGM,,,,,,,,,,,,,
AMINOSTARTER,AMINOSTARTER,,,,,,,,,,,,,
900492,AMINOSTARTER,,,,,,,,,,,,,
900493,AMINOVEAU,,,,,,,,,,,,,
164517,AMV 6-24-5 PF SEM BB1T,,,,,,,,,,,,,
164518,AMV 6.24.5 PF SEM SAC25KG,,,,,,,,,,,,,
AA004837,AMV 6.24.5 SM BB1T,,,,,,,,,,,,,
AA007439,AMV 6.24.5 SM S25 KG,,,,,,,,,,,,,
900510,ARGILE BENTONITE,,,,,,,,,,,,,
900555,AZOMINT 80 UREE,,,,,,,,,,,,,
Nord-Ester 100 HV,B100 - EMAG de colza,,,,,,,,,,,,,
900440,BACTI CELL 10KG,,,,,,,,,,,,,
900488,BACTI PECT PLUS,,,,,,,,,,,,,
114538,Beef Céréales GC,,,,,,,,,,,,,
114539,Beefpro 40 GC,,,,,,,,,,,,,
158468,BENTONITE (ARGILE ) 25KG,,,,,,,,,,,,,
900517,BICARBONATE,,,,,,,,,,,,,
202265,BICARBONATE DE SOUDE 25 KG,,,,,,,,,,,,,
1851000,BICARBONATE DE SOUDE EN SAC,,,,,,,,,,,,,
900406,BICARBONATE INCORPOREE,,,,,,,,,,,,,
27201,BICARBONATE SOUDE-S25/T,,,,,,,,,,,,,
5021C,BIOBRON 20 LE L  (bidon 1 L),,,,,,,,,,,,,
5020C,BIOBRON 20 LE L (bidon 5 L),,,,,,,,,,,,,
900686,BIOBRON 5 L,,,,,,,,,,,,,
154853,BLOC SEL PUR 25KG(1),,,,,,,,,,,,,
011347B90,BLOCKEMEL BACA'VEL,,,,,,,,,,,,,
900616,BLOCKEMEL EQUILIBRE 125 KG,,,,,,,,,,,,,
900327,BLOCKEMEL EQUILIBRE 20KG GESTA,,,,,,,,,,,,,
900597,BLOCKEMEL EQUILIBRE 25 KG GEST,,,,,,,,,,,,,
900514,BLOCKEMEL FLY 20KG,,,,,,,,,,,,,
1006225,BLOCKEMEL GESTATION,,,,,,,,,,,,,
1006225,BLOCKEMEL GESTATION,,,,,,,,,,,,,
10062125,BLOCKEMEL GESTATION 125 Kg,,,,,,,,,,,,,
900325,BLOCKEMEL HERBE 20KG TRANSITIO,,,,,,,,,,,,,
900599,BLOCKEMEL HERBE 25 KG TRANSI,,,,,,,,,,,,,
1008220,BLOCKEMEL JUNIOR,,,,,,,,,,,,,
900600,BLOCKEMEL JUNIOR 20 KG,,,,,,,,,,,,,
1008220,BLOCKEMEL Junior Nouvelle Gamme,,,,,,,,,,,,,
1361325,BLOCKEMEL LACTATION,,,,,,,,,,,,,
1361325,BLOCKEMEL LACTATION,,,,,,,,,,,,,
13612125,BLOCKEMEL LACTATION 125 Kg,,,,,,,,,,,,,
900628,BLOCKEMEL LACTATION 125KG,,,,,,,,,,,,,
900326,BLOCKEMEL RUMEN 20KG LACTATION,,,,,,,,,,,,,
900598,BLOCKEMEL RUMEN 25 KG LACTA,,,,,,,,,,,,,
1010225,BLOCKEMEL TRANSITION,,,,,,,,,,,,,
1010225,BLOCKEMEL TRANSITION,,,,,,,,,,,,,
900618,BLOCKEMEL TRANSITION 125 KG,,,,,,,,,,,,,
900540,BOLIDAYS CONTROL,,,,,,,,,,,,,
900536,BOLIFAST PHYSIO,,,,,,,,,,,,,
900537,BOLIFAST RUMEN,,,,,,,,,,,,,
900538,BOLIFLASH CALCIUM,,,,,,,,,,,,,
900539,BOLIFLASH FERTIL,,,,,,,,,,,,,
900487,BOLUS ALLIMAX,,,,,,,,,,,,,
900590,BOLUS BOLITRACE BIOTIN,,,,,,,,,,,,,
07084DUN,BOLUS CROISSANCE (boite de 20-1c=5b) Vert,,,,,,,,,,,,,
900602,BOLUS CROISSANCE B20,,,,,,,,,,,,,
07053DUN,BOLUS OLIGOVIT (boite de 20-1c=5b) bleu,,,,,,,,,,,,,
900603,BOLUS OLIGOVIT B25,,,,,,,,,,,,,
106582,BOVECO PROTEINE*-G V/T,,,,,,,,,,,,,
107571,BOVI 33 STNO*-G V/T,,,,,,,,,,,,,
900520,BOVIBLOC 5/15/4 SEAU DE 15 KG,,,,,,,,,,,,,
113347,Bovifloc GC,,,,,,,,,,,,,
108957,BOVIFOURRAGE*-G V/T,,,,,,,,,,,,,
900579,BOVILOR BIO 14/14,,,,,,,,,,,,,
900586,BOVILOR MAIS PULPE,,,,,,,,,,,,,
05170S25,BOVILOR NATURE  14/14  Stte 25 kg,,,,,,,,,,,,,
05147S25,BOVILOR NATURE  6/24/5 Stte 25 kg,,,,,,,,,,,,,
900588,BOVILOR NATURE 6/24,,,,,,,,,,,,,
900579,BOVILOR UAB 14/14,,,,,,,,,,,,,
113486,Bovimix GC,,,,,,,,,,,,,
108632,BOVIPRO 39 STNO*-G V/T,,,,,,,,,,,,,
108633,BOVIPRO 41 STNO*-G V/T,,,,,,,,,,,,,
31030950560,BOVIPRO 43F,,,,,,,,,,,,,
31030950580,BOVIPRO 44 G MINERAL,,,,,,,,,,,,,
31030950570,BOVISOY F,,,,,,,,,,,,,
113414,Bovistar F2 GC,,,,,,,,,,,,,
113367,BOVISTRUC GC,,,,,,,,,,,,,
113368,BOVISTRUC GC,,,,,,,,,,,,,
113357,BOVISTRUC GC,,,,,,,,,,,,,
107573,BOVITAN 30 STNO*-G V/T,,,,,,,,,,,,,
634702,BOVITEC 52,,,,,,,,,,,,,
31036347261,BOVITEC 52,,,,,,,,,,,,,
113358,BOVIVO 3 PLUS,,,,,,,,,,,,,
113378,BOVIVO GC,,,,,,,,,,,,,
113377,BOVIVO GC,,,,,,,,,,,,,
24714,BREBIS*-G V/T,,,,,,,,,,,,,
900435,BRIO EXCELL 16,,,,,,,,,,,,,
900352,BRIO EXCELL 18HE,,,,,,,,,,,,,
900353,BRIO EXCELL 35,,,,,,,,,,,,,
900436,BRIO EXCELL ENERGIE,,,,,,,,,,,,,
900439,BRIO EXCELL LAIT,,,,,,,,,,,,,
900542,BRIO EXCELL START BIO,,,,,,,,,,,,,
900542,BRIO EXCELL START UAB,,,,,,,,,,,,,
AL-00546,BRISURES MAIS,,,,,,,,,,,,,
112058,BUFFLO BOOST*-G V/T,,,,,,,,,,,,,
,BUFFLO BROUTARD-G V/T,,,,,,,,,,,,,
23324,BUFFLO DIGEST-G V/T,,,,,,,,,,,,,
21406,BUFFLO EXTRA*-G V/T,,,,,,,,,,,,,
111575,BUFFLO VALO*-G V/T,,,,,,,,,,,,,
108594,CABRA COMPLEMENTAIRE*-G V/T,,,,,,,,,,,,,
24534,CABRA COMPLET*-G V/T,,,,,,,,,,,,,
900587,CALCIGOL,,,,,,,,,,,,,
07005L65,CALCIGOL GEL bidon 5 litres,,,,,,,,,,,,,
712302,Calf feed,,,,,,,,,,,,,
900709,CALISOL 600 KG,,,,,,,,,,,,,
132190,Capri Andeweg GC,,,,,,,,,,,,,
132717,Capri Extra GC,,,,,,,,,,,,,
132714,Capri Relax GC,,,,,,,,,,,,,
132708,Capri Relax GC,,,,,,,,,,,,,
132185,Caprilac GC,,,,,,,,,,,,,
132718,Capripro 40 GC,,,,,,,,,,,,,
132709,Capripro 40 GC,,,,,,,,,,,,,
132712,Capripro 42 GC,,,,,,,,,,,,,
900404,CARBONATE DE CALCIUM,,,,,,,,,,,,,
202266,CARBONATE DE CALCIUM 25 KG,,,,,,,,,,,,,
U15QRV06AC34210LO,CARR HDF VIA QR 1/2 1L,,,,,,,,,,,,,
U15QRV06AC342A0LO,CARR HDF VIA QR 1/2 1L,,,,,,,,,,,,,
U15QRV06AC349Q0LO,CARR HDF VIA QR 1/2 1L,,,,,,,,,,,,,
900563,CHAT ADULTE,,,,,,,,,,,,,
900497,CHLORURE DE MAGNESIE,,,,,,,,,,,,,
100679,CHLORURE DE MAGNESIUM 25KG,,,,,,,,,,,,,
900472,CHLORURE DE MAGNESIUM BIO,,,,,,,,,,,,,
900299,CLINOPTILOLITE,,,,,,,,,,,,,
900403,CLINOPTILOTITE INCORPOREE,,,,,,,,,,,,,
113348,COCCI STOP GC,,,,,,,,,,,,,
901826,COLLIER CHIEN,,,,,,,,,,,,,
6152,COLZA,,,,,,,,,,,,,
900410,COLZA,,,,,,,,,,,,,
5029,Colza,,,,,,,,,,,,,
COLZA GRAS,COLZA GRAS,,,,,,,,,,,,,
107334,COLZATOP*-G V/T,,,,,,,,,,,,,
900423,COMPLEXE IMMUNO REPRO,,,,,,,,,,,,,
900420,COMPLEXE IMMUNO STIMULANT,,,,,,,,,,,,,
COQUES DE CACAO,COQUES DE CACAO,,,,,,,,,,,,,
1644000,COQUES DE CACAO,,,,,,,,,,,,,
5043,Corn gluten,,,,,,,,,,,,,
23772,CORRAL 17-V D/T,,,,,,,,,,,,,
23782,CORRAL 27 D-V/T,,,,,,,,,,,,,
107447,CORRAL 32- V/T,,,,,,,,,,,,,
23802,CORRAL 45 D (EX 44) -V/T,,,,,,,,,,,,,
107449,CORRAL GUSTA- V/T,,,,,,,,,,,,,
107464,CORRAL OVIN- V/T,,,,,,,,,,,,,
108649,CORRAL PRINTEMPS- V/T,,,,,,,,,,,,,
107448,CORRAL SUCRE- V/T,,,,,,,,,,,,,
F05-20/450,Crème CAPSIDERM,,,,,,,,,,,,,
FMC40LIQ12CILCIL,CREME PASTEURISEE VIA LACTA CLIENT,,,,,,,,,,,,,
FMC4+LIQVL,CREME PASTEURISEE VIA LACTA INTERNE,,,,,,,,,,,,,
20321,CROUSTIVO* HP-S20/T,,,,,,,,,,,,,
902460,CULBUTO,,,,,,,,,,,,,
AA290205,CULBUTO BOVIN,,,,,,,,,,,,,
900632,DEBLOCAL FORM,,,,,,,,,,,,,
07001G20,DEBLOCAL FORM seau de 20 kg,,,,,,,,,,,,,
951160,DELI FREE G 41,,,,,,,,,,,,,
29497,DELTAMINE-S20/T,,,,,,,,,,,,,
115844,Dermalic,,,,,,,,,,,,,
900578,DIAMINE STOP ACID,,,,,,,,,,,,,
202269,DIAMINE STOP ACID PDRE 25KG,,,,,,,,,,,,,
08003P25,DIAMINE STOPACID sac 25 kg Poudre,,,,,,,,,,,,,
900592,DIETAMINE 20KG,,,,,,,,,,,,,
AA308686,DILUMIN FARINE 20 KG,,,,,,,,,,,,,
900387,DILUMIN FARINE 20 KG,,,,,,,,,,,,,
164650,DILUMIN FARINE 20KG,,,,,,,,,,,,,
900669,DM CID ULTRA (VIA LACTA),,,,,,,,,,,,,
900568,DOG CHOW ACTIV 18 KG,,,,,,,,,,,,,
26224,DRECHES DE MAIS- V/T,,,,,,,,,,,,,
115855,Drylic,,,,,,,,,,,,,
U15QRV06AC346Q0LO,E.LEC HDF VIA QR 1/2 1L,,,,,,,,,,,,,
WAT99PRE01,EAU DE PREPARATION,,,,,,,,,,,,,
WAT99POL01,EAU POLISHEE,,,,,,,,,,,,,
900828,ECHANTILLION AMINONIX,,,,,,,,,,,,,
900838,ECHANTILLON ASS.COCOON,,,,,,,,,,,,,
900837,ECHANTILLON BIOBRON 1 L,,,,,,,,,,,,,
900817,ECHANTILLON DOG CHOW,,,,,,,,,,,,,
900821,ECHANTILLON FLOCOVO,,,,,,,,,,,,,
900826,ECHANTILLON PECTOLIT,,,,,,,,,,,,,
900816,ECHANTILLON PRO 25 10,,,,,,,,,,,,,
900824,ECHANTILLON RUMISTART G,,,,,,,,,,,,,
ENERGIE FEED,ENERGIE FEED,,,,,,,,,,,,,
900604,ENERGOL 5L,,,,,,,,,,,,,
07006L65,ENERGOL bidon 5 litres,,,,,,,,,,,,,
U15VIA06AC339A0LO,ENVIA SSOGM 1/2 1L 300,,,,,,,,,,,,,
U15VIA05AC145A0LC,ENVIA SSOGM 1/2 1L 300,,,,,,,,,,,,,
U15VIA06AC350Q0LO,ENVIA SSOGM 1/2 1L 330,,,,,,,,,,,,,
U15VIA05AC149Q0LC,ENVIA SSOGM 1/2 1L 330,,,,,,,,,,,,,
109736,ESSAI F 20 LHUISSEZ*-G V/T,,,,,,,,,,,,,
203607,ETAMIN CONFORT BIO SE 25KG (1),,,,,,,,,,,,,
AA007601,ETAMIN CONFORT SM S25K,,,,,,,,,,,,,
AA007821,ETAMIN FOIN GR S25K,,,,,,,,,,,,,
AA015221,ETAMIN LS GR S25K,,,,,,,,,,,,,
165143,ETAMIN MIXTE BIO GR 25KG (1),,,,,,,,,,,,,
164069,ETAMIN MIXTE BIO SE 25KG (1),,,,,,,,,,,,,
AA318271,ETAMIN MIXTE SM BB 1000 KG,,,,,,,,,,,,,
AA313791,ETAMIN MIXTE SM SAC 25 KG,,,,,,,,,,,,,
164833,ETAMIN PRAIRIE BIO GR 25KG(1),,,,,,,,,,,,,
AA007603,ETAMIN PRAIRIE GR S25K,,,,,,,,,,,,,
900322,FARINE DE MAIS,,,,,,,,,,,,,
3776,FARMY COMPLEMENTAIRE-25KG-PA,,,,,,,,,,,,,
3774,FARMY ELEVAGE-25KG-PA SAC 25KG,,,,,,,,,,,,,
900570,FARMY ELEVAGE 25 KG,,,,,,,,,,,,,
3775,FARMY EQUILIBRE-25KG-PA,,,,,,,,,,,,,
900502,FARMY EQUILIBRE 25 KG,,,,,,,,,,,,,
3777,FARMY PERFORMANCE-25KG-PA,,,,,,,,,,,,,
900643,FARMY PERFORMANCE 25 KG,,,,,,,,,,,,,
900454,FARMYLIQ AZOTE,,,,,,,,,,,,,
900458,FARMYLIQ SUCRE,,,,,,,,,,,,,
24463,FEDAGNO CEREALES TAF 55%-G V/T,,,,,,,,,,,,,
24464,FEDAGNO CEREALES*-G V/T,,,,,,,,,,,,,
24374,FEDAGNO DIGEST*-G V/T,,,,,,,,,,,,,
24394,FEDAGNO LIB'SERVICE*-G V/T,,,,,,,,,,,,,
112539,FEDAVOX*-G V/T,,,,,,,,,,,,,
51156,"Feed R K0,7-0,16 AC 40x25PE E1",,,,,,,,,,,,,
113218,Finition Vallas Femelle GC,,,,,,,,,,,,,
113221,Finition Vallas Mâles GC,,,,,,,,,,,,,
900567,FLOCOVO,,,,,,,,,,,,,
31364,FLORI FREE,,,,,,,,,,,,,
33136,FLORI FREE 2E AGE,,,,,,,,,,,,,
32143,FLORI FREE ELEVAGE,,,,,,,,,,,,,
32590,FLORI FREE GSD,,,,,,,,,,,,,
FMC26LBO01,FMC26LBO01,,,,,,,,,,,,,
FMC26LBO09CIL999A,FMC26LBO09CIL999A,,,,,,,,,,,,,
FMC26LFS02,FMC26LFS02,,,,,,,,,,,,,
FMC26LIQ04,FMC26LIQ04,,,,,,,,,,,,,
FMC26LIQ08CIL999A,FMC26LIQ08CIL999A,,,,,,,,,,,,,
FMC26LIQ09CIL999A,FMC26LIQ09CIL999A,,,,,,,,,,,,,
900296,FRAFAT,,,,,,,,,,,,,
107333,GALA 180*-G V/T,,,,,,,,,,,,,
108607,GALA 220*-G V/T,,,,,,,,,,,,,
108618,GALA 390*-G V/T,,,,,,,,,,,,,
108608,GALA 410*-G V/T,,,,,,,,,,,,,
107774,GALA 450*-G V/T,,,,,,,,,,,,,
113601,GALA EFFI FB*-G V/T,,,,,,,,,,,,,
107879,GALA EXPERT 302002*-G V/T,,,,,,,,,,,,,
106074,GALA EXPERT 30235*-G V/T,,,,,,,,,,,,,
110048,GALA EXPERT 302879*-G V/T,,,,,,,,,,,,,
108666,GALA EXPERT 302987*-G V/T,,,,,,,,,,,,,
22467,GALA EXPERT 43400*-G V/T,,,,,,,,,,,,,
107833,GALA EXPERT PRODUCTION 302755*-G V/T,,,,,,,,,,,,,
111186,GALA JUNIOR NO*-G S25/T,,,,,,,,,,,,,
109659,GALA JUNIOR*-G V/T,,,,,,,,,,,,,
107596,GALA MAIS TAF 50%*-G V/T,,,,,,,,,,,,,
107595,GALA MAIS*-G V/T,,,,,,,,,,,,,
107559,GALA ORGE TAF 60%*-G V/T,,,,,,,,,,,,,
107558,GALA ORGE*-G V/T,,,,,,,,,,,,,
21174,GALA TARIE*-G V/T,,,,,,,,,,,,,
107557,GALABLE TAF 55%*-G V/T,,,,,,,,,,,,,
107556,GALABLE*-G V/T,,,,,,,,,,,,,
20751,GALACTA GENIPAILLE*-G S25/T,,,,,,,,,,,,,
20754,GALACTA GENIPAILLE*-G V/T,,,,,,,,,,,,,
24623,GALAPHOS MIDI EQUILIBRE-S25/T,,,,,,,,,,,,,
24621,GALAPHOS MIDI GOLD-SEM S25/T,,,,,,,,,,,,,
24644,GALAPHOS MIDI MAIS OLI-F V/T,,,,,,,,,,,,,
24624,GALAPHOS MIDI MAIS OLIGO-SEM S25/T,,,,,,,,,,,,,
24632,GALAPHOS MIDI MAIS PATURE- S25/T,,,,,,,,,,,,,
111724,GALATANE 600*-G V/T,,,,,,,,,,,,,
107335,GALATANE 850*-G V/T,,,,,,,,,,,,,
20924,GALAVOX-G V/T,,,,,,,,,,,,,
110997,GENI EXPERT 08892 50O TAF*-G V/T,,,,,,,,,,,,,
110996,GENI EXPERT 08892 50O*-G V/T,,,,,,,,,,,,,
1109960,GENI EXPERT 08892*-G V/T,,,,,,,,,,,,,
109929,GENI EXPERT 302002*-G V/T,,,,,,,,,,,,,
AL-02580,GERMEX VR (TOURTEAUX DE GERMES DE MAIS),,,,,,,,,,,,,
900453,GLUCO GREEN PF 210 KG,,,,,,,,,,,,,
07124L20,GLUCO NATURE Bidon de 20 kg,,,,,,,,,,,,,
900466,GLUCO NATURE BIO 20L,,,,,,,,,,,,,
900466,GLUCO NATURE UAB 20L,,,,,,,,,,,,,
901837,GOURDE CHIEN 500 ML,,,,,,,,,,,,,
114534,Graan-Maïs DDB GC,,,,,,,,,,,,,
900561,GRANULE VEAU PF NON OGM,,,,,,,,,,,,,
900541,GRANULE VEAU PF NON OGM 25KG,,,,,,,,,,,,,
900561,GRANULE VEAU PF NON OGM BIG 1T,,,,,,,,,,,,,
U15VIA06AB335A0LO,HDF VIA 15 1L 300 120J,,,,,,,,,,,,,
900426,HEPAFLORINE,,,,,,,,,,,,,
155020,HERBAVER BIO SEAU 15 KG (1),,,,,,,,,,,,,
116049,HERBE DIGEST GC,,,,,,,,,,,,,
900486,HUILE ALLIMAX,,,,,,,,,,,,,
08010L64,HUILE DE FOIE DE MORUE 20 litres,,,,,,,,,,,,,
08010L200,HUILE DE FOIE DE MORUE 200 litres,,,,,,,,,,,,,
900562,HUILE DE FOIE DE MORUE 200L,,,,,,,,,,,,,
08010L66,HUILE DE FOIE DE MORUE 25 litres,,,,,,,,,,,,,
900494,HUILE DE FOIE DE MORUE 25L,,,,,,,,,,,,,
900449,HUILE DE FOIE DE MORUE 5L,,,,,,,,,,,,,
08010L60,HUILE DE FOIE DE MORUE 60 litres,,,,,,,,,,,,,
900485,HUILE DE FOIE DE MORUE 60L,,,,,,,,,,,,,
08010L65,HUILE DE FOIE DE MORUE 65L,,,,,,,,,,,,,
900494,HUILE DE FOIE DE MORUE BIO 25L,,,,,,,,,,,,,
25744,HUILE DE MAIS-V/T*,,,,,,,,,,,,,
25764,HUILE DE SOYA NON OGM- V/T,,,,,,,,,,,,,
900449,HUILE FOIE DE MORUE 5L,,,,,,,,,,,,,
12002S25,INDEX LEVURE Sac de 25 Kg,,,,,,,,,,,,,
12003S25,INDEX TP Sac de 25 Kg,,,,,,,,,,,,,
900302,INDEXATION UREE,,,,,,,,,,,,,
U15VIA06AB336A0LO,ITM HDF VIA 15 1L 300 120J,,,,,,,,,,,,,
U15QRV06AC347A0LO,ITM HDF VIA QR 1/2 1L,,,,,,,,,,,,,
U15QRV06AC348Q0LO,ITM HDF VIA QR 1/2 1L,,,,,,,,,,,,,
U15QRV06EC340R0LO,ITM HDF VIA QR 1/2 1L*4,,,,,,,,,,,,,
U36VIA09AA545E0GI,KENGEE VL 36 1L 756 300J,,,,,,,,,,,,,
900613,KERNOL 200L,,,,,,,,,,,,,
07079PUNN,LACTIDIAR 100 (1C=1B de 30) AC,,,,,,,,,,,,,
07123DUN,LACTIDIAR NATURE (boîte de 12 sachets),,,,,,,,,,,,,
900469,LACTIDIAR NATURE BIO,,,,,,,,,,,,,
900469,LACTIDIAR NATURE UAB,,,,,,,,,,,,,
116373,Lacto Amidon GC,,,,,,,,,,,,,
116366,Lacto Dry GC,,,,,,,,,,,,,
116383,Lacto Extra GC,,,,,,,,,,,,,
116431,Lacto Fat GC,,,,,,,,,,,,,
116406,Lacto Pâture GC,,,,,,,,,,,,,
116280,Lacto Quick GC,,,,,,,,,,,,,
116364,Lacto Star GC,,,,,,,,,,,,,
114492,Lactomix 22 GC,,,,,,,,,,,,,
116151,Lactopro 40 GC,,,,,,,,,,,,,
116315,Lactopro Aminé GC,,,,,,,,,,,,,
116386,Lactopro Optim GC,,,,,,,,,,,,,
FMC26LIQ01CIL999A,LAIT A HERBE VIA LACTA,,,,,,,,,,,,,
FMC26LIQ06CIL999A,LAIT A L HERBE VIA LACTA,,,,,,,,,,,,,
SMC00LPPVL,LAIT ECR PASTEURISE PP VIA LAC,,,,,,,,,,,,,
SMC00LIQ03,LAIT ECREME PASTEURISE,,,,,,,,,,,,,
SMC00LPP01,LAIT ECREME PASTEURISE PP,,,,,,,,,,,,,
SMC00LIQVL,LAIT ECREME PASTEURISE VIA LAC,,,,,,,,,,,,,
FMC26LIQ01CIL999V,LAIT ENTIER CRU ACHAT VENTE,,,,,,,,,,,,,
FMC26LIQ01CIL999E,LAIT ENTIER CRU ECHANGE,,,,,,,,,,,,,
FMC26LIQ02,LAIT ENTIER CRU RECEPTIONNE,,,,,,,,,,,,,
FMC26LIQVL,LAIT ENTIER PASTEURISE VIA LAC,,,,,,,,,,,,,
5960,LAITINE NATURE-20kg,,,,,,,,,,,,,
209373,Le primo 6-24-4 semoulette,,,,,,,,,,,,,
U15VIA17AD536D0EI,LECONTE VIA LACTA 15 1L,,,,,,,,,,,,,
U36VIA17AD535D0EI,LECONTE VIA LACTA 36 1L,,,,,,,,,,,,,
102208,Legkorrel GC DDB,,,,,,,,,,,,,
163056,LEST'O 500 6MX50M 500 GR /M2,,,,,,,,,,,,,
900390,LEVURE PF 25 KG,,,,,,,,,,,,,
900402,LINA FIBRE BALLE 20KG,,,,,,,,,,,,,
900478,LITHOTHAME,,,,,,,,,,,,,
109048,LITOTHAMNE CALSEAPOWDER 25K,,,,,,,,,,,,,
900298,LYSINE 25KG,,,,,,,,,,,,,
MAÏS,MAÏS,,,,,,,,,,,,,
MAÏS LAMINE,MAÏS LAMINE,,,,,,,,,,,,,
MASH 15 CELLULOSIQUE,MASH 15 CELLULOSIQUE,,,,,,,,,,,,,
MASH 17,MASH 17,,,,,,,,,,,,,
MASH 18,MASH 18,,,,,,,,,,,,,
MASH 18 AV MAÏS,MASH 18 AV MAÏS,,,,,,,,,,,,,
MASH 30+BIOTINE,MASH 30+BIOTINE,,,,,,,,,,,,,
MASH 40 NON OGM,MASH 40 NON OGM,,,,,,,,,,,,,
107560,MASH 80 MAIS*-F V/T,,,,,,,,,,,,,
107760,MASH 95 MAIS*-F  V/T,,,,,,,,,,,,,
110468,MASH 95 ORGE TAF*-F V/T,,,,,,,,,,,,,
110467,MASH 95 ORGE*-F V/T,,,,,,,,,,,,,
MASH BE 14 NRJ,MASH BE 14 NRJ,,,,,,,,,,,,,
MASH BE NON OGM,MASH BE NON OGM,,,,,,,,,,,,,
MASH COLZA + MINERAUX,MASH COLZA + MINERAUX,,,,,,,,,,,,,
MASH COLZA + UREE,MASH COLZA + UREE,,,,,,,,,,,,,
MASH COLZA + UREE + BICAR,MASH COLZA + UREE + BICAR,,,,,,,,,,,,,
MASH COLZA/CACAO,MASH COLZA/CACAO,,,,,,,,,,,,,
MASH COLZA/MAÏS,MASH COLZA/MAÏS,,,,,,,,,,,,,
MASH COLZA/TOURNESOL,MASH COLZA/TOURNESOL,,,,,,,,,,,,,
MASH COLZA+UREE,MASH COLZA+UREE,,,,,,,,,,,,,
MASH ENGRAISSEMENT,MASH ENGRAISSEMENT,,,,,,,,,,,,,
MASH FEED/25 NON OGM,MASH FEED/25 NON OGM,,,,,,,,,,,,,
MASH FEED/PS/LIN,MASH FEED/PS/LIN,,,,,,,,,,,,,
MASH FEED/PS/LUZ/LIN,MASH FEED/PS/LUZ/LIN,,,,,,,,,,,,,
MASH FEED/PULPE,MASH FEED/PULPE,,,,,,,,,,,,,
MASH GENISSE NON OGM,MASH GENISSE NON OGM,,,,,,,,,,,,,
MASH MAÏS,MASH MAÏS,,,,,,,,,,,,,
MASH MAÏS/COL/TOURNESOL,MASH MAÏS/COL/TOURNESOL,,,,,,,,,,,,,
MASH NON OGM + BIOTINE,MASH NON OGM + BIOTINE,,,,,,,,,,,,,
105266,MASH NRJ BEEF*- V/T,,,,,,,,,,,,,
MASH NRJ NON OGM,MASH NRJ NON OGM,,,,,,,,,,,,,
MASH PULPES SECHES/COLZA,MASH PULPES SECHES/COLZA,,,,,,,,,,,,,
MASH TOP 40 NON OGM,MASH TOP 40 NON OGM,,,,,,,,,,,,,
MASH TOP 40 NON OGM + MINERAUX,MASH TOP 40 NON OGM + MINERAUX,,,,,,,,,,,,,
MASH TOP GENISSE,MASH TOP GENISSE,,,,,,,,,,,,,
MASH TOP GENISSE + MINERAUX,MASH TOP GENISSE + MINERAUX,,,,,,,,,,,,,
MASH VL NON OGM + MINERAUX,MASH VL NON OGM + MINERAUX,,,,,,,,,,,,,
108634,MAX 280 STNO*- V/T,,,,,,,,,,,,,
107576,MAX 33 STNO*- V/T,,,,,,,,,,,,,
107569,MAX AMI*- V/T,,,,,,,,,,,,,
115915,Maxi-Cal,,,,,,,,,,,,,
"5,409903E+020",MAXIDETOX,,,,,,,,,,,,,
900295,MAXIFIBER 25KG,,,,,,,,,,,,,
107565,MEGA 18 STNO*-G V/T,,,,,,,,,,,,,
108630,MEGALAIT 22 STNO*-G V/T,,,,,,,,,,,,,
109714,MEL SERVICE 1600*- V/T,,,,,,,,,,,,,
26280,MEL SERVICE 280*- V/T,,,,,,,,,,,,,
26009,MEL SERVICE 502*- V/T,,,,,,,,,,,,,
112110,MEL SERVICE 98 MAIS TAF*-F V/T,,,,,,,,,,,,,
112085,MEL SERVICE 98 MAIS*-F V/T,,,,,,,,,,,,,
900409,MELIOR GESTA PERF 8-6-8 GR,,,,,,,,,,,,,
AL-02508,MILUREX (GLUTEN FEED DE BLE) VR,,,,,,,,,,,,,
108606,MILUREX STNO*- V/T,,,,,,,,,,,,,
114573,MIN'UNEAL USINE 7-SEM S25/T,,,,,,,,,,,,,
209170,MIN 10/20/5 BB1T,,,,,,,,,,,,,
900476,MIN 2/30/5 SEM RENF OLIGO INCO,,,,,,,,,,,,,
900438,MIN 4.5/24/5 VIT E2000 INCORPO,,,,,,,,,,,,,
900416,MIN 4.5/30 INCORPORE,,,,,,,,,,,,,
900465,MIN 4/29 RENFORCE OLIGO/VIT,,,,,,,,,,,,,
158241,MIN 6-24-5 SE 25 KG,,,,,,,,,,,,,
AA323703,MIN 6.24.5 SE S 25KG,,,,,,,,,,,,,
900421,MIN 7/21 INCORPOREE,,,,,,,,,,,,,
900427,MIN 7/26 INCORPORE,,,,,,,,,,,,,
900710,MIN OVI 5/25/5,,,,,,,,,,,,,
900577,MIN PRO LACTA 00 PHYSIO COLZA,,,,,,,,,,,,,
900574,MIN PRO LACTA 4 PHYSIO MAIS,,,,,,,,,,,,,
900583,MIN PRO LACTA 6 PHYSIO MP,,,,,,,,,,,,,
900543,MIN PRO LACTA 8,,,,,,,,,,,,,
24582,MINEAL 5 23 4-G S25/T,,,,,,,,,,,,,
24611,MINEAL TAMPON-F S25/T,,,,,,,,,,,,,
900585,MINERAL 10 20,,,,,,,,,,,,,
AA008037,MINERAL 1296 SM S 25 KG,,,,,,,,,,,,,
AA010826,MINERAL 1306 SM S25K,,,,,,,,,,,,,
AA008969,MINERAL 1320 SM BB1000K,,,,,,,,,,,,,
AA008979,MINERAL 1322 SM BB1000K,,,,,,,,,,,,,
AA013190,MINERAL 1351 NR SM BB1000K,,,,,,,,,,,,,
AA015051,MINERAL 1356 PF SM BB1000K,,,,,,,,,,,,,
AA015386,MINERAL 1385 SM BB1000K,,,,,,,,,,,,,
AA015951,MINERAL 1407 SM S25K,,,,,,,,,,,,,
AA018915,MINERAL 1503 SM BB1000K,,,,,,,,,,,,,
AA016888,MINERAL 1553 SM BB1000K,,,,,,,,,,,,,
AA020710,MINERAL 1570 SM BB1000K,,,,,,,,,,,,,
900582,MINERAL A  LA CARTE,,,,,,,,,,,,,
900484,MINERAL ETAMIN CONFORT BIO,,,,,,,,,,,,,
900484,MINERAL ETAMIN CONFORT UAB,,,,,,,,,,,,,
900569,MINERAL ETAMIN MIXTE BIO,,,,,,,,,,,,,
900545,MINERAL ETAMIN MIXTE GRANU BIO,,,,,,,,,,,,,
900545,MINERAL ETAMIN MIXTE GRANU UAB,,,,,,,,,,,,,
900569,MINERAL ETAMIN MIXTE UAB,,,,,,,,,,,,,
900546,MINERAL ETAMIN PRAIRIE BIO,,,,,,,,,,,,,
900546,MINERAL ETAMIN PRAIRIE UAB,,,,,,,,,,,,,
900584,MINERAL MIN 6 24,,,,,,,,,,,,,
900459,MINERAL MUN PERFECT 4 SM,,,,,,,,,,,,,
900524,MINERAL MUN PERFECT 8,,,,,,,,,,,,,
163829,MINERAL N°1287 PF BB1T,,,,,,,,,,,,,
163830,MINERAL N°1288 PF BB1T,,,,,,,,,,,,,
163893,MINERAL N°1296 PF SAC,,,,,,,,,,,,,
164351,MINERAL N°1305 PF SAC,,,,,,,,,,,,,
164361,MINERAL N°1306 PF SAC,,,,,,,,,,,,,
164495,MINERAL N°1319 PF BB1T,,,,,,,,,,,,,
164519,MINERAL N°1320 PF BB1T,,,,,,,,,,,,,
164522,MINERAL N°1322 PF BB1T,,,,,,,,,,,,,
164530,MINERAL N°1323 PF SAC,,,,,,,,,,,,,
164562,MINERAL N°1325 PF BB1T,,,,,,,,,,,,,
164603,MINERAL N°1327 PF SAC,,,,,,,,,,,,,
164975,MINERAL N°1348 PF SAC,,,,,,,,,,,,,
165076,MINERAL N°1351 PF BB1T,,,,,,,,,,,,,
165077,MINERAL N°1352 PF BB1T,,,,,,,,,,,,,
165138,MINERAL N°1356 PF BB1T,,,,,,,,,,,,,
165279,MINERAL N°1385 PF BB1T,,,,,,,,,,,,,
165314,MINERAL N°1387 PF BB1T,,,,,,,,,,,,,
200031,MINERAL N°1407 PF SAC,,,,,,,,,,,,,
200762,MINERAL N°1426 PF BB1T,,,,,,,,,,,,,
201048,MINERAL N°1457 PF SAC,,,,,,,,,,,,,
202340,MINERAL N°1503 PF BB1T,,,,,,,,,,,,,
202431,MINERAL N°1514 PF SAC,,,,,,,,,,,,,
203695,MINERAL N°1553 PF BB1T,,,,,,,,,,,,,
204643,MINERAL N°1570 PF BB1T,,,,,,,,,,,,,
209160,MINERAL N°1599 PF BB1T,,,,,,,,,,,,,
900445,MINERAL PHOSPHOPREPA TARIE BIO,,,,,,,,,,,,,
900452,MINERAL PHYSIO ANTACID START,,,,,,,,,,,,,
900523,MINERAL PHYSIO DIG'R PASS SM,,,,,,,,,,,,,
900461,MINERAL PHYSIO DIG R PH,,,,,,,,,,,,,
900558,MINERAL PHYSIO KELA 8,,,,,,,,,,,,,
900566,MINERAL PHYSIO MAIS SUP.BIOTIN,,,,,,,,,,,,,
900559,MINERAL PHYSIO MUN 8,,,,,,,,,,,,,
900581,MINERAL PHYSIO VELPARTUM 25 KG,,,,,,,,,,,,,
900340,MINERAL PRO KELA 4,,,,,,,,,,,,,
900615,MINERAL PRO LACTA 2,,,,,,,,,,,,,
900544,MINERAL PRO PUNCH 1.5,,,,,,,,,,,,,
900556,MINERAL PRO PUNCH 4,,,,,,,,,,,,,
01538B20,MINILIC DERMAPUR,,,,,,,,,,,,,
011297B20,MINILIC FREEZE,,,,,,,,,,,,,
900564,MINILIC FREEZE 20KG,,,,,,,,,,,,,
900501,MINILIC HERBAVER 15KG,,,,,,,,,,,,,
900550,MINILIC OVINA,,,,,,,,,,,,,
01788B15,MINILIC PULMOZEN (bassine de 15 Kg),,,,,,,,,,,,,
900606,MINILIC PULMOZEN 20KG,,,,,,,,,,,,,
AL-02115,MP COLZA OGM < 0.9 VRAC,,,,,,,,,,,,,
AL-00562,MP PULPES SECHES VRAC,,,,,,,,,,,,,
25651,MULTI 170 MEL VRAC,,,,,,,,,,,,,
25650,MULTI 180 MEL VRAC,,,,,,,,,,,,,
25649,MULTI 240 MEL VRAC,,,,,,,,,,,,,
25648,MULTI 280 MEL VRAC,,,,,,,,,,,,,
27506,MULTI B.N.R.,,,,,,,,,,,,,
28642,MULTI BROUTARD,,,,,,,,,,,,,
25647,MULTI CROISSANCE MEL VRAC,,,,,,,,,,,,,
25646,MULTI ELEVAGE 150 MEL VRAC,,,,,,,,,,,,,
25777,MULTI FINITION VRAC,,,,,,,,,,,,,
108023,MULTITUDE 02939 510*- V/T,,,,,,,,,,,,,
111826,MULTITUDE 035*-V/T,,,,,,,,,,,,,
108640,MULTITUDE 380*- V/T,,,,,,,,,,,,,
107336,MULTITUDE 510*- V/T,,,,,,,,,,,,,
113600,MULTITUDE TECH FB*- V/T,,,,,,,,,,,,,
"16,2049",N-GMO DELIPRO 40P FARINE/MASH,,,,,,,,,,,,,
07131L65,NATU'FLY  Bidon de 5L,,,,,,,,,,,,,
07131L61,NATU'FLY Spray Flacon 1 litre+ pulvérisateur,,,,,,,,,,,,,
01989B25,NATU'GEST (BIO),,,,,,,,,,,,,
011162B25,NATU'PATUVER,,,,,,,,,,,,,
011045B15,NATU'ZEN,,,,,,,,,,,,,
011095B25,NATU HERBE,,,,,,,,,,,,,
900514,NATU HERBE,,,,,,,,,,,,,
1276125,NATU MEL (BIO),,,,,,,,,,,,,
900464,NATU PATUVER,,,,,,,,,,,,,
NATU TURBOLAC BLE G,NATU TURBOLAC BLE G,,,,,,,,,,,,,
31030950660,NATU TURBOLAC BLE G.,,,,,,,,,,,,,
900506,NATUGEST,,,,,,,,,,,,,
31030950010,NATULAC AZOTE,,,,,,,,,,,,,
31030950150,NATULAC AZOTE PLUS G,,,,,,,,,,,,,
31030950160,NATULAC ECO G,,,,,,,,,,,,,
31030950030,NATULAC EQUILIBRE,,,,,,,,,,,,,
31030950000,NATULAC MIX,,,,,,,,,,,,,
NATULAC MIX F,NATULAC MIX F,,,,,,,,,,,,,
31030950020,NATULAC PERFORMANCE,,,,,,,,,,,,,
31030950040,NATULAC PRO F,,,,,,,,,,,,,
950050,NATULAC PRO G,,,,,,,,,,,,,
115847,Natulic,,,,,,,,,,,,,
900549,NATUMAX,,,,,,,,,,,,,
900504,NATUMEL,,,,,,,,,,,,,
900468,NATUZEN,,,,,,,,,,,,,
26252,NECTAR MEGA 70*-F S25/T,,,,,,,,,,,,,
AA018658,NURSY BABY GR SAC 8 KG,,,,,,,,,,,,,
900527,NUTRABOL BOITE DE 16 BOLUS,,,,,,,,,,,,,
900528,NUTRASEM SAC 25 KG,,,,,,,,,,,,,
900508,NUTRAVIT AD3E,,,,,,,,,,,,,
07012L65N,NUTRAVIT AD3E bidon 5 litres AC,,,,,,,,,,,,,
308302,nutri certi 41G,,,,,,,,,,,,,
714512,nutri certi G 16,,,,,,,,,,,,,
308722,nutri certi G 42,,,,,,,,,,,,,
308612,nutri certi G19,,,,,,,,,,,,,
308502,nutri certi G45,,,,,,,,,,,,,
6920,Nutri junior,,,,,,,,,,,,,
116384,Nutriquart 25 GC,,,,,,,,,,,,,
116385,Nutriquart 26 GC,,,,,,,,,,,,,
116388,Nutriquart 27 GC,,,,,,,,,,,,,
116058,NUTRITOP GC,,,,,,,,,,,,,
116057,NUTRITOP GC,,,,,,,,,,,,,
07011L65N,OLIGO VIT bidon 5 litres AC,,,,,,,,,,,,,
900611,OLIGOVIT 5L,,,,,,,,,,,,,
31030950540,Omega 100 F,,,,,,,,,,,,,
31030950500,Omega 21,,,,,,,,,,,,,
31030950520,Omega 35 Granulé,,,,,,,,,,,,,
31030950510,Omega 41 Farine,,,,,,,,,,,,,
26244,OMEGA BLE/TRADI FORCE-V/T,,,,,,,,,,,,,
31030950530,Omega Hipro 39 Farine,,,,,,,,,,,,,
900301,OMNIGEN 25KG,,,,,,,,,,,,,
900712,OPTI REPRO B SAC 25 KG,,,,,,,,,,,,,
132437,OVIPRESTO GC,,,,,,,,,,,,,
132435,OVIPRESTO GC,,,,,,,,,,,,,
900610,OXYDE DE MAGNESIE,,,,,,,,,,,,,
900405,OXYDE DE MAGNESIE INCORPOREE,,,,,,,,,,,,,
146951,PALETTE PGS SALINS  80X120,,,,,,,,,,,,,
U15VIA06AB331A0LO,PATU HDF 1/2 1L 300 120J,,,,,,,,,,,,,
U15VIA06AC331A0LO,PATU HDF VIA 1/2 1L 300 150J,,,,,,,,,,,,,
U15VIA05AC156Q0LC,PATURAGES 1/2 1L 330 WL,,,,,,,,,,,,,
U36VIA05AC157Q0LC,PATURAGES ENTIER1L 330 WL,,,,,,,,,,,,,
F01-20/9,Pectolit 2020,,,,,,,,,,,,,
F01-20/3,Pectolit 2020,,,,,,,,,,,,,
F01-20/0,Pectolit 2020,,,,,,,,,,,,,
F01-20/05,PECTOLIT 2020,,,,,,,,,,,,,
900462,PECTOLIT 3 KG,,,,,,,,,,,,,
900496,PECTOLIT 9KG,,,,,,,,,,,,,
900467,PECTOLIT BIO,,,,,,,,,,,,,
F01-40/3,Pectolit GREEN (UAB),,,,,,,,,,,,,
F01-40/0,Pectolit GREEN (UAB),,,,,,,,,,,,,
900467,PECTOLIT GREEN UAB,,,,,,,,,,,,,
900450,PF STOP ACID,,,,,,,,,,,,,
U15VIA04BD547F0EI,PF VIA LACTA 1/2 50CL 1008,,,,,,,,,,,,,
U15VIA04AD534D0EI,PF VIA LACTA 15 1L 630,,,,,,,,,,,,,
U15VIA04ADECHDEV,PF VIA LACTA 15 1L ECHANT,,,,,,,,,,,,,
U36VIA04AD533D0EI,PF VIA LACTA 36 1L 630,,,,,,,,,,,,,
U36VIA04ADECHDEV,PF VIA LACTA 36 1L ECHANT,,,,,,,,,,,,,
U36VIA04BD546F0EI,PF VIA LACTA 36 50CL 1008,,,,,,,,,,,,,
U00VIA04BD548F0EI,PF VIA LACTA ECR 50CL 1008,,,,,,,,,,,,,
900297,PHOSPHORE BICALCIQUE 25KG,,,,,,,,,,,,,
AA010803,PHYS. DIG R PASS SM S25K,,,,,,,,,,,,,
AA010787,PHYS. MUN 8 SM S25K,,,,,,,,,,,,,
AA010793,PHYS. MUN PERFECT 8 SM S25K,,,,,,,,,,,,,
AA010765,PHYS. PRO KELA 8 SM BB1000K,,,,,,,,,,,,,
AA012698,PHYS. PRO LACTA 00 SM BB1000K,,,,,,,,,,,,,
AA012688,PHYS. PRO LACTA 00 SM S25K,,,,,,,,,,,,,
AA018730,PHYS. PRO LACTA 2 SM BB1000K,,,,,,,,,,,,,
AA010739,PHYS. PRO LACTA 4 SM BB1000K,,,,,,,,,,,,,
AA010738,PHYS. PRO LACTA 4 SM S25K,,,,,,,,,,,,,
AA013103,PHYS. PRO LACTA 6 SM BB1000K,,,,,,,,,,,,,
AA012692,PHYS. PRO LACTA 6 SM S25K,,,,,,,,,,,,,
AA010746,PHYS. PRO LACTA 8 SM S25K,,,,,,,,,,,,,
AA012693,PHYS. PRO PUNCH 1.5 SM S25K,,,,,,,,,,,,,
AA010769,PHYS. PRO PUNCH 4 SM BB1000K,,,,,,,,,,,,,
AA010768,PHYS. PRO PUNCH 4 SM S25K,,,,,,,,,,,,,
AA010821,PHYS. VEL PARTUM GR S25K,,,,,,,,,,,,,
900519,PHYSIA ANTACID START,,,,,,,,,,,,,
201745,PHYSIA ANTACID START P SAC25KG,,,,,,,,,,,,,
163898,PHYSIO COLZA SE BB1T,,,,,,,,,,,,,
200785,PHYSIO DIG R PASS GR SAC25KG,,,,,,,,,,,,,
200042,PHYSIO DIG R PASS SM SAC,,,,,,,,,,,,,
163718,PHYSIO MAIS PULPE SE 25KG,,,,,,,,,,,,,
163891,PHYSIO MAIS PULPE SE BB1T,,,,,,,,,,,,,
163953,PHYSIO MAIS SE 25KG,,,,,,,,,,,,,
163890,PHYSIO MAIS SE BB1T,,,,,,,,,,,,,
165099,PHYSIO MUN 8 SEM 25 KG,,,,,,,,,,,,,
165197,PHYSIO MUN PERFECT 8 SEM SAC,,,,,,,,,,,,,
164460,PHYSIO PARTUM GR 25KG,,,,,,,,,,,,,
165173,PHYSIO PRO KELA 8 SE 25KG,,,,,,,,,,,,,
165312,PHYSIO PRO KELA 8 SE BB1T,,,,,,,,,,,,,
165102,PHYSIO PRO LACTA 00 SE BB1T,,,,,,,,,,,,,
165071,PHYSIO PRO LACTA 00 SM SAC,,,,,,,,,,,,,
202121,PHYSIO PRO LACTA 2 SM BB1T,,,,,,,,,,,,,
165104,PHYSIO PRO LACTA 4 SE BB1T,,,,,,,,,,,,,
165065,PHYSIO PRO LACTA 4 SM SAC,,,,,,,,,,,,,
165058,PHYSIO PRO LACTA 6 SM BB1T,,,,,,,,,,,,,
165073,PHYSIO PRO LACTA 6 SM SAC,,,,,,,,,,,,,
200784,PHYSIO PRO LACTA 8 SM SAC,,,,,,,,,,,,,
200040,PHYSIO PRO PUNCH 1.5 SM BB1T,,,,,,,,,,,,,
200783,PHYSIO PRO PUNCH 1.5 SM SAC,,,,,,,,,,,,,
165103,PHYSIO PRO PUNCH 4 SE BB1T,,,,,,,,,,,,,
165080,PHYSIO PRO PUNCH 4 SEM SAC,,,,,,,,,,,,,
165100,PHYSIO VEL PARTUM GR 25 KG,,,,,,,,,,,,,
900591,PHYSIOGREENPASSGR SAC 25,,,,,,,,,,,,,
2842,PICHET DOSEUR BONILAIT 3LITRES,,,,,,,,,,,,,
900500,PIERRE DE SEL 25 KG,,,,,,,,,,,,,
155030,POLIX 1201 10KG,,,,,,,,,,,,,
155031,POLIX CHLORANT 24KG,,,,,,,,,,,,,
0027202V00,POUSSIN DEMARRAGE JAUNE NO LI,,,,,,,,,,,,,
115899,Premium Ferti,,,,,,,,,,,,,
115898,Premium Plus,,,,,,,,,,,,,
900294,PREPA GRANULE 20KG,,,,,,,,,,,,,
5407805S25,PRIM'OSVIOR 4/26,,,,,,,,,,,,,
900571,PRIMOPLANTE 25KG,,,,,,,,,,,,,
900565,PRO 25 10 20 KG,,,,,,,,,,,,,
U15VIA13AA568E0GI,PRO AFF VIA 15 1L 756 300,,,,,,,,,,,,,
U15VIA13BA573I0GI,PRO AFF VIA 15 50 1296,,,,,,,,,,,,,
U15VIA13BA573S0GI,PRO AFF VIA 15 50 1404,,,,,,,,,,,,,
U36VIA13AA569E0GI,PRO AFF VIA 36 1L 756 300,,,,,,,,,,,,,
U36VIA13BA574I0GI,PRO AFF VIA 36 50 1296,,,,,,,,,,,,,
U36VIA09BA544I0GI,PRO CHN VIA 36 50CL 1296 300J,,,,,,,,,,,,,
U15VIA28AA559E0GI,PRO EX VIA FR 15 1L 300J,,,,,,,,,,,,,
U15VIA28BA561I0GI,PRO EX VIA FR 15 50 300J,,,,,,,,,,,,,
U36VIA28AA560E0GI,PRO EX VIA FR 36 1L 300J,,,,,,,,,,,,,
U36VIA28BA562I0GI,PRO EX VIA FR 36 50 300J,,,,,,,,,,,,,
U15VIA23AA551E0GI,PRO KR VIA 15 1L 756 300J,,,,,,,,,,,,,
U36VIA23AA552E0GI,PRO KR VIA 36 1L 756 300J,,,,,,,,,,,,,
U15VIA27AA557E0GI,PRO MAU VIA 15 1L 756 300,,,,,,,,,,,,,
U36VIA27AA556E0GI,PRO MAU VIA 36 1L 756 300,,,,,,,,,,,,,
U15QRV04AD578D0EI,PRO VIA QR 15 1L 630 180J,,,,,,,,,,,,,
U15QRV04BD605F0EI,PRO VIA QR 15 50 1008 180,,,,,,,,,,,,,
U15QRV00AZECHDEV,PRO VIA QR 15.5 1L,,,,,,,,,,,,,
U36QRV00AZECHDEV,PRO VIA QR 36 1L,,,,,,,,,,,,,
U36QRV04AD579D0EI,PRO VIA QR 36 1L 630 180J,,,,,,,,,,,,,
U36QRV04BD604F0EI,PRO VIA QR 36 50 1008 180,,,,,,,,,,,,,
900304,PROFAT 25 KG,,,,,,,,,,,,,
MPI85BVL01BBGPFI,PROMILK 852 B VIA LACTA,,,,,,,,,,,,,
MPI85BVL014HI51G,PROMILK 852 B VIA LACTA,,,,,,,,,,,,,
MPI85BVL014HI51H,PROMILK 852 B VIA LACTA,,,,,,,,,,,,,
MPI85BVL01VRSPFI,PROMILK 852 B VIA LACTA,,,,,,,,,,,,,
MPI85BVL05,PROMILK 852 B VIA LACTA,,,,,,,,,,,,,
MPI85BVL01C8032Z,PROMILK 852 B VIA LACTA,,,,,,,,,,,,,
MPI85BVL01ECHDEV,PROMILK 852 B VIA LACTA,,,,,,,,,,,,,
900714,PROPY PREMIUM +210,,,,,,,,,,,,,
U15QRV26AA582E0GI,PROVIA QR VNM 15 1L 756,,,,,,,,,,,,,
U15QRV26BA592I0GI,PROVIA QR VNM 15 50 1296,,,,,,,,,,,,,
U36QRV26AA583E0GI,PROVIA QR VNM 36 1L 756,,,,,,,,,,,,,
U36QRV26BA593I0GI,PROVIA QR VNM 36 50 1296,,,,,,,,,,,,,
U15QRV34AA577E0GI,PROVIA QRAE 15 1L 756 300,,,,,,,,,,,,,
U36QRV34AA576E0GI,PROVIA QRAE 36 1L 756 300,,,,,,,,,,,,,
07119P20,PULMO'ZEN  POUDRE 20 kg,,,,,,,,,,,,,
900612,PULMOZEN POUDRE 20KG PCX,,,,,,,,,,,,,
25804,PULPES DE BETTERAVE SUC 8MM- V/T,,,,,,,,,,,,,
5004,Pulpes de betteraves 6 mm,,,,,,,,,,,,,
DE,PULPES DESHYDRATEES,,,,,,,,,,,,,
900522,PULPES SECHES 8MM,,,,,,,,,,,,,
SU,PULPES SURPRESSEES,,,,,,,,,,,,,
26304,RADICELLES D'ORGE-V/T,,,,,,,,,,,,,
MPI99LIQ35,RECETTE 852B PP VIA LACTA,,,,,,,,,,,,,
TRT99SPG01,RECETTE SPRAY GRAS,,,,,,,,,,,,,
TRT99LIQ01,RECETTE TOUR ET LDC,,,,,,,,,,,,,
900526,RESPIBOL VEAU POT 30 BOLUS,,,,,,,,,,,,,
MPC99LIQ03,RETENTAT TYPE 60% PP,,,,,,,,,,,,,
MPC99LIQ15,RETENTAT TYPE 60% PP VIA LACTA,,,,,,,,,,,,,
MPI85BLI01,RETENTAT TYPE 852B,,,,,,,,,,,,,
MPI85BLP02,RETENTAT TYPE 852B PP VIA LACT,,,,,,,,,,,,,
116412,Royal Extra GC,,,,,,,,,,,,,
116419,Rumi 19 GC,,,,,,,,,,,,,
950550,RUMI MAIS VLOG G,,,,,,,,,,,,,
31030950550,Rumi Maïs Vlog G,,,,,,,,,,,,,
900489,RUMI PGS 25 KG,,,,,,,,,,,,,
900460,RUMI PGS 5KG,,,,,,,,,,,,,
6332A,RUMI PGS LE KG (sac 25 kg),,,,,,,,,,,,,
6334A,RUMI PGS LE KG (seau 5 kg) PROMO,,,,,,,,,,,,,
116413,Rumifibre GC,,,,,,,,,,,,,
115845,Rumilic,,,,,,,,,,,,,
00270000S25,RUMIN FIRST,,,,,,,,,,,,,
00276000S25,RUMIN STANDING,,,,,,,,,,,,,
125915,Rumiplus,,,,,,,,,,,,,
116427,Rumipro GC,,,,,,,,,,,,,
900513,RUMISTART GREEN 1070KG,,,,,,,,,,,,,
900512,RUMISTART GREEN 230KG,,,,,,,,,,,,,
900511,RUMISTART GREEN 30KG,,,,,,,,,,,,,
7836A,RUMISTART GREEN LE KG  (bidon 5 KG),,,,,,,,,,,,,
7416A,RUMISTART GREEN LE KG  (bidon 5 KG) PROMO,,,,,,,,,,,,,
7837A,RUMISTART GREEN LE KG (bidon 1 KG) GRATUIT,,,,,,,,,,,,,
7417A,RUMISTART GREEN LE KG (bidon 1 KG) GRATUIT,,,,,,,,,,,,,
7830A,RUMISTART GREEN LE KG (bidon 30 KG),,,,,,,,,,,,,
7410A,RUMISTART GREEN LE KG (bidon 30 KG),,,,,,,,,,,,,
7833A,RUMISTART GREEN LE KG (cuve de 1070 KG),,,,,,,,,,,,,
7413A,RUMISTART GREEN LE KG (cuve de 1070 KG),,,,,,,,,,,,,
7834A,RUMISTART GREEN LE KG (fût de 110 KG),,,,,,,,,,,,,
7414A,RUMISTART GREEN LE KG (fût de 110 KG) GRATUIT,,,,,,,,,,,,,
7835A,RUMISTART GREEN LE KG (fût de 230 KG),,,,,,,,,,,,,
7415A,RUMISTART GREEN LE KG (fût de 230 KG),,,,,,,,,,,,,
900490,RUMISTART GREEN PERLE,,,,,,,,,,,,,
6860A,RUMISTART GREEN PERLE LE KG (sac 25 KG),,,,,,,,,,,,,
115875,Rumix Cal,,,,,,,,,,,,,
115905,Rumix Dry,,,,,,,,,,,,,
115885,Rumix Phos,,,,,,,,,,,,,
115865,Rumix Plus,,,,,,,,,,,,,
900498,SACHET REPAS 30U LACTIDIAR 100,,,,,,,,,,,,,
29119,SANDI FREE 17,,,,,,,,,,,,,
2530G00,sandi free 18,,,,,,,,,,,,,
28432,SANDI FREE AZOTE VRAC,,,,,,,,,,,,,
2080G00,sandi free élevage,,,,,,,,,,,,,
2080G25,sandi free élevage,,,,,,,,,,,,,
33512,SANDI FREE JUMP,,,,,,,,,,,,,
33544,SANDI FREE JUMP -,,,,,,,,,,,,,
28436,SANDI FREE JUNIOR VRAC,,,,,,,,,,,,,
2510G00,sandi free lactation,,,,,,,,,,,,,
33144,SANDI FREE MIX 41,,,,,,,,,,,,,
33154,SANDI FREE MIX 422,,,,,,,,,,,,,
29122,SANDI FREE MIX 44,,,,,,,,,,,,,
33468,SANDI FREE MIX AFC,,,,,,,,,,,,,
29137,SANDI FREE MIX ENERGIE,,,,,,,,,,,,,
2620F00,sandi free mix maf,,,,,,,,,,,,,
33546,SANDI FREE MIX PMS 473,,,,,,,,,,,,,
30756,SANDI FREE MIXTE,,,,,,,,,,,,,
33542,SANDI FREE OMEGA 38.2,,,,,,,,,,,,,
31863,SANDI FREE OMEGA 40.2,,,,,,,,,,,,,
33511,SANDI FREE OMEGA 41.25,,,,,,,,,,,,,
30591,SANDI FREE PMS 43,,,,,,,,,,,,,
31361,SANDI FREE PMS SOLO,,,,,,,,,,,,,
29118,SANDI FREE PRATIK,,,,,,,,,,,,,
28491,SANDI FREE PRODUCTION 25 KG,,,,,,,,,,,,,
28435,SANDI FREE PRODUCTION VRAC,,,,,,,,,,,,,
33545,SANDI FREE PROGRES 2700,,,,,,,,,,,,,
33513,SANDI FREE PROGRES 4900,,,,,,,,,,,,,
2610G00,sandi free protéine,,,,,,,,,,,,,
2520G00,sandi free solo,,,,,,,,,,,,,
29121,SANDI FREE TARIE BOX700,,,,,,,,,,,,,
33543,SANDI FREE TB+,,,,,,,,,,,,,
33271,SANDI FREE TECH,,,,,,,,,,,,,
29098,SANDI FREE TECH GR VRAC,,,,,,,,,,,,,
34110,SANDI FREE TREMPLIN,,,,,,,,,,,,,
28433,SANDI FREE UNIQUE VRAC,,,,,,,,,,,,,
2603,SEAU BONILAIT -15L,,,,,,,,,,,,,
900516,SEAUX RUMI PGS 5 KG,,,,,,,,,,,,,
154856,SEL ADOUCIS.25K EXCELL CYLINDR,,,,,,,,,,,,,
162261,SEL ENSILAGE IODE GROS 25 KG,,,,,,,,,,,,,
27704,SEL FIN-V/T,,,,,,,,,,,,,
202278,SEL FIN RAFFINE AGRI 25KG,,,,,,,,,,,,,
900918,SEL SAC 25 KG,,,,,,,,,,,,,
900499,SERINGUES COLOSTRALE 6U,,,,,,,,,,,,,
AL-00564,SILOMIX 18 VR,,,,,,,,,,,,,
33993,SMASH 230,,,,,,,,,,,,,
33977,SMASH COMPLEMENTAIRE 240,,,,,,,,,,,,,
33976,SMASH COMPLEMENTAIRE 280,,,,,,,,,,,,,
34203,SMASH COMPLET ENGRAISSEMENT,,,,,,,,,,,,,
33621,SMASH CROIS+2.5 AZUR HERBE,,,,,,,,,,,,,
32979,SMASH CROISSANCE,,,,,,,,,,,,,
31846,SMASH EMBOUCHE,,,,,,,,,,,,,
31843,SMASH INTENSIF,,,,,,,,,,,,,
33978,SMASH MULTI 15,,,,,,,,,,,,,
33930,SMASH MULTI 17,,,,,,,,,,,,,
31725,SMASH TOP CROISSANCE,,,,,,,,,,,,,
31850,SMASH TOP DELICE,,,,,,,,,,,,,
SMC00LBO01,SMC00LBO01,,,,,,,,,,,,,
SMC00LFS01,SMC00LFS01,,,,,,,,,,,,,
SMC00LIQ07,SMC00LIQ07,,,,,,,,,,,,,
SOJA,SOJA,,,,,,,,,,,,,
55321,SOLSEL LIX R 45x25kg E4,,,,,,,,,,,,,
900601,SOLULAC MOS 5KG,,,,,,,,,,,,,
07009P05,SOLULAC MOS seau 5 kg,,,,,,,,,,,,,
900483,SOLVOR AGNEAU,,,,,,,,,,,,,
162187,SOLVOR AGNEAU SAC25KG,,,,,,,,,,,,,
116045,SPEC SANI GC,,,,,,,,,,,,,
FMC26VIA01VRSPFI,SPRAY 26% VIA LACTA,,,,,,,,,,,,,
FMC26VIA015HI51G,SPRAY 26% VIA LACTA,,,,,,,,,,,,,
FMC26VIA01BBGPFI,SPRAY 26% VIA LACTA,,,,,,,,,,,,,
FMC26VIA015HI01B,SPRAY 26% VIA LACTA,,,,,,,,,,,,,
FMC26VIA01H1032Z,SPRAY 26% VIA LACTA,,,,,,,,,,,,,
FMC26LIQ03,SPRAY 26% VIA LACTA,,,,,,,,,,,,,
FMC26VIA01ECHDEV,SPRAY 26% VIA LACTA,,,,,,,,,,,,,
FMC26VIA015HIPPL,SPRAY 26% VIA LACTA,,,,,,,,,,,,,
FMC26VIA015HI01D,SPRAY 26% VIA LACTA,,,,,,,,,,,,,
FMC26VIA01,SPRAY 26% VIA LACTA,,,,,,,,,,,,,
109051,STABILIQ- V/T,,,,,,,,,,,,,
900529,STABIVER 10KG,,,,,,,,,,,,,
07118G10,STABIVER NATURE 10 KG,,,,,,,,,,,,,
5495012L20,STAR BLOC GESTANTE,,,,,,,,,,,,,
900430,SUPRA RUMEN GRANULE,,,,,,,,,,,,,
116228,Synchro E1 GC,,,,,,,,,,,,,
116232,Synchro E2 GC,,,,,,,,,,,,,
116143,Synchromix 50 GC,,,,,,,,,,,,,
116144,Synchromix P2 GC,,,,,,,,,,,,,
900389,T5X 20KG,,,,,,,,,,,,,
159359,TECHNO PARTUM GR 25KG,,,,,,,,,,,,,
33137,TONI FREE 27,,,,,,,,,,,,,
33138,TONI FREE 27 -,,,,,,,,,,,,,
33270,TONI FREE BROUTARD,,,,,,,,,,,,,
710552,Top 17,,,,,,,,,,,,,
116068,TOP IMMUN GC,,,,,,,,,,,,,
116053,Topcorn GC,,,,,,,,,,,,,
116077,Topcur GC,,,,,,,,,,,,,
116048,TOPDIGEST GC,,,,,,,,,,,,,
116071,Topmilk GC,,,,,,,,,,,,,
9700T00,tourteau feed d'extraction de colza non OGM,,,,,,,,,,,,,
TOURTEAUX DE COLZA GRAS,TOURTEAUX DE COLZA GRAS,,,,,,,,,,,,,
TOURTEAUX DE COLZA NON OGM,TOURTEAUX DE COLZA NON OGM,,,,,,,,,,,,,
900399,TP METHIO PF,,,,,,,,,,,,,
41022,TRACY ALL,,,,,,,,,,,,,
46668,TRACY BABY - VEAU 1ER AGE,,,,,,,,,,,,,
44035,TRACY BOOSTER IT3,,,,,,,,,,,,,
49724,TRACY BV COMPLET,,,,,,,,,,,,,
49721,TRACY BV PULPES,,,,,,,,,,,,,
48022,TRACY CELLULOSE,,,,,,,,,,,,,
41052,TRACY ETOILE IT3,,,,,,,,,,,,,
44017,TRACY FORT,,,,,,,,,,,,,
41050,TRACY LIGHT IT3,,,,,,,,,,,,,
44032,TRACY METRO IT3,,,,,,,,,,,,,
44036,TRACY MIX 41,,,,,,,,,,,,,
41043,TRACY MIX BV 335,,,,,,,,,,,,,
44016,TRACY MIXTE,,,,,,,,,,,,,
44020,TRACY NOVO,,,,,,,,,,,,,
44015,TRACY PERF,,,,,,,,,,,,,
44037,TRACY PLUS IT3,,,,,,,,,,,,,
41044,TRACY PRO BV 335,,,,,,,,,,,,,
44019,TRACY PRO,,,,,,,,,,,,,
44668,TRACY STARTER,,,,,,,,,,,,,
41023,TRACY SUPREME,,,,,,,,,,,,,
44030,TRACY TANNE,,,,,,,,,,,,,
44018,TRACY UNIC,,,,,,,,,,,,,
41051,TRACY VALOMEGA IT3,,,,,,,,,,,,,
107337,TX COLZA STNO*- V/T,,,,,,,,,,,,,
"50,2022",TX DE COLZA,,,,,,,,,,,,,
26562,TX TOURNESOL HIPRO- V/T,,,,,,,,,,,,,
09043L30,UCASIL F6 bidon de 30 kg,,,,,,,,,,,,,
09043LFO,UCASIL F6 Fût de 220 Kg,,,,,,,,,,,,,
900609,ULTRALAC PROTECT,,,,,,,,,,,,,
5241,ULTRALAC PROTECT-5KG,,,,,,,,,,,,,
5400905S25,UNI'OSVIOR 5/28/3,,,,,,,,,,,,,
5657905S25,UNI'OSVIOR 6/20/5,,,,,,,,,,,,,
900433,UREE 80,,,,,,,,,,,,,
26779,UREE ALIMENTAIRE-S/T,,,,,,,,,,,,,
26774,UREE ALIMENTAIRE-V/T,,,,,,,,,,,,,
900428,UREE ALIMENTAIRE INCORPOREE,,,,,,,,,,,,,
160762,UREE AZOMIN 80 25KG,,,,,,,,,,,,,
07044PUN,"VEL'TONUS S 12x800g seau de 9,6 kg",,,,,,,,,,,,,
07043P08,VEL'TONUS seau de 8 kg,,,,,,,,,,,,,
900605,VEL TONUS 8KG,,,,,,,,,,,,,
"5,451703E+026",VERTU'ZEN,,,,,,,,,,,,,
U15VIA04AD543D0EI,VIA ADV 1/2 1L 630 180J,,,,,,,,,,,,,
900451,VITABRON 25 KG,,,,,,,,,,,,,
900477,VODOR BIONAT,,,,,,,,,,,,,
900505,VODOR DAIRY MAX,,,,,,,,,,,,,
5993,VODOR DAIRY MAX 25-KG SAC 25KG,,,,,,,,,,,,,
900509,VODOR LIFE,,,,,,,,,,,,,
5602,VODOR LIFE-25KG SAC 25KG,,,,,,,,,,,,,
4563,VODOR PRIM-25KG,,,,,,,,,,,,,
4911,VODOR TECH-25KG SAC 25KG,,,,,,,,,,,,,
900595,VODOR TECH 25 KG,,,,,,,,,,,,,
4677,VODOR TONIC-25KG,,,,,,,,,,,,,
900572,VODOR TONIC 25 KG,,,,,,,,,,,,,
