location_number,actor_number,name,company_name,gln,country,postcode,city,first_name,last_name,line_1,line_2,line_3,tags,latitude,longitude
Bourrelière,Bodet Samuel,Bourrelière,Samuel BODET,,France,,,,,undefined,,,,,
Brillouet,Bodet Samuel,Brillouet,Samuel BODET,,France,,,,,undefined,,,,,
Champ Coupeau,Bodet Samuel,Champ Coupeau,Samuel BODET,,France,,,,,undefined,,,,,
Chaume,Bodet Samuel,Chaume,Samuel BODET,,France,,,,,undefined,,,,,
,CLS,CLS COOPERATIVE LAITIERE DE LA SEVRE,CLS COOPERATIVE LAITIERE DE LA SEVRE,,France,79370,CELLES-SUR-BELLE,,,5 AV DE NIORT,,,,,
Coussote,Bodet Samuel,Coussote,Samuel BODET,,France,,,,,undefined,,,,,
,Bouchaud,Domaine Du Bois Joly,Laurent BOUCHAUD,,France,44330,LE PALLET,,,54 Le Bois Joly,,,,,
,Suteau,Domaine du Champ Chapron,Carmen SUTEAU,,France,44450,DIVATTE SUR LOIRE,,,Le Champ Chapron,,,,,
,Pétard,Domaine du Plessis Glain,Christophe BAZILE &  Vincent PETARD,,France,44450,SAINT JULIEN DE CONCELLES,,,35bis Le Plessis Glain,,,,,
,Gourves,Domaine La Haie Angebaud,André-Jean GOURVES,,France,44310,SAINT PHILBERT DE GRANDLIEU,,,6 La Haie Angebaud,,,,,
EARL ID OEUFS,EARL ID OEUFS,EARL ID OEUFS,EARL ID OEUFS,,France,85670,,,,undefined,,,,,
EARL LE BOIS NEUF,EARL LE BOIS NEUF,EARL LE BOIS NEUF,EARL LE BOIS NEUF,,France,85150,,,,undefined,,,,,
EARL LES ECOUROLLES,EARL LES ECOUROLLES,EARL LES ECOUROLLES,EARL LES ECOUROLLES,,France,85420,MAILLEZAIS,,,Ld Civray,,,,,
Gacheresse,Bodet Samuel,Gacheresse,Samuel BODET,,France,,,,,undefined,,,,,
BABIN1000,BABIN1,GAEC BABINIERE,GAEC BABINIERE,,France,85710,La Garnache,,,La Babinière,,,,,
GAEC LA LOYAUTE,GAEC LA LOYAUTE,GAEC LA LOYAUTE,GAEC LA LOYAUTE,,France,85200,DOIX LES FONTAINES,,,La Loyauté,,,,,
GAEC LES CHAMBRES,GAEC LES CHAMBRES,GAEC LES CHAMBRES,GAEC LES CHAMBRES,,France,85420,SAINT PIERRE LE VIEUX,,,"Les Chambres, SOUIL",,,,,
VENDE10,VENDE1,GAEC VENDELOIRE,GAEC VENDELOIRE,,France,85660,Saint Philbert de Bouaine,,,La Sauzaie,,,,,
Jachère,Bodet Samuel,Jachère,Samuel BODET,,France,,,,,undefined,,,,,
L'abbaye,William Chaigne,L'abbaye,Chaigne William,,France,,,,,undefined,,,,,
L'étang,William Chaigne,L'étang,Chaigne William,,France,,,,,undefined,,,,,
La Dive,Bodet Samuel,La Dive,Samuel BODET,,France,,,,,undefined,,,,,
Le Fief,Bodet Samuel,Le Fief,Samuel BODET,,France,,,,,undefined,,,,,
,MASSART,Le Jardin d’Edouard,Edouard MASSART,,France,44690,CHATEAU-THEBAUD,,,7 La Petite Jaunaie,,,,,
LE RUCHER DES FONTAINES,Bodet Samuel,LE RUCHER DES FONTAINES,Samuel BODET,,France,85570,SAINT-MARTIN-DES-FONTAINES,,,undefined,,,,,
Le Vignaud,Lescure Laure,Le Vignaud,Laure LESCURE,,France,,,,,undefined,,,,,
Les Bios,Bodet Samuel,Les Bios,Samuel BODET,,France,,,,,undefined,,,,,
LES MOULINS DE LA VOLTIERE,,LES MOULINS DE LA VOLTIERE,LES MOULINS DE LA VOLTIERE,,France,85710,La Garnache,,,La VoltiÃ¨re,,,,,
Michetterie,Bodet Samuel,Michetterie,Samuel BODET,,France,,,,,undefined,,,,,
Saint Juire Champgillon,William Chaigne,Saint Juire Champgillon,Chaigne William,,France,85210,SAINT AUBIN LA PLAINE,,,undefined,,,,,
SAS LES ŒUFS GESLIN,,SAS LES ŒUFS GESLIN,SAS LES ŒUFS GESLIN,,France,85140,,,,undefined,,,,,
SCEA L'OEUF EST DANS LE PRÉ,SCEA L'OEUF EST DANS LE PRÉ,SCEA L'ŒUF EST DANS LE PRÉ,SCEA L’OEUF EST DANS LE PRÉ,,France,85150,,,,undefined,,,,,
site 1,AMB25,Site 1 GAEC AMB,GAEC AMB,,France,44310,LA LIMOUZINIERE,,,6 LA CRETINIERE,,,,,
site 1,CLEDE1,Site 1 GAEC CLEFS DES CHAMPS,GAEC CLEFS DES CHAMPS,,France,44310,SAINT PHILBERT DE GRAND LIEU,,,1 ROCHE BLANCHE,,,,,
site 1,LAVEN4,Site 1 GAEC DE L'AVENIR,GAEC DE L'AVENIR,,France,44270,PAULX,,,LA PINTIERE,,,,,
site 1,DEUXC3,Site 1 GAEC DES DEUX COURS D'EAU,GAEC DES DEUX COURS D'EAU,,France,44650,CORCOUE SUR LOGNE,,,100 L'HERBERIE,,,,,
site 1,EAUXC2,Site 1 GAEC DES EAUX CALMES,GAEC DES EAUX CALMES,,France,44650,CORCOUE SUR LOGNE,,,LD LA COUR,,,,,
site 1,GENET11,Site 1 GAEC DES GENETS,GAEC DES GENETS,,France,44270,SAINT ETIENNE DE MER MORTE,,,LA JUDINIERE,,,,,
site 1,MARAI1,Site 1 GAEC DES MARAIS,GAEC DES MARAIS,,France,44310,SAINT LUMINE DE COUTAIS,,,4 LA SALETTE,,,,,
site 1,PREVE1,Site 1 GAEC DES PRES VERTS,GAEC DES PRES VERTS,,France,44650,CORCOUE SUR LOGNE,,,7 LA CANTARDIERE,,,,,
site 1,ROCHE25,Site 1 GAEC DU ROCHER,GAEC DU ROCHER,,France,44310,SAINT PHILBERT DE GRAND LIEU,,,LES ENFERS,,,,,
site 1,PAULX1,Site 1 GAEC PAULX DE LAIT,GAEC PAULX DE LAIT,,France,44270,PAULX,,,3 T LA REAUTE,,,,,
site 1,ENCLO25,Site 1GAEC DE L'ENCLOS,GAEC DE L'ENCLOS,,France,44270,SAINT ETIENNE DE MER MORTE,,,7 B LD LA MURAILLERE,,,,,
