product_number,name,description,ean13,gtin13,gtin14,height,height_unit,width_unit,depth,depth_unit,volume,volume_unit,tags,sectors
5173F99,*BLEX PRESTATION,,,,,,,,,,,,,
1752G99,*NOYAU BOXY ORGE 125,,,,,,,,,,,,,
3000G99,*NOYAU DOMINO PERRON,,,,,,,,,,,,,
1760F99,*NOYAU EVO KERBERS 50,,,,,,,,,,,,,
3759F99,*NOYAU GESTILEST,,,,,,,,,,,,,
3878F99,*NOYAU GESTILEST PERRON,,,,,,,,,,,,,
1758F99,*NOYAU KERBERS 50,,,,,,,,,,,,,
3360G99,*NOYAU MUSCLOR NRJ SP,,,,,,,,,,,,,
3881G99,*NOYAU MUSCLOR NRJ SP PERRON,,,,,,,,,,,,,
3352G99,*NOYAU MUSCLOR START,,,,,,,,,,,,,
3359G99,*NOYAU MUSCLOR START SP,,,,,,,,,,,,,
3880G99,*NOYAU MUSCLOR START SP PERRON,,,,,,,,,,,,,
3105G99,*NOYAU SELECTO ORGE,,,,,,,,,,,,,
3879G99,*NOYAU SELECTO ORGE PERRON,,,,,,,,,,,,,
2630F99,*NOYAU TEMPO GEST BE,,,,,,,,,,,,,
5021G99,*ORGE APLATIE -prest-,,,,,,,,,,,,,
03411110663660,03411110663660,,,,,,,,,,,,,
03411110663714,03411110663714,,,,,,,,,,,,,
03411111951612,03411111951612,,,,,,,,,,,,,
03411113003418,03411113003418,,,,,,,,,,,,,
03411113021061,03411113021061,,,,,,,,,,,,,
03411113038854,03411113038854,,,,,,,,,,,,,
03411113038861,03411113038861,,,,,,,,,,,,,
03411113039592,03411113039592,,,,,,,,,,,,,
03411113046668,03411113046668,,,,,,,,,,,,,
03411113049522,03411113049522,,,,,,,,,,,,,
03411113065720,03411113065720,,,,,,,,,,,,,
03661103027379,03661103027379,,,,,,,,,,,,,
03760161601139,03760161601139,,,,,,,,,,,,,
04007221036852,04007221036852,,,,,,,,,,,,,
04028691510970,04028691510970,,,,,,,,,,,,,
04028691517320,04028691517320,,,,,,,,,,,,,
04028691517351,04028691517351,,,,,,,,,,,,,
04028691542780,04028691542780,,,,,,,,,,,,,
04028691565604,04028691565604,,,,,,,,,,,,,
05017363023558,05017363023558,,,,,,,,,,,,,
05414736021287,05414736021287,,,,,,,,,,,,,
05420036922070,05420036922070,,,,,,,,,,,,,
08427711151531,08427711151531,,,,,,,,,,,,,
08427711151555,08427711151555,,,,,,,,,,,,,
08427711153207,08427711153207,,,,,,,,,,,,,
08427711155119,08427711155119,,,,,,,,,,,,,
08427711156529,08427711156529,,,,,,,,,,,,,
08427711175001,08427711175001,,,,,,,,,,,,,
08427711216940,08427711216940,,,,,,,,,,,,,
08427711217596,08427711217596,,,,,,,,,,,,,
08427711219149,08427711219149,,,,,,,,,,,,,
08427711229575,08427711229575,,,,,,,,,,,,,
08427711229827,08427711229827,,,,,,,,,,,,,
08427711235477,08427711235477,,,,,,,,,,,,,
08713184057075,08713184057075,,,,,,,,,,,,,
08713184057112,08713184057112,,,,,,,,,,,,,
08713184057167,08713184057167,,,,,,,,,,,,,
08713184057501,08713184057501,,,,,,,,,,,,,
08713184058478,08713184058478,,,,,,,,,,,,,
08713184096180,08713184096180,,,,,,,,,,,,,
08713184113665,08713184113665,,,,,,,,,,,,,
08713184115003,08713184115003,,,,,,,,,,,,,
08713184117793,08713184117793,,,,,,,,,,,,,
08713184141606,08713184141606,,,,,,,,,,,,,
08713184141750,08713184141750,,,,,,,,,,,,,
08713184170965,08713184170965,,,,,,,,,,,,,
08713184171887,08713184171887,,,,,,,,,,,,,
08713184172372,08713184172372,,,,,,,,,,,,,
08713184197276,08713184197276,,,,,,,,,,,,,
08714015011969,08714015011969,,,,,,,,,,,,,
08714015011976,08714015011976,,,,,,,,,,,,,
08714015022446,08714015022446,,,,,,,,,,,,,
2361G99,2361G99,,,,,,,,,,,,,
2578F99,2578F99,,,,,,,,,,,,,
2740F99,2740F99,,,,,,,,,,,,,
2742G99,2742G99,,,,,,,,,,,,,
2745G99,2745G99,,,,,,,,,,,,,
2809F99,2809F99,,,,,,,,,,,,,
2880S99,2880S99,,,,,,,,,,,,,
3173F25,3173F25,,,,,,,,,,,,,
3551G99,3551G99,,,,,,,,,,,,,
3665F99,3665F99,,,,,,,,,,,,,
3870F99,3870F99,,,,,,,,,,,,,
3870S99,3870S99,,,,,,,,,,,,,
3985S99,3985S99,,,,,,,,,,,,,
5016G25,5016G25,,,,,,,,,,,,,
5043D01,5043D01,,,,,,,,,,,,,
5045D01,5045D01,,,,,,,,,,,,,
61236,61236,,,,,,,,,,,,,
61237,61237,,,,,,,,,,,,,
61238,61238,,,,,,,,,,,,,
61239,61239,,,,,,,,,,,,,
61240,61240,,,,,,,,,,,,,
61241,61241,,,,,,,,,,,,,
61242,61242,,,,,,,,,,,,,
3239F25,APPA TOP 25 KGS,,,,,,,,,,,,,
3239G25,APPA TOP 25 KGS,,,,,,,,,,,,,
23185,ASPIRINE 50 *coophavet*   Sac de 5 kg,,,,,,,,,,,,,
1169F25,BABY WEAN 25 KGS,,,,,,,,,,,,,
3386D01,BACTOCELL 0.1 SAC,,,,,,,,,,,,,
23197,BAYCOX IRON 100 ML,,,,,,,,,,,,,
23199,BIOCYTOCINE FL 50 ML,,,,,,,,,,,,,
8287D01,BIOSTABIL MAYS 200 GR,,,,,,,,,,,,,
5052G99,BLE PREST.,,,,,,,,,,,,,
1727G99,BOXY 125,,,,,,,,,,,,,
1750G99,BOXY ORGE 125,,,,,,,,,,,,,
2943G99,BOXY SAFE,,,,,,,,,,,,,
23211,CIRCOVAC 50 ml (25 DOSES truies / 100 doses porcelets),,,,,,,,,,,,,
5129G99,COLZA NT,,,,,,,,,,,,,
2402F99,CROISSANCE 22,,,,,,,,,,,,,
3860G99,CROISSANCE AD LIB,,,,,,,,,,,,,
4008D01,DC BREEDER PK COMPLET CHIK 18K,,,,,,,,,,,,,
23195,DEXA-JECT LE FLACON DE 50 ML,,,,,,,,,,,,,
23196,DIURIZONE FL 50 ML,,,,,,,,,,,,,
3189F99,DOMINO SP FA,,,,,,,,,,,,,
3189G99,DOMINO SP GR 3.2MM,,,,,,,,,,,,,
23200,ENZAPROST T SOL INJ   FL. 50 ML,,,,,,,,,,,,,
23209,ERYSENG PARVO SUSP INJ 10 D.,,,,,,,,,,,,,
23210,ERYSENG PARVO SUSP INJ 25 D.,,,,,,,,,,,,,
3203G99,EXTRA NOURRAIN 4MM GR,,,,,,,,,,,,,
2038D01,FITALO FUR DE 225 KG,,,,,,,,,,,,,
1725F99,GALIK 100,,,,,,,,,,,,,
1722F99,GALIK 110,,,,,,,,,,,,,
2449S99,GESTA LOUZAOUEN,,,,,,,,,,,,,
3828S99,GESTILEST BE,,,,,,,,,,,,,
3567G99,IMUNO,,,,,,,,,,,,,
3375G99,IMUNO DIETO,,,,,,,,,,,,,
3554G99,IMUNO FUN,,,,,,,,,,,,,
3554G25,IMUNO FUN SAC,,,,,,,,,,,,,
3734G99,IMUNO TOP DIETO,,,,,,,,,,,,,
3376G25,IMUNO WEAN,,,,,,,,,,,,,
23203,INGELVAC CIRCOFLEX PC 50ML (50 DOSES),,,,,,,,,,,,,
23188,INOXYL PATE ORALE FL. 150 ML (A),,,,,,,,,,,,,
1488D01,KAOLIN SAC DE 25 KGS,,,,,,,,,,,,,
3985F99,LACTA BOOST SP,,,,,,,,,,,,,
3755F99,LACTA CONFORT,,,,,,,,,,,,,
3640F99,LACTA TRUIE FA,,,,,,,,,,,,,
3672F99,LACTASTAR FA,,,,,,,,,,,,,
2727F20,LACTO CONNECT,,,,,,,,,,,,,
2720F20,LACTO NEXT,,,,,,,,,,,,,
2937F20,LACTO START 20 KG,,,,,,,,,,,,,
23190,"LINCOCINE 100MG SOL INJECTABLE FL,250 ML (A)",,,,,,,,,,,,,
3869S99,LINOLACT 35,,,,,,,,,,,,,
7677F99,MAC PRO 66,,,,,,,,,,,,,
5002G99,MAIS HUMIDE VRAC,,,,,,,,,,,,,
MQ,Manquants,,,,,,,,,,,,,
5961S99,MASTER 25,,,,,,,,,,,,,
5961F99,MASTER 25 FAR,,,,,,,,,,,,,
5960F99,MASTER 35 FARINE,,,,,,,,,,,,,
2606D01,MELLOW GO 15KG,,,,,,,,,,,,,
23187,MELOVEM 5 mg/ml sol inj PORC  le flacon 100ml,,,,,,,,,,,,,
23201,"MONZAL SOLUTION INJECTABLE     FL, 50 ML",,,,,,,,,,,,,
MO,Morts,,,,,,,,,,,,,
23191,MULTIBIO FL 250 ML (A),,,,,,,,,,,,,
1314G99,MUSCLOR NRJ BBC,,,,,,,,,,,,,
2931G99,MUSCLOR NRJ SP *,,,,,,,,,,,,,
1310F99,MUSCLOR START,,,,,,,,,,,,,
1310G99,MUSCLOR START,,,,,,,,,,,,,
2928G99,MUSCLOR START SP *,,,,,,,,,,,,,
1374G99,MUSCLOR UNIQUE,,,,,,,,,,,,,
23189,MYCOFLOR 30%   FL 100ML (A),,,,,,,,,,,,,
7044G99,OPTILAC 4-21-4 INC.VRAC,,,,,,,,,,,,,
5023G99,ORGE PREST.,,,,,,,,,,,,,
1730G25,PERFECTO,,,,,,,,,,,,,
1730G99,PERFECTO,,,,,,,,,,,,,
2725G99,PERFECTO LABEL ORGE,,,,,,,,,,,,,
2057G99,PERFECTO WEAN,,,,,,,,,,,,,
3482G25,PIGLET TOP GREEN,,,,,,,,,,,,,
25,Porcelets 25kg,,,,,,,,,,,,,
8,Porcelets 8kg,,,,,,,,,,,,,
CH,Porcs charcutiers,,,,,,,,,,,,,
23192,POTENCIL FLACON 250 ML (A),,,,,,,,,,,,,
5047D01,Prestation 100% céréales,,,,,,,,,,,,,
5174D01,Prestation blex,,,,,,,,,,,,,
5011D01,Prestation céréales,,,,,,,,,,,,,
5028D01,Prestation céréales farine,,,,,,,,,,,,,
5027D01,Prestation céréales granulés,,,,,,,,,,,,,
5057D01,Prestation FA V/ BLE ORGE MAIS (PORC),,,,,,,,,,,,,
5064D01,Prestation FA V/ ORGE (RUMINANT),,,,,,,,,,,,,
5059D01,Prestation GR 3 V/ BLE ORGE MAIS (PORC),,,,,,,,,,,,,
5046D01,Prestation GR 4 V/ BLE ORGE MAIS (PORC),,,,,,,,,,,,,
5104D01,Prestation GR V/ BLE PREST 22 (PORC),,,,,,,,,,,,,
7869G99,PROTEA 41,,,,,,,,,,,,,
RF,Réformes,,,,,,,,,,,,,
RP,Reproducteurs,,,,,,,,,,,,,
23207,RHINISENG FLACON DE  10  DOSES,,,,,,,,,,,,,
23208,RHINISENG FLACON DE 25 DOSES,,,,,,,,,,,,,
23186,RIFEN     le FL. 100 ml,,,,,,,,,,,,,
3184G99,SELECTO GR,,,,,,,,,,,,,
3184S99,SELECTO MI,,,,,,,,,,,,,
5107F99,SOJA 48 N.T,,,,,,,,,,,,,
5135G99,SOJA TROM,,,,,,,,,,,,,
3163F35,SON 35 KG,,,,,,,,,,,,,
23198,STABILO  10 KG,,,,,,,,,,,,,
23194,STRESNIL FL 100 ML,,,,,,,,,,,,,
2987D01,SUCRE 25 KG,,,,,,,,,,,,,
23206,SUISENG COLI/C SUSPENSION INJECTABLE FL. 25 D.,,,,,,,,,,,,,
23202,SUVAXYN M-HYO MONO LE FLACON de 50 DOSES,,,,,,,,,,,,,
3307G99,TEMPO AD LIB,,,,,,,,,,,,,
2680G99,TEMPO AD LIB *,,,,,,,,,,,,,
3762G99,TEMPO CROISSANCE,,,,,,,,,,,,,
2927G99,TEMPO CROISSANCE *,,,,,,,,,,,,,
3761G99,TEMPO FINITION,,,,,,,,,,,,,
2930G99,TEMPO FINITION *,,,,,,,,,,,,,
2643G99,TEMPO FINITION AD LIB,,,,,,,,,,,,,
1301G99,TEMPO FINITION AD LIB *,,,,,,,,,,,,,
3760F99,TEMPO GEST,,,,,,,,,,,,,
3764F99,TEMPO GEST 30,,,,,,,,,,,,,
3763F99,TEMPO GEST 50,,,,,,,,,,,,,
3916F99,TEMPO GEST BE,,,,,,,,,,,,,
3665S99,TEMPO GEST SP SEM,,,,,,,,,,,,,
2993F99,TEMPO LACT,,,,,,,,,,,,,
23193,TETRAVETO 10 KG (A),,,,,,,,,,,,,
23212,TONIC HP  25 KG,,,,,,,,,,,,,
2891G25,TOP WEAN,,,,,,,,,,,,,
8304F99,Tromihepa,,,,,,,,,,,,,
2102D01,TROMIPART,,,,,,,,,,,,,
3088G25,TROMIPHANERES,,,,,,,,,,,,,
2211F99,TRUIE GESTA 25,,,,,,,,,,,,,
3625S99,TRUIE GESTA LOUZAOUEN,,,,,,,,,,,,,
2880F99,TRUIE GESTA PLUS SP,,,,,,,,,,,,,
2617F99,TRUIE LACTA 35,,,,,,,,,,,,,
2550F99,TRUIE LACTA 50% FA,,,,,,,,,,,,,
1708F99,TSP LACTASTAR,,,,,,,,,,,,,
2642F99,UNIQUE 25 FAR,,,,,,,,,,,,,
23205,UNISTRAIN   1FL. 10 D. + 1FL. 20 ML SOLV,,,,,,,,,,,,,
23204,UNISTRAIN  1FL. 50 D. + 1FL. 100 ML SOLV,,,,,,,,,,,,,
