location_number,actor_number,name,company_name,gln,country,postcode,city,first_name,last_name,line_1,line_2,line_3,tags,latitude,longitude
None,None,,,,None,None,,,,,,,,,
None,None,,,,None,None,,,,,,,,,
None,None,,,,None,None,,,,,,,,,
None,None,,,,None,None,,,,,,,,,
None,None,,,,None,None,,,,,,,,,
None,None,,,,None,None,,,,,,,,,
None,None,,,,None,None,,,,,,,,,
None,None,,,,None,None,,,,,,,,,
None,None,,,,None,None,,,,,,,,,
None,None,,,,None,None,,,,,,,,,
None,None,,,,None,None,,,,,,,,,
None,None,,,,None,None,,,,,,,,,
None,None,,,,None,None,,,,,,,,,
None,None,,,,None,None,,,,,,,,,
None,None,,,,None,None,,,,,,,,,
None,None,,,,None,None,,,,,,,,,
None,None,,,,None,None,,,,,,,,,
None,None,,,,None,None,,,,,,,,,
None,None,,,,None,None,,,,,,,,,
None,None,,,,None,None,,,,,,,,,
None,None,,,,None,None,,,,,,,,,
None,None,,,,None,None,,,,,,,,,
None,None,,,,None,None,,,,,,,,,
None,None,,,,None,None,,,,,,,,,
None,None,,,,None,None,,,,,,,,,
None,None,,,,None,None,,,,,,,,,
None,None,,,,None,None,,,,,,,,,
None,None,,,,None,None,,,,,,,,,
None,None,,,,None,None,,,,,,,,,
None,None,,,,None,None,,,,,,,,,
None,None,,,,None,None,,,,,,,,,
None,None,,,,None,None,,,,,,,,,
None,None,,,,None,None,,,,,,,,,
None,None,,,,None,None,,,,,,,,,
None,None,,,,None,None,,,,,,,,,
None,None,,,,None,None,,,,,,,,,
None,None,,,,None,None,,,,,,,,,
None,None,,,,None,None,,,,,,,,,
None,None,,,,None,None,,,,,,,,,
None,None,,,,None,None,,,,,,,,,
None,None,,,,None,None,,,,,,,,,
None,None,,,,None,None,,,,,,,,,
None,None,,,,None,None,,,,,,,,,
None,None,,,,None,None,,,,,,,,,
None,None,,,,None,None,,,,,,,,,
None,None,,,,None,None,,,,,,,,,
None,None,,,,None,None,,,,,,,,,
None,None,,,,None,None,,,,,,,,,
None,None,,,,None,None,,,,,,,,,
None,None,,,,None,None,,,,,,,,,
None,None,,,,None,None,,,,,,,,,
None,None,,,,None,None,,,,,,,,,
None,None,,,,None,None,,,,,,,,,
None,None,,,,None,None,,,,,,,,,
None,None,,,,None,None,,,,,,,,,
None,None,,,,None,None,,,,,,,,,
None,None,,,,None,None,,,,,,,,,
None,None,,,,None,None,,,,,,,,,
None,None,,,,None,None,,,,,,,,,
None,None,,,,None,None,,,,,,,,,
None,None,,,,None,None,,,,,,,,,
None,None,,,,None,None,,,,,,,,,
None,None,,,,None,None,,,,,,,,,
None,None,,,,None,None,,,,,,,,,
None,None,,,,None,None,,,,,,,,,
None,None,,,,None,None,,,,,,,,,
None,None,,,,None,None,,,,,,,,,
None,None,,,,None,None,,,,,,,,,
None,None,,,,None,None,,,,,,,,,
None,None,,,,None,None,,,,,,,,,
None,None,,,,None,None,,,,,,,,,
None,None,,,,None,None,,,,,,,,,
None,None,,,,None,None,,,,,,,,,
None,None,,,,None,None,,,,,,,,,
None,None,,,,None,None,,,,,,,,,
None,None,,,,None,None,,,,,,,,,
None,None,,,,None,None,,,,,,,,,
None,None,,,,None,None,,,,,,,,,
None,None,,,,None,None,,,,,,,,,
None,None,,,,None,None,,,,,,,,,
None,None,,,,None,None,,,,,,,,,
None,None,,,,None,None,,,,,,,,,
None,None,,,,None,None,,,,,,,,,
None,None,,,,None,None,,,,,,,,,
None,None,,,,None,None,,,,,,,,,
None,None,,,,None,None,,,,,,,,,
None,None,,,,None,None,,,,,,,,,
None,None,,,,None,None,,,,,,,,,
None,None,,,,None,None,,,,,,,,,
None,None,,,,None,None,,,,,,,,,
None,None,,,,None,None,,,,,,,,,
None,None,,,,None,None,,,,,,,,,
None,None,,,,None,None,,,,,,,,,
None,None,,,,None,None,,,,,,,,,
None,None,,,,None,None,,,,,,,,,
None,None,,,,None,None,,,,,,,,,
None,None,,,,None,None,,,,,,,,,
None,None,,,,None,None,,,,,,,,,
None,None,,,,None,None,,,,,,,,,
None,None,,,,None,None,,,,,,,,,
None,None,,,,None,None,,,,,,,,,
None,None,,,,None,None,,,,,,,,,
None,None,,,,None,None,,,,,,,,,
None,None,,,,None,None,,,,,,,,,
None,None,,,,None,None,,,,,,,,,
None,None,,,,None,None,,,,,,,,,
None,None,,,,None,None,,,,,,,,,
None,None,,,,None,None,,,,,,,,,
None,None,,,,None,None,,,,,,,,,
None,None,,,,None,None,,,,,,,,,
None,None,,,,None,None,,,,,,,,,
None,None,,,,None,None,,,,,,,,,
None,None,,,,None,None,,,,,,,,,
None,None,,,,None,None,,,,,,,,,
None,None,,,,None,None,,,,,,,,,
None,None,,,,None,None,,,,,,,,,
None,None,,,,None,None,,,,,,,,,
None,None,,,,None,None,,,,,,,,,
None,None,,,,None,None,,,,,,,,,
None,None,,,,None,None,,,,,,,,,
None,None,,,,None,None,,,,,,,,,
None,None,,,,None,None,,,,,,,,,
None,None,,,,None,None,,,,,,,,,
None,None,,,,None,None,,,,,,,,,
None,None,,,,None,None,,,,,,,,,
None,None,,,,None,None,,,,,,,,,
None,None,,,,None,None,,,,,,,,,
None,None,,,,None,None,,,,,,,,,
None,None,,,,None,None,,,,,,,,,
None,None,,,,None,None,,,,,,,,,
None,None,,,,None,None,,,,,,,,,
None,None,,,,None,None,,,,,,,,,
None,None,,,,None,None,,,,,,,,,
None,None,,,,None,None,,,,,,,,,
None,None,,,,None,None,,,,,,,,,
None,None,,,,None,None,,,,,,,,,
None,None,,,,None,None,,,,,,,,,
None,None,,,,None,None,,,,,,,,,
None,None,,,,None,None,,,,,,,,,
None,None,,,,None,None,,,,,,,,,
None,None,,,,None,None,,,,,,,,,
None,None,,,,None,None,,,,,,,,,
None,None,,,,None,None,,,,,,,,,
None,None,,,,None,None,,,,,,,,,
None,None,,,,None,None,,,,,,,,,
None,None,,,,None,None,,,,,,,,,
None,None,,,,None,None,,,,,,,,,
None,None,,,,None,None,,,,,,,,,
None,None,,,,None,None,,,,,,,,,
None,None,,,,None,None,,,,,,,,,
None,None,,,,None,None,,,,,,,,,
None,None,,,,None,None,,,,,,,,,
None,None,,,,None,None,,,,,,,,,
None,None,,,,None,None,,,,,,,,,
None,None,,,,None,None,,,,,,,,,
None,None,,,,None,None,,,,,,,,,
None,None,,,,None,None,,,,,,,,,
None,None,,,,None,None,,,,,,,,,
None,None,,,,None,None,,,,,,,,,
None,None,,,,None,None,,,,,,,,,
None,None,,,,None,None,,,,,,,,,
None,None,,,,None,None,,,,,,,,,
None,None,,,,None,None,,,,,,,,,
None,None,,,,None,None,,,,,,,,,
None,None,,,,None,None,,,,,,,,,
None,None,,,,None,None,,,,,,,,,
None,None,,,,None,None,,,,,,,,,
None,None,,,,None,None,,,,,,,,,
None,None,,,,None,None,,,,,,,,,
None,None,,,,None,None,,,,,,,,,
None,None,,,,None,None,,,,,,,,,
None,None,,,,None,None,,,,,,,,,
None,None,,,,None,None,,,,,,,,,
None,None,,,,None,None,,,,,,,,,
None,None,,,,None,None,,,,,,,,,
None,None,,,,None,None,,,,,,,,,
None,None,,,,None,None,,,,,,,,,
None,None,,,,None,None,,,,,,,,,
None,None,,,,None,None,,,,,,,,,
None,None,,,,None,None,,,,,,,,,
None,None,,,,None,None,,,,,,,,,
None,None,,,,None,None,,,,,,,,,
None,None,,,,None,None,,,,,,,,,
None,None,,,,None,None,,,,,,,,,
None,None,,,,None,None,,,,,,,,,
None,None,,,,None,None,,,,,,,,,
None,None,,,,None,None,,,,,,,,,
None,None,,,,None,None,,,,,,,,,
None,None,,,,None,None,,,,,,,,,
None,None,,,,None,None,,,,,,,,,
None,None,,,,None,None,,,,,,,,,
None,None,,,,None,None,,,,,,,,,
None,None,,,,None,None,,,,,,,,,
None,None,,,,None,None,,,,,,,,,
None,None,,,,None,None,,,,,,,,,
None,None,,,,None,None,,,,,,,,,
None,None,,,,None,None,,,,,,,,,
None,None,,,,None,None,,,,,,,,,
None,None,,,,None,None,,,,,,,,,
None,None,,,,None,None,,,,,,,,,
None,None,,,,None,None,,,,,,,,,
None,None,,,,None,None,,,,,,,,,
None,None,,,,None,None,,,,,,,,,
None,None,,,,None,None,,,,,,,,,
None,None,,,,None,None,,,,,,,,,
None,None,,,,None,None,,,,,,,,,
None,None,,,,None,None,,,,,,,,,
None,None,,,,None,None,,,,,,,,,
None,None,,,,None,None,,,,,,,,,
None,None,,,,None,None,,,,,,,,,
None,None,,,,None,None,,,,,,,,,
None,None,,,,None,None,,,,,,,,,
None,None,,,,None,None,,,,,,,,,
None,None,,,,None,None,,,,,,,,,
None,None,,,,None,None,,,,,,,,,
None,None,,,,None,None,,,,,,,,,
None,None,,,,None,None,,,,,,,,,
None,None,,,,None,None,,,,,,,,,
None,None,,,,None,None,,,,,,,,,
None,None,,,,None,None,,,,,,,,,
None,None,,,,None,None,,,,,,,,,
None,None,,,,None,None,,,,,,,,,
None,None,,,,None,None,,,,,,,,,
None,None,,,,None,None,,,,,,,,,
None,None,,,,None,None,,,,,,,,,
None,None,,,,None,None,,,,,,,,,
None,None,,,,None,None,,,,,,,,,
None,None,,,,None,None,,,,,,,,,
None,None,,,,None,None,,,,,,,,,
None,None,,,,None,None,,,,,,,,,
None,None,,,,None,None,,,,,,,,,
None,None,,,,None,None,,,,,,,,,
None,None,,,,None,None,,,,,,,,,
None,None,,,,None,None,,,,,,,,,
None,None,,,,None,None,,,,,,,,,
None,None,,,,None,None,,,,,,,,,
None,None,,,,None,None,,,,,,,,,
None,None,,,,None,None,,,,,,,,,
None,None,,,,None,None,,,,,,,,,
None,None,,,,None,None,,,,,,,,,
None,None,,,,None,None,,,,,,,,,
None,None,,,,None,None,,,,,,,,,
None,None,,,,None,None,,,,,,,,,
None,None,,,,None,None,,,,,,,,,
None,None,,,,None,None,,,,,,,,,
None,None,,,,None,None,,,,,,,,,
None,None,,,,None,None,,,,,,,,,
None,None,,,,None,None,,,,,,,,,
None,None,,,,None,None,,,,,,,,,
None,None,,,,None,None,,,,,,,,,
None,None,,,,None,None,,,,,,,,,
None,None,,,,None,None,,,,,,,,,
None,None,,,,None,None,,,,,,,,,
None,None,,,,None,None,,,,,,,,,
None,None,,,,None,None,,,,,,,,,
None,None,,,,None,None,,,,,,,,,
None,None,,,,None,None,,,,,,,,,
None,None,,,,None,None,,,,,,,,,
None,None,,,,None,None,,,,,,,,,
None,None,,,,None,None,,,,,,,,,
None,None,,,,None,None,,,,,,,,,
None,None,,,,None,None,,,,,,,,,
None,None,,,,None,None,,,,,,,,,
None,None,,,,None,None,,,,,,,,,
None,None,,,,None,None,,,,,,,,,
None,None,,,,None,None,,,,,,,,,
None,None,,,,None,None,,,,,,,,,
None,None,,,,None,None,,,,,,,,,
None,None,,,,None,None,,,,,,,,,
None,None,,,,None,None,,,,,,,,,
None,None,,,,None,None,,,,,,,,,
None,None,,,,None,None,,,,,,,,,
None,None,,,,None,None,,,,,,,,,
None,None,,,,None,None,,,,,,,,,
None,None,,,,None,None,,,,,,,,,
None,None,,,,None,None,,,,,,,,,
None,None,,,,None,None,,,,,,,,,
None,None,,,,None,None,,,,,,,,,
None,None,,,,None,None,,,,,,,,,
None,None,,,,None,None,,,,,,,,,
None,None,,,,None,None,,,,,,,,,
None,None,,,,None,None,,,,,,,,,
None,None,,,,None,None,,,,,,,,,
None,None,,,,None,None,,,,,,,,,
None,None,,,,None,None,,,,,,,,,
None,None,,,,None,None,,,,,,,,,
None,None,,,,None,None,,,,,,,,,
None,None,,,,None,None,,,,,,,,,
None,None,,,,None,None,,,,,,,,,
None,None,,,,None,None,,,,,,,,,
None,None,,,,None,None,,,,,,,,,
None,None,,,,None,None,,,,,,,,,
None,None,,,,None,None,,,,,,,,,
None,None,,,,None,None,,,,,,,,,
None,None,,,,None,None,,,,,,,,,
None,None,,,,None,None,,,,,,,,,
None,None,,,,None,None,,,,,,,,,
None,None,,,,None,None,,,,,,,,,
None,None,,,,None,None,,,,,,,,,
None,None,,,,None,None,,,,,,,,,
None,None,,,,None,None,,,,,,,,,
None,None,,,,None,None,,,,,,,,,
None,None,,,,None,None,,,,,,,,,
None,None,,,,None,None,,,,,,,,,
None,None,,,,None,None,,,,,,,,,
None,None,,,,None,None,,,,,,,,,
None,None,,,,None,None,,,,,,,,,
None,None,,,,None,None,,,,,,,,,
None,None,,,,None,None,,,,,,,,,
None,None,,,,None,None,,,,,,,,,
None,None,,,,None,None,,,,,,,,,
None,None,,,,None,None,,,,,,,,,
None,None,,,,None,None,,,,,,,,,
None,None,,,,None,None,,,,,,,,,
None,None,,,,None,None,,,,,,,,,
None,None,,,,None,None,,,,,,,,,
None,None,,,,None,None,,,,,,,,,
None,None,,,,None,None,,,,,,,,,
None,None,,,,None,None,,,,,,,,,
None,None,,,,None,None,,,,,,,,,
None,None,,,,None,None,,,,,,,,,
None,None,,,,None,None,,,,,,,,,
None,None,,,,None,None,,,,,,,,,
None,None,,,,None,None,,,,,,,,,
None,None,,,,None,None,,,,,,,,,
None,None,,,,None,None,,,,,,,,,
None,None,,,,None,None,,,,,,,,,
None,None,,,,None,None,,,,,,,,,
None,None,,,,None,None,,,,,,,,,
None,None,,,,None,None,,,,,,,,,
None,None,,,,None,None,,,,,,,,,
None,None,,,,None,None,,,,,,,,,
None,None,,,,None,None,,,,,,,,,
None,None,,,,None,None,,,,,,,,,
None,None,,,,None,None,,,,,,,,,
None,None,,,,None,None,,,,,,,,,
None,None,,,,None,None,,,,,,,,,
None,None,,,,None,None,,,,,,,,,
None,None,,,,None,None,,,,,,,,,
None,None,,,,None,None,,,,,,,,,
None,None,,,,None,None,,,,,,,,,
None,None,,,,None,None,,,,,,,,,
None,None,,,,None,None,,,,,,,,,
None,None,,,,None,None,,,,,,,,,
None,None,,,,None,None,,,,,,,,,
None,None,,,,None,None,,,,,,,,,
None,None,,,,None,None,,,,,,,,,
None,None,,,,None,None,,,,,,,,,
None,None,,,,None,None,,,,,,,,,
None,None,,,,None,None,,,,,,,,,
None,None,,,,None,None,,,,,,,,,
None,None,,,,None,None,,,,,,,,,
None,None,,,,None,None,,,,,,,,,
None,None,,,,None,None,,,,,,,,,
