{
    "name": "ref_lot",
    "product": "ref_product",
    "quantity": "quantity",
    "flow_date": "delivery_at",
    "site_sender": "ref_site",
    "tool_sender": null,
    "actor_sender": "ref_actor_producer",
    "site_receiver": null,
    "TDS":{"fixed":"38156184400022"},
    "specific_data": {
        "Heure": "hour",
        "Lot \u00e9levage livr\u00e9": "ref_lot"
    },
    "tool_receiver": null,
    "actor_receiver": "ref_actor_receipt",
    "csv_parameters": {
        "decimal": ".",
        "delimiter": ";"
    },

    "db_request_mapping": {
        "TDS": {
            "matching_key": "siret_number",
            "matching_table":"Actor"
        },
        "product": {
            "owner": "TDS",
            "matching_key": "internal_code"
        },
        "site_sender": {
            "owner": "actor_sender",
            "matching_key": "internal_code"
        },
        "tool_sender": null,
        "actor_sender": {
            "matching_key": "siret_number"
        },
        "site_receiver": null,
        "tool_receiver": null,
        "actor_receiver": {
            "matching_key": "siret_number"
        }
    }
}