ReceivingYear;GrowerName;GrowerFieldBlock;FieldDesc;SizerWONumber;NetWeight;VarietyDesc;DateCreated
21;Trinitas Pomona;TP-POM-Tim Bell-Tim Bell;Tim Bell;42132;40977;Wood Colony;9/21/21 5:31
21;Trinitas Pomona;TP-POM-Tim Bell-Tim Bell;Tim Bell;42132;40977;Wood Colony;9/21/21 5:57
21;Trinitas Pomona;TP-POM-Tim Bell-Tim Bell;Tim Bell;42132;40977;Wood Colony;9/21/21 6:15
21;Trinitas Pomona;TP-POM-Tim Bell-Tim Bell;Tim Bell;42132;40977;Wood Colony;9/21/21 6:16
21;Trinitas Pomona;TP-POM-Tim Bell-Tim Bell;Tim Bell;42132;40977;Wood Colony;9/21/21 6:25
21;Trinitas Pomona;TP-POM-Tim Bell-Tim Bell;Tim Bell;42132;40977;Wood Colony;9/21/21 6:31
21;Trinitas Pomona;TP-POM-Tim Bell-Tim Bell;Tim Bell;42132;40977;Wood Colony;9/21/21 6:35
21;Trinitas Pomona;TP-POM-Tim Bell-Tim Bell;Tim Bell;42132;40977;Wood Colony;9/21/21 6:43
21;Trinitas Pomona;TP-POM-Tim Bell-Tim Bell;Tim Bell;42132;40977;Wood Colony;9/21/21 6:48
21;Trinitas Pomona;TP-POM-Tim Bell-Tim Bell;Tim Bell;42132;40977;Wood Colony;9/21/21 6:51
21;Trinitas Pomona;TP-POM-Tim Bell-Tim Bell;Tim Bell;42132;40977;Wood Colony;9/21/21 6:55
21;Trinitas Pomona;TP-POM-Tim Bell-Tim Bell;Tim Bell;42132;40977;Wood Colony;9/21/21 7:07
21;Trinitas Pomona;TP-POM-Tim Bell-Tim Bell;Tim Bell;42132;40977;Wood Colony;9/21/21 7:09
21;Trinitas Pomona;TP-POM-Tim Bell-Tim Bell;Tim Bell;42132;40977;Wood Colony;9/21/21 7:19
21;Trinitas Pomona;TP-POM-Tim Bell-Tim Bell;Tim Bell;42132;40977;Wood Colony;9/21/21 7:22
21;Trinitas Pomona;TP-POM-Tim Bell-Tim Bell;Tim Bell;42132;40977;Wood Colony;9/21/21 7:30
21;Trinitas Pomona;TP-POM-Tim Bell-Tim Bell;Tim Bell;42132;40977;Wood Colony;9/21/21 7:43
21;Trinitas Pomona;TP-POM-Tim Bell-Tim Bell;Tim Bell;42132;40977;Wood Colony;9/21/21 7:45