{
	"name": "NUM_BL",
	"flow_date": "DATE_EXPE",
	"actor_sender": {"fixed" : "42970729200018_2"},
	"site_sender": null,
    "tool_sender": null,
	"product": "CODE_PRODUIT",
	"quantity": "QUANTITE",
	"actor_receiver": "SIRET_LIVRE",
	"site_receiver": "CODE_SITE",
	"tool_receiver": null,
	"specification": null,
	"specific_data": {
        "Lot exp\u00e9di\u00e9": "LOT",
		"SIRET factur\u00e9": "SIRET_FACTURE",
		"Libell\u00e9 produit": "LIB_PRODUIT",
		"unit\u00e9":"UNITE",
		"DTCHARGE":"DTCHARGE"
	},
	"csv_parameters": {
		"delimiter": ";",
		"decimal": "."
	},

	"transformations": [
        {
            "transformation": "replace",
            "columns": ["QUANTITE"],
            "to_replace": ",",
            "placeholder": "."
		}
	],

	"db_request_mapping": {
		"actor_sender" : {"matching_key":"siret_number"
		},

		"product": {
			"matching_key": "internal_code",
			"owner": "actor_sender"
		},
        "actor_receiver": {"matching_key":"siret_number"
			},
        
		"site_receiver": {
			"matching_key": "internal_code",
			"owner": "actor_receiver"
		},
        "tool_receiver": null,
        "tool_sender": null
	},
	"extra_parameters": {
		"date_format": "%d/%m/%y"
	}
}