{
    "name": "Type",
    "flow_date": "Farmer delivery date",
    "actor_sender": "Farmer internal code",
    "site_sender": {
        "fixed": "reference"
    },
    "tool_sender": null,
    "product": "Product code in",
    "quantity": "Quantity total delivered by the farmer (tons)",
    "actor_receiver": {
        "fixed": "302005341"
    },
    "site_receiver": {
        "fixed": "Mainfrucht"
    },
    "tool_receiver": null,
    "specification": {
        "fixed": "HOLUNDER"
    },
    "actor_reference": {
        "fixed": "DE 228 256 901"
    },
    "cf_uniqueness_first": {
        "fixed": "BIONADE"
    },
    "specific_data": {
        "Year of production": "Year of production",
        "Harvest start date": "Harvest start date",
        "Harvest end date": "Harvest end date",
        "Total quantity delivered": "Quantity total delivered by the farmer (tons)",
        "Concentrate batch number": "Concentrate batch number"
    },
    "csv_parameters": {
        "delimiter": ";"
    },
    "db_request_mapping": {
        "actor_sender": {
            "matching_key": "connection",
            "owner": "actor_reference",
            "matching_table": "ActorTranscode"
        },
        "actor_reference": {
            "matching_key": "siret_number",
            "matching_table": "Actor"
        },
        "site_sender": {
            "matching_key": "internal_code",
            "owner": "actor_sender"
        },
        "tool_sender": null,
        "product": {
            "matching_key": "internal_code",
            "owner": "actor_reference"
        },
        "actor_receiver": {
            "matching_key": "connection",
            "owner": "actor_reference",
            "matching_table": "ActorTranscode"
        },
        "site_receiver": {
            "matching_key": "internal_code",
            "owner": "actor_receiver"
        },
        "tool_receiver": null
    },
    "transformations": [
        {
            "transformation": "replace",
            "columns": [
                "Farmer delivery date"
            ],
            "to_replace": " ",
            "placeholder": ""
        },
        {
            "transformation": "unwind",
            "columns": [
                "Farmer delivery date"
            ],
            "delimiter": ","
        }
    ],
    "extra_parameters": {
        "date_format": "%d.%m.%y"
    }
}