{
    "name":"ref_fabrication_order",
    "flow_date":"date_mvt",
    "actor_sender":"ref_actor_to",
    "site_sender":"code_site_from",
    "tool_sender":"code_stock_tool_from",
    "product":"code",
    "quantity":"quantity_to",
    "actor_receiver":"ref_actor_to",
    "site_receiver":"code_site",
    "tool_receiver":"ref_stock_tool",
    "specification":"ref_cdc",
    "specific_data":{
       "Site exp\u00e9diteur":"code_site_from",
       "Site receveur":"code_site",
       "Sans insecticide":"sans_insecticide",
       "Date mouvement":"date_mvt",
       "Date annulation":"date_annulation",
       "Numero de lot entrant":"ref_lot_from",
       "Numero de lot sortant":"ref_lot_to"
    },
    "csv_parameters":{
       "delimiter":";",
       "decimal":"."
    },
    "db_request_mapping":{
       "actor_sender":{
          "matching_key":"siret_number"
       },
       "site_sender":{
          "matching_key":"internal_code",
          "owner":"actor_sender"
       },
       "tool_sender":{
          "matching_key":"internal_code",
          "owner":"actor_sender",
          "site":"site_sender"
       },
       "product":{
          "matching_key":"internal_code",
          "owner":"actor_sender"
       },
       "actor_receiver":{
          "matching_key":"siret_number"
       },
       "site_receiver":{
          "matching_key":"internal_code",
          "owner":"actor_receiver"
       },
       "tool_receiver":{
          "matching_key":"internal_code",
          "owner":"actor_receiver",
          "site":"site_receiver"
       }
    },
    "extra_parameters":{
       "date_format":"%Y-%m-%d %H:%M:%S.%f",
       "focus_on":{
          "ref_cdc":"EXCELLENCE LABEL ROUGE",
          "type":[
             "TRANSFERTS",
             "AUTRES"
          ]
       }
    }
 }