{
   "name":"ref_delivery_form_display",
   "flow_date":"date_mvt",
   "actor_sender":"ref_actor_to",
   "site_sender":"code_site",
   "tool_sender":"ref_stock_tool",
   "product":"ref_product_c",
   "quantity":"quantity",
   "specification":"ref_cdc",
   "cf_uniqueness_first":{
      "fixed":"SOUFFLET AGRICULTURE"
   },
   "specific_data":{
      "Site exp\u00e9diteur":"code_site",
      "Sans insecticide":"sans_insecticide",
      "Date mouvement":"date_mvt",
      "Date annulation":"date_annulation",
      "Numero de lot sortant":"ref_lot_d",
      "Cellule de d\u00e9part":"ref_stock_tool",
      "N\u00b0 de bon d'exp\u00e9dition":"Bon_d'exp\u00e9dition"
   },
   "csv_parameters":{
      "delimiter":";",
      "decimal":".",
      "encoding":"utf-8"
   },
   "db_request_mapping":{
      "actor_sender":{
         "matching_key":"siret_number"
      },
      "site_sender":{
         "matching_key":"internal_code",
         "owner":"actor_sender"
      },
      "tool_sender":{
         "matching_key":"internal_code",
         "owner":"actor_sender",
         "site":"site_sender"
      },
      "product":{
         "matching_key":"internal_code",
         "owner":"actor_sender"
      }
   },
   "extra_parameters":{
      "date_format":"%Y-%m-%d %H:%M:%S.%f",
      "focus_on":{
         "ref_cdc":"EXCELLENCE LABEL ROUGE",
         "type":"EXPEDITIONS"
      }
   }
}