{
    "name": "Chrono",
    "flow_date": "Date mvt",
    "actor_sender": "Fournisseur",
    "site_sender": null,
    "tool_sender": null,
    "product": "Article",
    "quantity": "Quantite",
    "actor_receiver": {
        "fixed": "30048291600032"
    },
    "site_receiver": null,
    "tool_receiver": null,
    "cf_uniqueness_first": {
        "fixed": "DACO BELLO"
    },
    "specific_data": {
        "Lot du Fournisseur": "Lot fournisseur",
        "Lot de réception": "Lot",
        "DDM/DLUO": "DLUO",
        "Taux d'humidité": "H%",
        "Chips & Scratched": "TX C&S",
        "Nature": "Nature",
        "Libellé article": "Libelle article",
        "Dép": "Dep",
        "Heure du mouvement": "Heure du mouvement"
    },
    "csv_parameters": {
        "delimiter": ";"
    },
    "db_request_mapping": {
        "actor_sender": {
            "matching_key": "connection",
            "owner": "actor_receiver",
            "matching_table": "ActorTranscode"
        },
        "site_sender": null,
        "tool_sender": null,
        "product": {
            "matching_key": "internal_code",
            "owner": "actor_receiver"
        },
        "actor_receiver": {
            "matching_key": "siret_number",
            "matching_table": "Actor"
        },
        "site_receiver": null,
        "tool_receiver": null
    },
    "transformations": [
        {
            "transformation": "append",
            "columns": [
                "Chrono"
            ],
            "to": "left",
            "to_add": "Chrono VIF : "
        },
        {
            "transformation": "replace",
            "columns": [
                "TX C&S"
            ],
            "to_replace": ",",
            "placeholder": "."
        },
        {
            "transformation": "replace",
            "columns": [
                "H%"
            ],
            "to_replace": ",",
            "placeholder": "."
        },
        {
            "transformation": "replace",
            "columns": [
                "Quantite"
            ],
            "to_replace": "-",
            "placeholder": ""
        },
        {
            "transformation": "replace",
            "columns": [
                "Quantite"
            ],
            "to_replace": ",",
            "placeholder": "."
        }
    ],
    "extra_parameters": {
        "focus_on": {
            "Nature": [
                "A-BR"
            ],
            "Article": [
                "030302136",
                "030302155",
                "030802136",
                "040101001012",
                "040101002012",
                "280102008006",
                "280102009012",
                "050103085100"
            ]
        }
    }
}