siret;facusi;llidlo;facliv;facart;aglpro;faqtli;fauvte;fadlsj;fanblv;numtva
39274590700015;49648006200082;32487124;390986;111977;KIDY PERF PO-T;1.78;TONN;20200929;40324075;50PRT
39274590700015;49648006200082;32487125;390986;111987;GUSTY TEC PO-T;9.84;TONN;20200929;40324075;50PRT
39274590700015;49648006200082;32487126;390986;111989;GRANDY TEC PO-T;9.1;TONN;20200929;40324075;50PRT
39274590700015;49648006200082;32487127;390986;111989;GRANDY TEC PO-T;4.66;TONN;20200929;40324075;50PRT
