{
    "name": "ref_delivery_form_display",
    "flow_date": "delivery_at",
    "actor_sender" : "ref_actor_producer",
    "site_sender": null,
    "tool_sender": "code_stock_tool",
    "product": "ref_product",
    "quantity": "quantity",
    "actor_receiver": "ref_actor_receipt",
    "site_receiver": null,
    "tool_receiver": null,
    "specific_data": {
        "Code interne du client" : "ref_actor_receipt",
        "Code interne du produit" : "ref_product",
        "Code interne n° bon de commande" : "ref_order_form",
        "Lot livré" : "ref_lot"
        
    },
    "csv_parameters": {
        "delimiter": ";",
        "decimal": ".",
        "skiprows": [1]
    },
    "db_request_mapping": {
        "actor_sender": {"matching_key":"siret_number"},
        "site_sender": null,
        "tool_sender": {"matching_key":"internal_code", "owner":"actor_sender"},
        "product": {"matching_key":"internal_code", "owner":"actor_sender"},
        "actor_receiver" : {"matching_key":"connection", "owner":"actor_sender", "matching_table": "ActorTranscode"},
        "site_receiver" : null,
        "tool_receiver" : null
    }
}