{
    "name": "Batch number out",
    "flow_date": "Date of bottling",
    "actor_sender": {
        "fixed": "DE 228 256 901"
    },
    "site_sender": "Plant code",
    "tool_sender": null,
    "product": "Code product out",
    "quantity": "Quantity bottled",
    "actor_receiver": {
        "fixed": "DE 228 256 901"
    },
    "site_receiver": "Plant code",
    "tool_receiver": null,
    "specification": null,
    "cf_uniqueness_first": {
        "fixed": "BIONADE"
    },
    "specific_data": {
        "Code product in": "Code product in (sirup)",
        "Sirup batch number in": "Batch number in",
        "Final batch number": "Batch number out",
        "Number of bottles filled": "Number of bottles filled"
    },
    "csv_parameters": {
        "delimiter": ";",
        "skiprows": [
            0,
            2
        ]
    },
    "db_request_mapping": {
        "actor_sender": {
            "matching_key": "siret_number",
            "matching_table": "Actor"
        },
        "site_sender": {
            "matching_key": "internal_code",
            "owner": "actor_sender"
        },
        "tool_sender": null,
        "product": {
            "matching_key": "internal_code",
            "owner": "actor_sender"
        },
        "actor_receiver": {
            "matching_key": "siret_number",
            "matching_table": "Actor"
        },
        "site_receiver": {
            "matching_key": "internal_code",
            "owner": "actor_receiver"
        },
        "tool_receiver": null
    },
    "transformations": [
        {
            "transformation": "replace",
            "columns": [
                "Quantity bottled"
            ],
            "to_replace": ",",
            "placeholder": "."
        }
    ],
    "extra_parameters": {
        "date_format": "%d.%m.%Y",
        "focus_on": {
            "Plant code": "C01"
        }
    }
}