{
    "name": "PackingWONumber",
    "flow_date": "PackingDateDumped",
    "actor_sender": {
        "fixed": "USMONTEVISTA"
    },
    "site_sender": {
        "fixed": "PACKER"
    },
    "tool_sender": null,
    "product": "VarietyDesc",
    "quantity": "NetWeight",
    "actor_receiver": {
        "fixed": "USMONTEVISTA"
    },
    "site_receiver": {
        "fixed": "PACKER"
    },
    "tool_receiver": null,
    "cf_uniqueness_first": {
        "fixed": "DACO BELLO"
    },
    "specific_data": {
        "Lot de tri": "SizerWONumber",
        "Lot de packaging": "PackingWONumber",
        "Bin Number": "BinNumber",
        "Calibre": "SizeDesc",
        "Tag Number": "TagNumber",
        "Poids du Big Bag": {
            "fixed": "200 lbs"
        }
    },
    "csv_parameters": {
        "delimiter": ";"
    },
    "db_request_mapping": {
        "actor_sender": {
            "matching_key": "siret_number",
            "matching_table": "Actor"
        },
        "site_sender": {
            "matching_key": "internal_code",
            "owner": "actor_sender"
        },
        "tool_sender": null,
        "product": {
            "matching_key": "internal_code",
            "owner": "actor_sender"
        },
        "actor_receiver": {
            "matching_key": "siret_number",
            "matching_table": "Actor"
        },
        "site_receiver": {
            "matching_key": "internal_code",
            "owner": "actor_receiver"
        },
        "tool_receiver": null
    },
    "transformations": [
    ],
    "extra_parameters": {
        "date_format": "%m/%d/%Y %I:%M:%S %p"
    }
}