{
    "name": "N\u00b0 Bon",
    "flow_date": "Date",
    "actor_sender": {
        "fixed": "39198157800035"
    },
    "site_sender": "Code interne acteur exp\u00e9diteur",
    "tool_sender": "Code interne acteur exp\u00e9diteur",
    "product": "Code produit",
    "quantity": "Poids Net",
    "actor_receiver": {
        "fixed": "39198157800035"
    },
    "site_receiver": {
        "fixed": "2930"
    },
    "tool_receiver": "N\u00b0 Container",
    "specification": null,
    "specific_data": {
        "N\u00b0 de livraison": "N\u00b0 Liv",
        "Ann\u00e9e de r\u00e9colte": "Ann\u00e9e de r\u00e9colte",
        "Mouvement": "Mouvement",
        "Type de Livraison": "Type de Livraison"
    },
    "csv_parameters": {
        "delimiter": ";",
        "decimal": "."
    },
    "db_request_mapping": {
        "actor_sender": {
            "matching_key": "siret_number"
        },
        "site_sender": {
            "matching_key": "internal_code",
            "owner": "actor_sender"
        },
        "tool_sender": {
            "matching_key": "internal_code",
            "owner": "actor_sender",
            "site": "site_sender"
        },
        "product": {
            "matching_key": "internal_code",
            "owner": "actor_sender"
        },
        "actor_receiver": {
            "matching_key": "siret_number"
        },
        "site_receiver": {
            "matching_key": "internal_code",
            "owner": "actor_receiver"
        },
        "tool_receiver": {
            "matching_key": "internal_code",
            "owner": "actor_receiver",
            "site": "site_receiver"
        }
    },
    "extra_parameters": {
        "date_format": "%d/%m/%Y",
        "focus_on": {
            "Type de Livraison": "Livraison\u00a0d'un\u00a0silo"
        }
    }
}