C007;SF VIANDES GRIGNOTEES;300;CRYSTAL NEULISE;GRIGNOTEUSE;220000733;SF HAUT DE CUISSE DE DINDE APVF GRIGNOTE;11/08/2022;VC083069;22230002;12/08/2022;21150065 , 22230002;1 | 03 | 900439 - DUC;;0;1
C010;SF CUTTERE;300;CRYSTAL NEULISE;CUTTER 3;220000722;SF SAUCISSON CUIT DE VOLAILLE - CUTTER;11/08/2022;VC083002;22230005;12/08/2022;22220094 , 22220098 , 22230002 , 22230005;1 | 03 | 900239 - CIE LES SALINS DU MIDI ET DES SA , 1 | 03 | 900241 - DAT-SCHAUB FRANCE SAS , 1 | 03 | 900439 - DUC , 1 | 03 | 900594 - VAN HEES SARL , 1 | 03 | 901174 - TEREOS STARCH & SWEETENERS BELGI;;0;1
C011;SF POUSSES POUR CUISSON;300;CRYSTAL NEULISE;S. POUSSOIR 1;220000678;SF SAUCISSON CUIT DE VOLAILLE 350G - POUSSE;11/08/2022;VC082953;22230084;16/08/2022;12490074 , 21090083 , 22230005 , 22230084;1 | 03 | 900237 - AGRO-INDUSTRIE TECHNOLOGIE SNC , 1 | 03 | 900239 - CIE LES SALINS DU MIDI ET DES SA , 1 | 03 | 900241 - DAT-SCHAUB FRANCE SAS , 1 | 03 | 900439 - DUC , 1 | 03 | 900594 - VAN HEES SARL , 1 | 03 | 900595 - VISKASE SAS , 1 | 03 | 901174 - TEREOS STARCH & SWEETENERS BELGI;;0;1
C013;PF SAVEURDELICES;300;CRYSTAL NEULISE;MISE SV CUIT;1SA840000;ID SAUCISSON CUIT PUR VOLAILLE 350G;16/08/2022;SC061242;22280063;15/10/2022;22230084 , 20280080 , 20890055 , 11860073 , 21110107;;;0;1