﻿Code interne produit;Produit;Fournisseur;Code fournisseur;Date d'abattage;Quantités;Unité;Date de réception;Lot entrant;Lot sortant;Nom éleveur;Adresse eleveur;Code éleveur;Certification Halal;Date de l'expédition
F872100010;HDC DDE HAL SPSO 15KG CG  ARGML;CADF;CADF;19/04/2021;2400;KG;20/04/2022;29045790;2989393;SOUBIGOU JOEL;29450 Sizun;R_66077;OUI;21/04/2022
F872100011;HDC DDE HAL SPSO 15KG CG  ARGML;CADF;CADF;19/04/2021;2400;KG;20/04/2022;29045791;2989393;GAEC DE ROCHERS;56380 St malo de Beignon;R_52543;OUI;21/04/2022
F872100012;HDC DDE HAL SPSO 15KG CG  ARGML;CADF;CADF;19/04/2021;2400;KG;20/04/2022;29045790;2989393;SOUBIGOU JOEL;29450 Sizun;R_66077;OUI;22/04/2022
F872100013;HDC DDE HAL SPSO 15KG CG  ARGML;CADF;CADF;19/04/2021;2400;KG;20/04/2022;29045791;2989393;GAEC DE ROCHERS;56380 St malo de Beignon;R_52543;OUI;22/04/2022
F872100014;HDC DDE HAL SPSO 15KG CG  ARGML;CADF;CADF;19/04/2021;1335;KG;26/04/2022;29045831;2989698;EARL DE KERMELIN;56500 ST Allouestre;R_56183;OUI;29/04/2022
F872100015;HDC DDE HAL SPSO 15KG CG  ARGML;CADF;CADF;19/04/2021;1335;KG;27/04/2022;29045840;2989698;PORHEL SERGE;29430 TREFLEZ;R_64499;OUI;29/04/2022