{
    "name": 20,
    "flow_date": 19,
    "actor_sender" : {"fixed": "53844948900029"},
    "site_sender": 7,
    "tool_sender": null,
    "product": 0,
    "quantity": 27,
    "actor_receiver": 15,
    "site_receiver": null,
    "tool_receiver": null,
    "specification": null,
    "cf_uniqueness_first": {"fixed": "Isla délice"},
    "cf_uniqueness_second": null,
    "specific_data": {
    "Commande code": 23,
    "Date commande": 22,
    "Bon de livraison lib": 21,
    "SSCC Palette Exped": 2,
    "DLC": 6,
    "CP": 17,
    "VILLE": 18,
    "Facture code": 25,
    "Qte.U.Fact": 27,
    "Nb Colis": 28,
    "Lot Externe": 5
    },
    "csv_parameters": {
    "delimiter": ";",
    "header": null,
    "skiprows": [0]

    },
    "db_request_mapping": {
    "actor_sender": {"matching_key": "siret_number"},
    "site_sender": {"matching_key": "internal_code","owner": "actor_sender"},
    "tool_sender": null,
    "product": {"matching_key":"internal_code", "owner":"actor_sender"},
    "actor_receiver": {"matching_key":"connection", "owner":"actor_sender","matching_table":"ActorTranscode"},
    "site_receiver": null,
    "tool_receiver": null
    },
    "extra_parameters": {
        "date_format": "%d/%m/%Y"
    }
    }
    