﻿PackingWONumber,WorkcenterDesc,FinishedGoodsTagNumber,TagTypeDesc,DateCreated,DepartureDate,NetWeight,ItemDesc,VarietyDesc,GradeDesc,SizeDesc
42211,Sorting,982438,Finished Goods Tag,10/12/2021 5:32:21 AM,11/8/2021 12:00:00 AM,2200,"Carmel Type Variety, US No. 1 (Supreme), Max 5% C&S, Meats, 22/24 AOL, Unpasteurized",Carmel Type,US No. 1 (Supreme),22/24
42211,Sorting,982466,Finished Goods Tag,10/12/2021 6:05:25 AM,11/8/2021 12:00:00 AM,2200,"Carmel Type Variety, US No. 1 (Supreme), Max 5% C&S, Meats, 22/24 AOL, Unpasteurized",Carmel Type,US No. 1 (Supreme),22/24
42211,Sorting,982503,Finished Goods Tag,10/12/2021 6:41:47 AM,11/8/2021 12:00:00 AM,2200,"Carmel Type Variety, US No. 1 (Supreme), Max 5% C&S, Meats, 22/24 AOL, Unpasteurized",Carmel Type,US No. 1 (Supreme),22/24
42211,Sorting,982545,Finished Goods Tag,10/12/2021 7:44:37 AM,11/8/2021 12:00:00 AM,2200,"Carmel Type Variety, US No. 1 (Supreme), Max 5% C&S, Meats, 22/24 AOL, Unpasteurized",Carmel Type,US No. 1 (Supreme),22/24
42211,Sorting,982588,Finished Goods Tag,10/12/2021 8:41:36 AM,11/8/2021 12:00:00 AM,2200,"Carmel Type Variety, US No. 1 (Supreme), Max 5% C&S, Meats, 22/24 AOL, Unpasteurized",Carmel Type,US No. 1 (Supreme),22/24
42211,Sorting,982636,Finished Goods Tag,10/12/2021 10:11:23 AM,11/8/2021 12:00:00 AM,2200,"Carmel Type Variety, US No. 1 (Supreme), Max 5% C&S, Meats, 22/24 AOL, Unpasteurized",Carmel Type,US No. 1 (Supreme),22/24
42211,Sorting,982674,Finished Goods Tag,10/12/2021 11:01:48 AM,11/8/2021 12:00:00 AM,2200,"Carmel Type Variety, US No. 1 (Supreme), Max 5% C&S, Meats, 22/24 AOL, Unpasteurized",Carmel Type,US No. 1 (Supreme),22/24
42211,Sorting,982693,Finished Goods Tag,10/12/2021 11:40:09 AM,11/8/2021 12:00:00 AM,2200,"Carmel Type Variety, US No. 1 (Supreme), Max 5% C&S, Meats, 22/24 AOL, Unpasteurized",Carmel Type,US No. 1 (Supreme),22/24
42211,Sorting,982738,Finished Goods Tag,10/12/2021 12:57:51 PM,11/8/2021 12:00:00 AM,2200,"Carmel Type Variety, US No. 1 (Supreme), Max 5% C&S, Meats, 22/24 AOL, Unpasteurized",Carmel Type,US No. 1 (Supreme),22/24
42211,Sorting,982762,Finished Goods Tag,10/12/2021 1:59:05 PM,11/8/2021 12:00:00 AM,2200,"Carmel Type Variety, US No. 1 (Supreme), Max 5% C&S, Meats, 22/24 AOL, Unpasteurized",Carmel Type,US No. 1 (Supreme),22/24
42212,Sorting,982946,Finished Goods Tag,10/12/2021 7:57:02 PM,11/8/2021 12:00:00 AM,2200,"Nonpareil Variety, US No. 1 (Supreme), Max 5% C&S, Meats, 22/24 AOL, Unpasteurized",Nonpareil,US No. 1 (Supreme),22/24
42212,Sorting,982959,Finished Goods Tag,10/12/2021 8:36:26 PM,11/8/2021 12:00:00 AM,2200,"Nonpareil Variety, US No. 1 (Supreme), Max 5% C&S, Meats, 22/24 AOL, Unpasteurized",Nonpareil,US No. 1 (Supreme),22/24
42212,Sorting,982982,Finished Goods Tag,10/12/2021 9:42:08 PM,11/8/2021 12:00:00 AM,2200,"Nonpareil Variety, US No. 1 (Supreme), Max 5% C&S, Meats, 22/24 AOL, Unpasteurized",Nonpareil,US No. 1 (Supreme),22/24
42212,Sorting,983194,Finished Goods Tag,10/13/2021 8:12:49 AM,11/8/2021 12:00:00 AM,2200,"Nonpareil Variety, US No. 1 (Supreme), Max 5% C&S, Meats, 22/24 AOL, Unpasteurized",Nonpareil,US No. 1 (Supreme),22/24
42212,Sorting,983211,Finished Goods Tag,10/13/2021 8:42:24 AM,11/8/2021 12:00:00 AM,2200,"Nonpareil Variety, US No. 1 (Supreme), Max 5% C&S, Meats, 22/24 AOL, Unpasteurized",Nonpareil,US No. 1 (Supreme),22/24
42212,Sorting,983258,Finished Goods Tag,10/13/2021 9:22:52 AM,11/8/2021 12:00:00 AM,2200,"Nonpareil Variety, US No. 1 (Supreme), Max 5% C&S, Meats, 22/24 AOL, Unpasteurized",Nonpareil,US No. 1 (Supreme),22/24
42212,Sorting,983300,Finished Goods Tag,10/13/2021 10:36:27 AM,11/8/2021 12:00:00 AM,2200,"Nonpareil Variety, US No. 1 (Supreme), Max 5% C&S, Meats, 22/24 AOL, Unpasteurized",Nonpareil,US No. 1 (Supreme),22/24
42212,Sorting,983330,Finished Goods Tag,10/13/2021 11:22:52 AM,11/8/2021 12:00:00 AM,2200,"Nonpareil Variety, US No. 1 (Supreme), Max 5% C&S, Meats, 22/24 AOL, Unpasteurized",Nonpareil,US No. 1 (Supreme),22/24
42212,Sorting,983368,Finished Goods Tag,10/13/2021 12:29:33 PM,11/8/2021 12:00:00 AM,2200,"Nonpareil Variety, US No. 1 (Supreme), Max 5% C&S, Meats, 22/24 AOL, Unpasteurized",Nonpareil,US No. 1 (Supreme),22/24
42212,Sorting,983394,Finished Goods Tag,10/13/2021 1:11:51 PM,11/8/2021 12:00:00 AM,2200,"Nonpareil Variety, US No. 1 (Supreme), Max 5% C&S, Meats, 22/24 AOL, Unpasteurized",Nonpareil,US No. 1 (Supreme),22/24