﻿Date collecte;Date embouteillage;Embouteilleur;N° Lot 1;N° Lot 2;Citerne;Laiterie;code prod;Identification;Volume Collecté;DLUO;DLUO-30j SAS
09/01/2023;12/01/2023;LSDH;TSB2 T 012;;T19;Herbauges;AMB25;GAEC AMB;11680;11/07/2023;11/06/2023
09/01/2023;12/01/2023;LSDH;TSB2 T 012;;T19;Herbauges;ENCLO25;GAEC DE L'ENCLOS;12232;11/07/2023;11/06/2023
09/01/2023;12/01/2023;LSDH;TSB2 T 012;;T19;Herbauges;LAITZ10;GAEC LAIT Z'AILES;4185;11/07/2023;11/06/2023
09/01/2023;12/01/2023;LSDH;TSB2 T 012;;T25;Herbauges;ROCHE25;GAEC DU ROCHER;6746;11/07/2023;11/06/2023
09/01/2023;12/01/2023;LSDH;TSB2 T 012;;T25;Herbauges;MARAI10;GAEC DES MARAIS;14069;10/08/2023;11/07/2023
09/01/2023;12/01/2023;LSDH;TSB2 T 012;;T25;Herbauges;PAULX1000;GAEC PAULX DE LAIT;3112;10/08/2023;11/07/2023
09/01/2023;12/01/2023;LSDH;TSB2 T 012;;T25;Herbauges;LAVEN40;GAEC DE L'AVENIR;3257;10/08/2023;11/07/2023
