{
   "name":"NumBLReception",
   "flow_date":"Date",
   "product":"CodeProduit",
   "quantity":"PoidsObserve",
   "actor_receiver":"SiretMoulin",
   "site_receiver":"CodeSiteMoulin",
   "tool_receiver":"CelluleDestination",
   "actor_sender":null,
   "cf_uniqueness_first":{
      "fixed":"farinesexcellence"
   },
   "specific_data":{
      "Fournisseur":"NomFournisseur",
      "Silo approvisionneur":"SiloApproReception",
      "N\u00b0 de lot livr\u00e9":"NumLot",
      "PS":"PS",
      "H2O":"H2O",
      "PROTEINES":"Prot",
      "Impuret\u00e9s/erg\u00f4t/grains fusari\u00e9s":"ImpuretesErgotGrainsFusaries",
      "DON":"Don",
      "CONTRAT":"Contrat"
   },
   "csv_parameters":{
      "delimiter":";"
   },
   "db_request_mapping":{
      "actor_sender":null,
      "site_sender":null,
      "tool_sender":null,
      "product":{
         "matching_key":"internal_code",
         "owner":"actor_receiver"
      },
      "actor_receiver":{
         "matching_key":"siret_number"
      },
      "site_receiver":{
         "matching_key":"internal_code",
         "owner":"actor_receiver"
      },
      "tool_receiver":{
         "matching_key":"internal_code",
         "owner":"actor_receiver",
         "site":"site_receiver"
      }
   },
   "transformations":[
      {
         "transformation":"replace",
         "columns":[
            "PoidsObserve"
         ],
         "to_replace":",",
         "placeholder":"."
      }
   ],
   "extra_parameters":{
      "date_format":"%d/%m/%Y %H:%M:%S",
      "focus_on":{
         "NomFournisseur":[
            "SOUFFLET AGRICULTURE"
         ]
      }
   }
}