actor_number,name
706171,JJ GLOBAL
43033319500013,COMPIEGNE THIERRY
77562992600012,PROSPERITE FERMIERE
38517880100010,GAEC CHOAIN
48125591700017,FERME DES LOGES
50214445400019,EARL CLIPET
39883503300018,GAEC DE LA CARRIERE
34855732300022,EARL PEGORIER
39406394500015,GAEC FENET
38540630100015,EARL GAY
FR57352014955701352,503020 ITM ST DIE VOSGES
FR57352014955711007,506441 ESSELUNGA PRATO
446099446099,AL SAFI DANONE CO
40328341900048,ALIANE-SANDERS
FR57352014955707635,APPEL FRET POUR LIDL
FR91844095158707951,ATOUTIME SAS
FR66827653973708689,AU BOUQUET FRUITE
FR59513349753704525,AU PANIER GOURMAND CLAIRVOIE NEW
FR66827653973704674,AU PETIT BON HOME
704493704493,AUCHAN RETAIL SENEGAL (SENAS)
190555190555,AZELIS FRANCE
BE0670549122710381,BARRY CALLEBAUT (ENT. GDC - LOKEREN)
BE0670549122708645,BARRY CALLEBAUT (ENT.DEROCKER)
34337776800019,BECUE PASCAL
CZ45792186864710,BIESTERFELD REP. TCHEQUE
191082191082,BIO NATURAL FOODS SARL
43276736600011,BIOARMOR DEVELOPPEMENT
FR11332946615707331,BISCUITERIE TRAOU MAD (ENT INNOV'IA SA)
FR11332946615702493,BISCUITERIE TRAOU MAD SA
FR11332946615707975,BISCUITERIE TRAOU MAD SA
78150710800012,BONILAIT
FR78508816626703208,BOUCHERIE MESUREUR
FR12383228764550137,BRESSOR
FR57352014955701429,CAMPBON
191805191805,CAMPO VERDE
FR57352014955378075,CANDIA SAS
FR57352014955550159,CANDIA SAS
52161643300012,CAUWET
FR63564202166550151,CEMOI CHOCOLATIER (PERPIGNAN)
FR00501645196513208,CF & RICHESMONTS VIGNEULLES
191089191089,CHATEAU BLANC
FR83494030174859814,CHEMLOG SAS
191902191902,CHI LIMITED
35339534600060,CHOCOLATERIE WEISS
35294638800019,COMPIEGNE PHILIPPE
77562992600038,COOP LAITIERE ARTOIS FLANDRE STPOL
38511023401211,COOPERATIVE UNEAL
FR83433935764704752,CPK Production France
‎FR83433935764704752,CPK PRODUCTION FRANCE
FR52331804583705351,CUISINE CENTRALE DE LYS
39536062100019,CUVILLIER
BE0869779105,DEBAEKE BVBA
BE 0429 887 073,DUMOULIN NV
41165625900016,EARL BONNINGUES BERTRAND
84828196000015,EARL CAUWET
40098713700017,EARL CHIVORET
50214445400019,EARL CLIPET
45104576900010,EARL COUVREUR
38088575600011,EARL COUVREUR HERVE
84266592900019,EARL D HARDENTHUN
37946533900016,EARL D HERQUELINGUE
41521701700011,EARL DE CREMINIL
50431552400018,EARL DE HOUPPE VENT
42037549500017,EARL DE L EPRIEZ
41458499500024,EARL DE LA FERME LIBESSART
75129800100015,
39367642400012,EARL DE LA WATTINE
49125200300018,EARL DE MORLINGHEN
42288368600012,EARL DE ROSNY JACQUES & ELISABETH
84283760100017,EARL DEGRENDELE JM
53245173900017,EARL DELAMBRE DESPREZ
42273201600015,EARL DEROLEZ LAURENT
49993498200012,EARL DES 2 VALLEES HEDIN BENOIT
51199720700010,EARL DES FLANDRES
51187254100012,EARL DHENIN ALAIN
48801268300014,EARL DU FORESTEL
40186400400015,EARL DU GRAND BOIS
50271318300015,EARL DU MOULIN DE SENLECQUES
88299458500017,EARL DU PIGEONNIER
89325132200010,EARL FEUTRY FREDDY
50931256700019,EARL GARDIN DOMINIQUE & JACQUELINE
38540630100015,EARL GAY
88238164300015,EARL HOCHART
FR91380969337,EARL HOCHEDE
41130874500024,EARL HONORE CARON
81745129700011,EARL LA BOULOY MARTEL FRANCIS
38449334200016,EARL LEHEUDRE DENIS & NATHALIE
49752981800013,EARL LELEU JEAN PAUL
51031391900019,EARL LIGNIER
33408748300015,EARL LOTTILLIER
83387938000016,EARL MARTINAGE
42268378900016,EARL MERLEN DURIEZ
34855732300022,EARL PEGORIER
40438127900011,EARL PREVOST SAMIER BERNARD ET DAVID
84203029800017,EARL SEPTIER PHILIPPE PHILIPPE
32329913100017,EARL TEMPEZ TEMPEZ JEREMY
42288122700017,EARL WALLE HOLUIGUE
705265705265,EB SERVICES COMPANY LIMITED
699015699015,ECHANTILLONS GULF FOOD
FR83494030174703448,ECL (Les Glaces Antolin) S.A.R.L.
90922643300011,EI BECUE ODILE
39992649200014,EI BOIDIN GUILLAIN
50919983200015,EI BOURGOIS JULIEN
49445564500015,EI BOUTILLIER CARON CHRISTIANE
35379473800016,EI BRAURE CHRISTIAN
53841524100016,EI CARON CHRISTIAN
92227421200013,EI CAROUX MARIE GODELEINE
34244586300026,EI CAROUX PATRICK
43033319500013,EI COMPIEGNE THIERRY
39022292500013,EI COQUERELLE JEAN-PATRICK
35338632900018,EI COUVREUR RICHARD
74999014900017,EI DECROIX JEREMY
44369298300010,EI DECROIX JOCELYN
41257164800010,EI DESSAINT BERNADETTE
38187391800019,EI DOUCHET DIDIER
79949824100014,EI DUCLOY RENOLD
90478714000014,EI ESTEVE GENEVIEVE
40291899900028,EI FARDEL MARTIAL
92005496200013,EI FOULON CAMILLE
50374596000016,EI FOURDINIER JEROME
34986425600012,EI GUILBERT BRUNO
41987496100016,EI LAIGLE PHILIPPE
85156775000019,EI LANNEZ SEBASTIEN
81958048100011,EI NEVEU NICOLAS
88061066200012,EI NORMAND FRANCOIS
35395693100011,EI POULAIN JEAN-FRANCOIS
53034479500014,EI QUETU SERGE
82490123500013,EI RINGOT JEREMY
34843732800019,EI ROUSSEL HERVE
91211194500016,EI SOUDANS FRANCOIS
52843579500018,EI TETARD ELIANE
37941813000017,EI VIGNERON SYLVAIN
IT03193610106550324,ELAH DUFOUR SPA
FR57352014955708124,ENTREPOT SCAPARTOIS
43408541100016,ESTEVE AIME
FR81788467918703047,ETS LECONTE
711089711089,Eurofins Technology Service (Suzhou) Co.
FR03349927012106068,EUROGERM SA
49173613800018,FERME DELABY
48125591700017,FERME DES LOGES
38130443500013,FOULON DACQUIN PHILIPPE
FR42493371595699169,FROMAGERIE BEL PRODUCTION VENDOME
FR04316085620550732,FROMAGERIE PERREAULT
48852887800017,GAEC BETHENCOURT
82449696200013,GAEC CARBONNET DENIS ET MATHIEU
38517880100010,GAEC CHOAIN
38236853800015,GAEC DE L ANCIEN MOULIN
39220542300016,GAEC DE L ECURIE
87932206300014,GAEC DE LA BOUVERDRIE
39883503300018,GAEC DE LA CARRIERE
38095991600012,GAEC DE LA HOUBLONNERIE
39901637700026,GAEC DEROLLEZ CLJB
79282838600013,GAEC DES 3 CHENES
43178620100019,GAEC DES ROCHES
44090509900022,GAEC DES SOURCES
44090509900014,GAEC DES SOURCES old
50249844700015,GAEC DESGROUSILLIERS CLAUDE & DORINE
80976873200012,GAEC DU BAJUEL
88464036800012,GAEC DU DRORET
31926820700010,GAEC DU HAUT BUISSON
33187750600013,GAEC DU MARAIS MRS MARTEL
32445566600010,GAEC DU VALLOIS MRS MOUTON
48508539300018,GAEC DUFRENNE FRERES
39406394500015,GAEC FENET
34278223200017,GAEC HANNEBIQUE
81970654000013,GAEC LEJOSNE
41428372100010,GAEC LES MARJOLAINES
35056383900017,GAEC LESOING
34847553400015,GAEC MON PLAISIR
tmp_GAEC MON PLAISIR_SOCOMASH_953,GAEC MON PLAISIR
40240106100013,GAEC MONSIGNY
41354998100012,GAEC PREVOST LOCQUET
84858580800019,GAEC VERRIELLE BRUNO ET ROMAIN
34957831000014,GERENTES SAS
38458041100013,GERVAIS
39071391500010,HILMOINE FOURCROY
FR65389725292704612,ID LOGISTICS - BREBIERES 2
38316848100018,INGREDIA
FR68383168481357115,INGREDIA
697893697893,INGREDIA PTE. LTD.
38316848100026,INGREDIA SAINT POL
FR88417889573612809,INNOV'IA SA
FR65389725292707270,INTERMARCHE BAPAUME
FR65389725292706903,INTERMARCHE LE QUESNOY
FR65389725292704671,ITM ALIMENTAIRE CHAULNES
FR57352014955707665,ITM ALIMENTAIRE ETB AVION
FR57352014955702375,ITM ALIMENTAIRE INTERNATIONAL
FR57352014955702381,ITM ALIMENTAIRE INTERNATIONAL
FR57352014955702383,ITM ALIMENTAIRE INTERNATIONAL
FR65389725292706715,ITM AUXI LE CHATEAU
FR57352014955706801,ITM AVION
FR57352014955710139,ITM AVION EX VIMY
FR57352014955707664,ITM CYSOING
FR65389725292709847,ITM VIMY
191855191855,J2C COMMUNICATION
FR03440372043191667,JEAN CABY
41498294200099,K+S (ESCO
FR83384643565704667,L'ATELIER DES AFFINEURS
FR44085581494550548,LAITERIE ST DENIS DE L'HOTEL
FR89583720644550919,LAITERIES H.TRIBALLAT
FR19328988274706542,LE FOURNIL ARTESIEN
201229261K,LE PETIT DEPOT PTE LTD
704554,LECLAIT IMPORT AND EXPORT OF FOODS
702738,LECLAIT IMPORT AND EXPORT OF FOODS
FR65389725292703120,LECLERC DAINVILLE
52032366800019,LECLERC DOUAI
FR65389725292702997,LECLERC LUMBRES
FR65389725292702970,LECLERC ST AMAND LES EAUX
43238379200012,LEFRANC
43017485400025,LEROY
FR57352014955701329,LIDL AIX ROUSSET
FR65389725292702553,LIDL AIX ROUSSET
FR65389725292702564,LIDL ARCS SUR ARGENS
FR57352014955708119,LIDL BAZIEGE
FR65389725292702556,LIDL BAZIEGE
FR57352014955701335,LIDL BEZIERS
FR65389725292702557,LIDL BEZIERS
FR65389725292702558,LIDL BORDEAUX CADAUJAC
FR57352014955701252,LIDL BOURG ACHARD
FR65389725292702559,LIDL BOURG ACHARD
FR57352014955701337,LIDL CAMBRAI
FR65389725292702552,LIDL CAMBRAI
FR57352014955707728,LIDL CESTAS
FR57352014955707596,LIDL CHANTELOUP
FR65389725292702579,LIDL CHANTELOUP LES VIGNES
FR57352014955701346,LIDL CHAPELLE ARMENTIERES
FR57352014955701344,LIDL CREGY
FR57352014955701333,LIDL DIRECTION REGIONALE
FR57352014955701343,LIDL ENTZHEIM
FR65389725292702561,LIDL ENTZHEIM
FR57352014955701334,LIDL GONDREVILLE
FR65389725292702562,LIDL GONDREVILLE
FR65389725292702568,LIDL LA CHAPELLE
FR57352014955701336,LIDL LES ARCS
FR57352014955701331,LIDL LILLERS
FR65389725292702569,LIDL LILLERS
FR65389725292702570,LIDL LUNEL
FR65389725292702560,LIDL MEAUX CREGY LES MEAUX
FR57352014955701345,LIDL MONTCEAU
FR65389725292702572,LIDL MONTCHANIN
FR65389725292702571,LIDL MONTOY FLANVILLE
FR65389725292705986,LIDL SAINT QUENTIN FALLAVIER
FR57352014955709033,LIDL ST QUENTIN
FR65389725292702578,LIDL VARS
FR57352014955708118,LIDL VARS ANGOULEM
FR65389725292706660,LOGIDIS VENDIN 2
FR3487976776707671,MAISON NOE
FR03482076999702473,MARC VAURETTE-TRAITEUR
41359600800016,MERCIER DOMINIQUE
FR83494030174699241,METAROM FRANCE (VIA AZELIS)
FR52399315613705768,METRO CASH AND CARRY SAS AMIENS
FR52399315613705813,METRO CASH AND CARRY SAS CALAIS
FR52399315613191591,METRO CASH AND CARRY SAS HENIN BEAUMONT
FR52399315613705764,METRO CASH AND CARRY SAS LOMME
FR52399315613705766,METRO CASH AND CARRY SAS VALENCIENNES
FR52399315613705767,METRO CASH AND CARRY SAS WATTRELOS
192171192171,MONTEAGLE CONSUMER GROUP
ESB96184874905558,NATRA CACAO VALENCIA
FR45802419804708575,NOGEKA EXOTIC FOOD
49034814100014,NORD ESTER
707022,NORMANDIE LIVRAISON
51775721700099,NOVIAL
39056948100018,NUTRILAC
FR65488095902708389,OTERA FRANCE (AMIENS)
FR65488095902710822,OTERA FRANCE (AULNOY L/VALENCIENNES)
FR91538444472700860,OTERA FRANCE (AVELIN)
FR65488095902700860,OTERA FRANCE (AVELIN)
FR65 488 095 902712157,OTERA FRANCE (ILLIES)
FR65488095902700573,OTERA FRANCE (SART)
FR65488095902702996,OTERA FRANCE (ST ANDRE)
FR65488095902167021,OTERA TOUT PRET (V D'ASCQ)
191802191802,PANIFRAIS  LOMME BOULANGERIE
FR52446850075705872,PATISFRAIS
79810892400019,PECTOFEED SAS
39469488900012,PETIT CHRISTOPHE
40879732200018,PEUVION
192010192010,POM ALLIANCE FOODSTUFF TRADING L.L.C
FR56552044992167002,POMONA - PASSION FROID
167002167002,POMONA - PASSION FROID old
FR36388156663540204,PROALIM S.A.S.
FR13443079090703437,PROLAIDIS SAS
44307909000017,PROLAIDIS SAS
FR13443079090707918,PROLAIDIS SAS
77562992600012,PROSPERITE FERMIERE
FR52775629926704913,PROSPERITE FERMIERE
2.190.502.104,QUARTES
41069559700012,RIVAUX CHRISTOPHE
FR27353461700704914,SA LECUBIN ET FILS
EE100676826618984,SAAREMA
39129420400014,SABE
FR85827968421707782,SARL Ferme des Hayettes
FR89334611258702763,SARL NOE JEAN-MARC
FR58788885366706396,SARL VASSANT Père & Fils
FR58788885366709157,SARL VASSANT Père & Fils
FR19311867386703190,SAS DESSAILLY GILLES REST
36320059300038, SAS DURANEL
72172085200012,SAS RINGARD AGRI
43386939300010,SCAP ARTOIS
FR65389725292705702,SCAPARTOIS
FR65389725292709214,SCAPARTOIS CELLULE 7 PROMO
FR65389725292712585,SCAPARTOIS CELLULE 8
FR65389725292706576,SCAPARTOIS RECEPTION ALCOOLS
FR65389725292706572,SCAPARTOIS RECEPTION PROMO
51461692900014,SCEA BILLET FRERES
84099835500019,SCEA DE DRIONVILLE
88287545300012,SCEA DE LA PLACE
81830003000017,SCEA DES SAPINS
91004184700013,SCEA DES VERTES PRAIRIES
79968946800012,SCEA DU BIEN CAMP
43270278500010,SCEA LIEVIN LECOUSTRE
52232273400016,SCEA SACLEUX
47756920600014,SCEA SOLEIL
92088413700018,SCEA WALLOIS
FR65389725292701950,SCPL
FR01450414420550179,SE CHAVEGRAND
704493,SENAS SA
80207300700014,SERMIX ST NOLFF
C40595,SEVEN SEVEN CO LTD
FR93950003186550843,SIF
43864341300026,SOCOMASH
121032121032,SONODI SARL
48885671700019,SOUDANS PASCAL
649355649355,SUNG ONE FI  CO LTD.
FR69821415031704730,SUPERQUINQUIN
FR83494030174376030,TATE&LYLE
53324797900123,TEREOS ATTIN
53424797900057,TEREOS BOIRY
53524797900032,TEREOS LILLERS
FR24882910979708188,TERRE D'ORIGINE
043501_535 247 979 00032_12489,tmp_043501_535 247 979 00032_12489
702645702645,"TRICOM BIO Co.,Ltd"
30378213000015, VAESKEN SAS
FR79435480520704320,VALRHONA SAS
FR19328988274701274,VANDENBULCKE S.A.
SI52977307191587,VEGO D.O.O.
436888295, VERBRUGGHE SA
FR60341633725700927,VERTDIS SAS
FR57352014955701432,VIENNE
83354011500015,YSEO SAS
