﻿{
    "name": "Sizer Batch-Hour",
    "flow_date": "DateCreated",
    "actor_sender": {
        "fixed": "USPOMONA"
    },
    "site_sender": "FieldDesc",
    "tool_sender": null,
    "product": "VarietyDesc",
    "quantity": "NetWeight",
    "actor_receiver": {
        "fixed": "USMONTEVISTA"
    },
    "site_receiver": {
        "fixed": "PACKER"
    },
    "tool_receiver": null,
    "cf_uniqueness_first": {
        "fixed": "DACO BELLO"
    },
    "specific_data": {
        "Lot de tri": "SizerWONumber",
        "Batch Number": "Batch Number",
        "Block": "FieldDesc",
        "Receiving Year": "ReceivingYear",
        "DLUO": {
            "reference": "DateCreated"
        },
        "VarietyDesc": "VarietyDesc",
        "Hour": {
            "reference": "DateCreated"
        },
        "Sizer Batch-Hour": "Sizer Batch-Hour"
    },
    "csv_parameters": {
        "delimiter": ";"
    },
    "db_request_mapping": {
        "actor_sender": {
            "matching_key": "siret_number",
            "matching_table": "Actor"
        },
        "site_sender": {
            "matching_key": "internal_code",
            "owner": "actor_sender"
        },
        "tool_sender": null,
        "product": {
            "matching_key": "internal_code",
            "owner": "actor_receiver"
        },
        "actor_receiver": {
            "matching_key": "siret_number",
            "matching_table": "Actor"
        },
        "site_receiver": {
            "matching_key": "internal_code",
            "owner": "actor_receiver"
        },
        "tool_receiver": null
    },
    "transformations": [
        {
            "transformation": "change_date_format",
            "columns": [
                "Hour"
            ],
            "old_format": "%m/%d/%y %H:%M",
            "new_format": "%H:%M"
        },
        {
            "transformation": "concatenate",
            "columns": [
                "SizerWONumber",
                "Hour"
            ],
            "target": "Sizer Batch-Hour",
            "format": "{}-{}"
        },
        {
            "transformation": "append",
            "columns": [
                "ReceivingYear"
            ],
            "to": "left",
            "to_add": "20"
        },
        {
            "transformation": "change_date_format",
            "columns": [
                "DLUO"
            ],
            "old_format": "%m/%d/%y %H:%M",
            "new_format": "%d/%m/%y"
        },
        {
            "transformation": "timedelta",
            "columns": [
                "DLUO"
            ],
            "date_format": "%d/%m/%y",
            "delta": {
                "days": 365
            }
        },
        {
            "transformation": "concatenate",
            "columns": [
                "FieldDesc",
                "ReceivingYear",
                "VarietyDesc"
            ],
            "target": "Batch Number",
            "format": "{}-{}-{}"
        }
    ],
    "extra_parameters": {
        "date_format": "%m/%d/%y %H:%M"
    }
}