{
    "name":"id_tournee",
    "flow_date":"date",
    "actor_sender":"tr_operateur_transport_ident",
    "site_sender":null,
    "tool_sender":null,
    "product":"tr_type_animaux_code",
    "quantity":"nb_animaux",
    "actor_receiver":"mt_site_numero_ident",
    "site_receiver":"mt_site_numero_ident",
    "tool_receiver":null,
    "specification":{
       "fixed":"PREFERENCE PAE"
    },
    "actor_reference":{
       "fixed":"34067971100036"
    },
    "cf_uniqueness_first":{
       "fixed":"PORC ARMOR EVOLUTION"
    },
    "specific_data":{
       "ID Tourn\u00e9e":"id_tournee",
       "IDM \u00c9levage":"mt_site_numero_ident",
       "Immatriculation du camion":"immatriculation_camion",
       "Nom du transporteur":"transporteur_nom"
    },
    "csv_parameters":{
       "delimiter":";",
       "decimal":"."
    },
    "db_request_mapping":{
       "actor_reference":{
          "matching_key":"siret_number",
          "matching_table":"Actor"
       },
       "actor_sender":{
          "matching_key":"connection",
          "owner":"actor_reference",
          "matching_table":"ActorTranscode"
       },
       "site_sender":null,
       "tool_sender":null,
       "product":{
          "matching_key":"internal_code",
          "owner":"actor_reference"
       },
       "actor_receiver":{
          "matching_key":"connection",
          "owner":"actor_reference",
          "matching_table":"ActorTranscode"
       },
       "site_receiver":{
          "matching_key":"internal_code",
          "owner":"actor_receiver"
       },
       "tool_receiver":null
    },
    "transformations":[
       
    ],
    "extra_parameters":{
       "focus_on":{
          "type_mouvement":[
             "D"
          ],
          "tr_type_animaux_code":[
             "RP"
          ],
          "mt_site_numero_ident":[
             "29NT1",
             "29SPK",
             "29FRC",
             "56DTX",
             "29JTC",
             "29WG1",
             "29AT9",
             "29BZQ",
             "29WK1",
             "29SJ2"
          ]
       }
    }
 }